.Xil/Vivado-4887-luiscarlos-GL552VX/iladata/zip_work/iladata.vcd
$date
        2023-Jun-06 00:18:25
$end
$version
        Vivado v2021.2 (64-bit)
$end
$timescale
        1ps
$end
$scope module dut $end
$var reg 1 " design_1_i/system_ila_0/inst/probe0_1 $end
$var reg 1 # design_1_i/system_ila_0/inst/probe1_1 $end
$var reg 1 $ design_1_i/system_ila_0/inst/probe2_1 $end
$var reg 1 % design_1_i/system_ila_0/inst/probe3_1 $end
$var reg 1 & design_1_i/system_ila_0/inst/probe4_1 $end
$var reg 1 ' design_1_i/system_ila_0/inst/probe5_1 $end
$var reg 32 ( design_1_i/system_ila_0/inst/probe6_1 [31:0] $end
$var reg 1 H design_1_i/system_ila_0/inst/probe7_1 $end
$var reg 32 I design_1_i/system_ila_0/inst/probe8_1 [31:0] $end
$var reg 1 i design_1_i/system_ila_0/inst/probe9_1 $end
$var reg 1 j design_1_i/system_ila_0/inst/probe10_1 $end
$var reg 1 k design_1_i/system_ila_0/inst/probe11_1 $end
$var reg 1 l design_1_i/system_ila_0/inst/SLOT_0_ICAP_csib_1 $end
$var reg 32 m design_1_i/system_ila_0/inst/SLOT_0_ICAP_i_1 [31:0] $end
$var reg 32 /" design_1_i/system_ila_0/inst/SLOT_0_ICAP_o_1 [31:0] $end
$var reg 1 O" design_1_i/system_ila_0/inst/SLOT_0_ICAP_rdwrb_1 $end
$var reg 1 P" design_1_i/system_ila_0/inst/SLOT_0_ICAP_avail_1 $end
$var reg 1 Q" design_1_i/system_ila_0/inst/SLOT_0_ICAP_prdone_1 $end
$var reg 1 R" design_1_i/system_ila_0/inst/SLOT_0_ICAP_prerror_1 $end
$var reg 2 S" design_1_i/system_ila_0/inst/net_slot_1_axi_ar_cnt [1:0] $end
$var reg 32 U" design_1_i/system_ila_0/inst/net_slot_1_axi_araddr [31:0] $end
$var reg 2 u" design_1_i/system_ila_0/inst/net_slot_1_axi_arburst [1:0] $end
$var reg 4 w" design_1_i/system_ila_0/inst/net_slot_1_axi_arcache [3:0] $end
$var reg 8 {" design_1_i/system_ila_0/inst/net_slot_1_axi_arlen [7:0] $end
$var reg 3 %# design_1_i/system_ila_0/inst/net_slot_1_axi_arprot [2:0] $end
$var reg 3 (# design_1_i/system_ila_0/inst/net_slot_1_axi_arsize [2:0] $end
$var reg 4 +# design_1_i/system_ila_0/inst/net_slot_1_axi_aruser [3:0] $end
$var reg 2 /# design_1_i/system_ila_0/inst/net_slot_1_axi_aw_cnt [1:0] $end
$var reg 32 1# design_1_i/system_ila_0/inst/net_slot_1_axi_awaddr [31:0] $end
$var reg 2 Q# design_1_i/system_ila_0/inst/net_slot_1_axi_awburst [1:0] $end
$var reg 4 S# design_1_i/system_ila_0/inst/net_slot_1_axi_awcache [3:0] $end
$var reg 8 W# design_1_i/system_ila_0/inst/net_slot_1_axi_awlen [7:0] $end
$var reg 3 _# design_1_i/system_ila_0/inst/net_slot_1_axi_awprot [2:0] $end
$var reg 3 b# design_1_i/system_ila_0/inst/net_slot_1_axi_awsize [2:0] $end
$var reg 2 e# design_1_i/system_ila_0/inst/net_slot_1_axi_b_cnt [1:0] $end
$var reg 2 g# design_1_i/system_ila_0/inst/net_slot_1_axi_r_cnt [1:0] $end
$var reg 32 i# design_1_i/system_ila_0/inst/net_slot_1_axi_rdata [31:0] $end
$var reg 2 +$ design_1_i/system_ila_0/inst/net_slot_1_axi_rresp [1:0] $end
$var reg 32 -$ design_1_i/system_ila_0/inst/net_slot_1_axi_wdata [31:0] $end
$var reg 1 M$ design_1_i/system_ila_0/inst/net_slot_1_axi_awvalid $end
$var reg 2 N$ design_1_i/system_ila_0/inst/net_slot_1_axi_aw_ctrl [1:0] $end
$var reg 1 P$ design_1_i/system_ila_0/inst/net_slot_1_axi_awready $end
$var reg 1 Q$ design_1_i/system_ila_0/inst/net_slot_1_axi_wvalid $end
$var reg 3 R$ design_1_i/system_ila_0/inst/net_slot_1_axi_w_ctrl [2:0] $end
$var reg 1 U$ design_1_i/system_ila_0/inst/net_slot_1_axi_wready $end
$var reg 1 V$ design_1_i/system_ila_0/inst/net_slot_1_axi_wlast $end
$var reg 2 W$ design_1_i/system_ila_0/inst/net_slot_1_axi_b_ctrl [1:0] $end
$var reg 1 Y$ design_1_i/system_ila_0/inst/net_slot_1_axi_bvalid $end
$var reg 1 Z$ design_1_i/system_ila_0/inst/net_slot_1_axi_bready $end
$var reg 2 [$ design_1_i/system_ila_0/inst/net_slot_1_axi_ar_ctrl [1:0] $end
$var reg 1 ]$ design_1_i/system_ila_0/inst/net_slot_1_axi_arvalid $end
$var reg 1 ^$ design_1_i/system_ila_0/inst/net_slot_1_axi_arready $end
$var reg 3 _$ design_1_i/system_ila_0/inst/net_slot_1_axi_r_ctrl [2:0] $end
$var reg 1 b$ design_1_i/system_ila_0/inst/net_slot_1_axi_rvalid $end
$var reg 1 c$ design_1_i/system_ila_0/inst/net_slot_1_axi_rready $end
$var reg 1 d$ design_1_i/system_ila_0/inst/net_slot_1_axi_rlast $end
$var reg 2 e$ design_1_i/system_ila_0/inst/net_slot_2_axi_ar_cnt [1:0] $end
$var reg 32 g$ design_1_i/system_ila_0/inst/net_slot_2_axi_araddr [31:0] $end
$var reg 2 )% design_1_i/system_ila_0/inst/net_slot_2_axi_arburst [1:0] $end
$var reg 4 +% design_1_i/system_ila_0/inst/net_slot_2_axi_arcache [3:0] $end
$var reg 8 /% design_1_i/system_ila_0/inst/net_slot_2_axi_arlen [7:0] $end
$var reg 1 7% design_1_i/system_ila_0/inst/net_slot_2_axi_arlock $end
$var reg 3 8% design_1_i/system_ila_0/inst/net_slot_2_axi_arprot [2:0] $end
$var reg 4 ;% design_1_i/system_ila_0/inst/net_slot_2_axi_arqos [3:0] $end
$var reg 3 ?% design_1_i/system_ila_0/inst/net_slot_2_axi_arsize [2:0] $end
$var reg 2 B% design_1_i/system_ila_0/inst/net_slot_2_axi_aw_cnt [1:0] $end
$var reg 32 D% design_1_i/system_ila_0/inst/net_slot_2_axi_awaddr [31:0] $end
$var reg 2 d% design_1_i/system_ila_0/inst/net_slot_2_axi_awburst [1:0] $end
$var reg 4 f% design_1_i/system_ila_0/inst/net_slot_2_axi_awcache [3:0] $end
$var reg 8 j% design_1_i/system_ila_0/inst/net_slot_2_axi_awlen [7:0] $end
$var reg 1 r% design_1_i/system_ila_0/inst/net_slot_2_axi_awlock $end
$var reg 3 s% design_1_i/system_ila_0/inst/net_slot_2_axi_awprot [2:0] $end
$var reg 4 v% design_1_i/system_ila_0/inst/net_slot_2_axi_awqos [3:0] $end
$var reg 3 z% design_1_i/system_ila_0/inst/net_slot_2_axi_awsize [2:0] $end
$var reg 2 }% design_1_i/system_ila_0/inst/net_slot_2_axi_b_cnt [1:0] $end
$var reg 2 !& design_1_i/system_ila_0/inst/net_slot_2_axi_bresp [1:0] $end
$var reg 2 #& design_1_i/system_ila_0/inst/net_slot_2_axi_r_cnt [1:0] $end
$var reg 32 %& design_1_i/system_ila_0/inst/net_slot_2_axi_rdata [31:0] $end
$var reg 2 E& design_1_i/system_ila_0/inst/net_slot_2_axi_rresp [1:0] $end
$var reg 32 G& design_1_i/system_ila_0/inst/net_slot_2_axi_wdata [31:0] $end
$var reg 4 g& design_1_i/system_ila_0/inst/net_slot_2_axi_wstrb [3:0] $end
$var reg 1 k& design_1_i/system_ila_0/inst/net_slot_2_axi_awvalid $end
$var reg 2 l& design_1_i/system_ila_0/inst/net_slot_2_axi_aw_ctrl [1:0] $end
$var reg 1 n& design_1_i/system_ila_0/inst/net_slot_2_axi_awready $end
$var reg 3 o& design_1_i/system_ila_0/inst/net_slot_2_axi_w_ctrl [2:0] $end
$var reg 1 r& design_1_i/system_ila_0/inst/net_slot_2_axi_wvalid $end
$var reg 1 s& design_1_i/system_ila_0/inst/net_slot_2_axi_wready $end
$var reg 1 t& design_1_i/system_ila_0/inst/net_slot_2_axi_wlast $end
$var reg 2 u& design_1_i/system_ila_0/inst/net_slot_2_axi_b_ctrl [1:0] $end
$var reg 1 w& design_1_i/system_ila_0/inst/net_slot_2_axi_bvalid $end
$var reg 1 x& design_1_i/system_ila_0/inst/net_slot_2_axi_bready $end
$var reg 1 y& design_1_i/system_ila_0/inst/net_slot_2_axi_arvalid $end
$var reg 2 z& design_1_i/system_ila_0/inst/net_slot_2_axi_ar_ctrl [1:0] $end
$var reg 1 |& design_1_i/system_ila_0/inst/net_slot_2_axi_arready $end
$var reg 1 }& design_1_i/system_ila_0/inst/net_slot_2_axi_rvalid $end
$var reg 3 ~& design_1_i/system_ila_0/inst/net_slot_2_axi_r_ctrl [2:0] $end
$var reg 1 #' design_1_i/system_ila_0/inst/net_slot_2_axi_rready $end
$var reg 1 $' design_1_i/system_ila_0/inst/net_slot_2_axi_rlast $end
$var reg 32 %' design_1_i/system_ila_0/inst/net_slot_3_axis_tdata [31:0] $end
$var reg 3 E' design_1_i/system_ila_0/inst/net_slot_3_axis_tid [2:0] $end
$var reg 4 H' design_1_i/system_ila_0/inst/net_slot_3_axis_tkeep [3:0] $end
$var reg 1 L' design_1_i/system_ila_0/inst/net_slot_3_axis_tvalid $end
$var reg 1 M' design_1_i/system_ila_0/inst/net_slot_3_axis_tready $end
$var reg 1 N' design_1_i/system_ila_0/inst/net_slot_3_axis_tlast $end
$var reg 32 O' design_1_i/system_ila_0/inst/net_slot_4_axis_tdata [31:0] $end
$var reg 1 o' design_1_i/system_ila_0/inst/net_slot_4_axis_tvalid $end
$var reg 1 p' design_1_i/system_ila_0/inst/net_slot_4_axis_tready $end
$var reg 1 q' design_1_i/system_ila_0/inst/net_slot_4_axis_tlast $end
$var reg 3 r' AR_Channel__i1_s1___dfx_controller_0_M_AXI_MEM_ [2:0] $end
$var reg 3 u' AR_Channel__i1_s2___axi_mm2s_mapper_0_M_AXI_ [2:0] $end
$var reg 3 x' AW_Channel__i1_s1___dfx_controller_0_M_AXI_MEM_ [2:0] $end
$var reg 3 {' AW_Channel__i1_s2___axi_mm2s_mapper_0_M_AXI_ [2:0] $end
$var reg 3 ~' B_Channel__i1_s1___dfx_controller_0_M_AXI_MEM_ [2:0] $end
$var reg 3 #( B_Channel__i1_s2___axi_mm2s_mapper_0_M_AXI_ [2:0] $end
$var reg 3 &( Interface__i1_s1___dfx_controller_0_M_AXI_MEM_ [2:0] $end
$var reg 3 )( Interface__i1_s2___axi_mm2s_mapper_0_M_AXI_ [2:0] $end
$var reg 3 ,( Interface__i1_s3___axi_mm2s_mapper_0_M_AXIS_ [2:0] $end
$var reg 3 /( R_Channel__i1_s1___dfx_controller_0_M_AXI_MEM_ [2:0] $end
$var reg 3 2( R_Channel__i1_s2___axi_mm2s_mapper_0_M_AXI_ [2:0] $end
$var reg 3 5( T_Channel__i1_s3___axi_mm2s_mapper_0_M_AXIS_ [2:0] $end
$var reg 3 8( W_Channel__i1_s1___dfx_controller_0_M_AXI_MEM_ [2:0] $end
$var reg 3 ;( W_Channel__i1_s2___axi_mm2s_mapper_0_M_AXI_ [2:0] $end
$var reg 16 >( ila_1___slot_1___dfx_controller_0_M_AXI_MEM___Read_Transactions_0 [15:0] $end
$var reg 16 N( ila_1___slot_2___axi_mm2s_mapper_0_M_AXI___Read_Transactions_0 [15:0] $end
$var reg 1 ^( _TRIGGER $end
$var reg 1 _( _WINDOW $end
$var reg 1 `( _GAP $end
$upscope $end
$enddefinitions $end
#0
$dumpvars
0"
0#
1$
0%
0&
0'
b0 (
0H
b0 I
0i
1j
0k
1l
b0 m
b11111111111111111111111110011011 /"
0O"
1P"
1Q"
0R"
b0 S"
b0 U"
b0 u"
b11 w"
b0 {"
b0 %#
b0 (#
b0 +#
b0 /#
b0 1#
b1 Q#
b11 S#
b0 W#
b0 _#
b10 b#
b0 e#
b0 g#
b0 i#
b0 +$
b0 -$
0M$
b10 N$
1P$
0Q$
b0 R$
0U$
0V$
b0 W$
0Y$
0Z$
b10 [$
0]$
1^$
b0 _$
0b$
0c$
0d$
b0 e$
b0 g$
b0 )%
b0 +%
b0 /%
07%
b0 8%
b0 ;%
b0 ?%
b0 B%
b0 D%
b0 d%
b0 f%
b0 j%
0r%
b0 s%
b0 v%
b0 z%
b0 }%
b0 !&
b0 #&
b0 %&
b0 E&
b0 G&
b0 g&
0k&
b10 l&
1n&
b0 o&
0r&
0s&
0t&
b10 u&
0w&
1x&
0y&
b10 z&
1|&
0}&
b10 ~&
1#'
0$'
b0 %'
b0 E'
b1 H'
0L'
0M'
1N'
b0 O'
0o'
1p'
0q'
b0 r'
b0 u'
b11 x'
b11 {'
b11 ~'
b11 #(
b0 &(
b0 )(
b0 ,(
b0 /(
b0 2(
b0 5(
b100 8(
b100 ;(
b0 >(
b0 N(
0^(
1_(
0`(
$end
#1024
1#
1^(
#1043
b1011100110011000100000 U"
b1 u"
b1110111 {"
b10 (#
b11 [$
1]$
b10 r'
b1 &(
#1044
b1 S"
b0 U"
b0 u"
b0 {"
b0 (#
b1 g#
b0 [$
0]$
0^$
b10 _$
1c$
b0 r'
b0 &(
#1045
b1011100110011000100000 %'
b10 E'
b1111 H'
1L'
1M'
0N'
b1 ,(
b1 5(
#1046
b10 [$
1^$
b1110111001101010000 %'
1N'
b10 5(
#1047
b0 %'
0L'
0M'
0N'
b0 ,(
b0 5(
#1048
b1011100110100000000000 U"
b1 u"
b11111111 {"
b10 (#
b11 [$
1]$
b10 r'
b1 &(
#1049
b10 S"
b0 U"
b0 u"
b0 {"
b0 (#
b10 g#
b0 [$
0]$
0^$
b1011100110100000000000 %'
b0 r'
b0 &(
#1050
1L'
1M'
b1 ,(
b1 5(
#1051
b10 [$
1^$
b11111111001101010000 %'
1N'
b10 5(
#1052
b0 %'
0L'
0M'
0N'
b0 ,(
b0 5(
#1053
b1011100110110000000000 U"
b1 u"
b11111111 {"
b10 (#
b11 [$
1]$
b10 r'
b1 &(
b1 >(
#1054
b11 S"
b0 U"
b0 u"
b0 {"
b0 (#
b11 g#
b0 [$
0]$
0^$
b1011100110110000000000 %'
b0 r'
b0 &(
#1055
1L'
1M'
b1 ,(
b1 5(
#1056
b10 [$
1^$
b11111111001101010000 %'
1N'
b10 5(
#1057
b100 o&
1t&
b0 %'
0L'
0M'
0N'
b0 ,(
b0 5(
#1058
b1011100111000000000000 U"
b1 u"
b11111111 {"
b10 (#
b11 [$
1]$
b1011100110011000100000 g$
b1 )%
b11 +%
b1110111 /%
b10 ?%
1y&
b11 z&
b10 r'
b10 u'
b1 &(
b1 )(
#1059
b0 S"
b0 U"
b0 u"
b0 {"
b0 (#
b0 g#
b0 [$
0]$
0^$
b1 e$
b0 g$
b0 )%
b0 +%
b0 /%
b0 ?%
b1 #&
0y&
b10 z&
b1011100111000000000000 %'
b0 r'
b0 u'
b0 &(
b0 )(
#1060
1L'
1M'
b1 ,(
b1 5(
#1061
b10 [$
1^$
b0 o&
0t&
b11111111001101010000 %'
1N'
b10 5(
#1062
b0 %'
0L'
0M'
0N'
b0 ,(
b0 5(
#1063
b1011100111010000000000 U"
b1 u"
b11111111 {"
b10 (#
b11 [$
1]$
b10 r'
b1 &(
#1064
b1 S"
b0 U"
b0 u"
b0 {"
b0 (#
b1 g#
b0 [$
0]$
0^$
b1011100111010000000000 %'
b0 r'
b0 &(
#1065
b100 o&
1t&
1L'
1M'
b1 ,(
b1 5(
#1066
b10 [$
1^$
b1011100110100000000000 g$
b1 )%
b11 +%
b11111111 /%
b10 ?%
1y&
b11 z&
b11111111001101010000 %'
1N'
b10 u'
b1 )(
b10 5(
#1067
b10 e$
b0 g$
b0 )%
b0 +%
b0 /%
b0 ?%
b10 #&
0y&
b10 z&
b0 %'
0L'
0M'
0N'
b0 u'
b0 )(
b0 ,(
b0 5(
#1069
b0 o&
0t&
#1073
b100 o&
1t&
#1074
b1011100110110000000000 g$
b1 )%
b11 +%
b11111111 /%
b10 ?%
1y&
b11 z&
b10 u'
b1 )(
b1 N(
#1075
b11 e$
b0 g$
b0 )%
b0 +%
b0 /%
b0 ?%
b11 #&
0y&
b10 z&
b0 u'
b0 )(
#1077
b0 o&
0t&
#1081
b100 o&
1t&
#1082
b1011100111000000000000 g$
b1 )%
b11 +%
b11111111 /%
b10 ?%
1y&
b11 z&
b10 u'
b1 )(
#1083
b0 e$
b0 g$
b0 )%
b0 +%
b0 /%
b0 ?%
b0 #&
0y&
b10 z&
b0 u'
b0 )(
#1085
b0 o&
0t&
#1089
b100 o&
1t&
#1090
b1011100111010000000000 g$
b1 )%
b11 +%
b11111111 /%
b10 ?%
1y&
b11 z&
b10 u'
b1 )(
#1091
b1 e$
b0 g$
b0 )%
b0 +%
b0 /%
b0 ?%
b1 #&
0y&
b10 z&
b0 u'
b0 )(
#1102
b11001000111100000100100111100100 %&
1}&
b11 ~&
b1 )(
b1 2(
#1103
b1101100110011111100010111100101 %&
b1 ~&
0#'
b0 )(
b0 2(
#1104
b11001000111100000100100111100100 %'
b11 E'
1L'
1M'
b1 ,(
b1 5(
#1105
b11 ~&
1#'
b0 %'
b1 H'
1N'
b1 )(
b1 2(
b10 5(
#1106
b1101110011101010110111001010010 %&
b1 ~&
0#'
b1101100110011111100010111100101 %'
b1111 H'
0L'
0M'
0N'
b0 )(
b0 ,(
b0 2(
b0 5(
#1107
1L'
1M'
b1 ,(
b1 5(
#1108
b11 ~&
1#'
b0 %'
b1 H'
1N'
b1 )(
b1 2(
b10 5(
#1109
b11001000111100000100100111100100 I
b10011010010011000001100000101001 %&
b1 ~&
0#'
b1101110011101010110111001010010 %'
b1111 H'
0L'
0M'
0N'
b0 )(
b0 ,(
b0 2(
b0 5(
#1110
1L'
1M'
b1 ,(
b1 5(
#1111
b11 ~&
1#'
b0 %'
b1 H'
1N'
b1 )(
b1 2(
b10 5(
#1112
b11001000111100000100100111100100 %&
b1 ~&
0#'
b10011010010011000001100000101001 %'
b1111 H'
0L'
0M'
0N'
b0 )(
b0 ,(
b0 2(
b0 5(
#1113
1L'
1M'
b1 ,(
b1 5(
#1114
b11 ~&
1#'
b0 %'
b1 H'
1N'
b1 )(
b1 2(
b10 5(
#1115
b1101100110011111100010111100101 %&
b1 ~&
0#'
b11001000111100000100100111100100 %'
b1111 H'
0L'
0M'
0N'
b0 )(
b0 ,(
b0 2(
b0 5(
#1116
1L'
1M'
b1 ,(
b1 5(
#1117
b11 ~&
1#'
b0 %'
b1 H'
1N'
b1 )(
b1 2(
b10 5(
#1118
b1101110011101010110111001010010 %&
b1 ~&
0#'
b1101100110011111100010111100101 %'
b1111 H'
0L'
0M'
0N'
b0 )(
b0 ,(
b0 2(
b0 5(
#1119
1L'
1M'
b1 ,(
b1 5(
#1120
b11 ~&
1#'
b0 %'
b1 H'
1N'
b1 )(
b1 2(
b10 5(
#1121
b10011010010011000001100000101001 %&
b1 ~&
0#'
b1101110011101010110111001010010 %'
b1111 H'
0L'
0M'
0N'
b0 )(
b0 ,(
b0 2(
b0 5(
#1122
1L'
1M'
b1 ,(
b1 5(
#1123
b11 ~&
1#'
b0 %'
b1 H'
1N'
b1 )(
b1 2(
b10 5(
#1124
b11001000111100000100100111100100 %&
b1 ~&
0#'
b10011010010011000001100000101001 %'
b1111 H'
0L'
0M'
0N'
b0 )(
b0 ,(
b0 2(
b0 5(
#1125
1L'
1M'
b1 ,(
b1 5(
#1126
b11 ~&
1#'
b0 %'
b1 H'
1N'
b1 )(
b1 2(
b10 5(
#1127
b1101100110011111100010111100101 %&
b1 ~&
0#'
b11001000111100000100100111100100 %'
b1111 H'
0L'
0M'
0N'
b0 )(
b0 ,(
b0 2(
b0 5(
#1128
1L'
1M'
b1 ,(
b1 5(
#1129
b11 ~&
1#'
b0 %'
b1 H'
1N'
b1 )(
b1 2(
b10 5(
#1130
b1101110011101010110111001010010 %&
b1 ~&
0#'
b1101100110011111100010111100101 %'
b1111 H'
0L'
0M'
0N'
b0 )(
b0 ,(
b0 2(
b0 5(
#1131
1L'
1M'
b1 ,(
b1 5(
#1132
b11 ~&
1#'
b0 %'
b1 H'
1N'
b1 )(
b1 2(
b10 5(
#1133
b10011010010011000001100000101001 %&
b1 ~&
0#'
b1101110011101010110111001010010 %'
b1111 H'
0L'
0M'
0N'
b0 )(
b0 ,(
b0 2(
b0 5(
#1134
1L'
1M'
b1 ,(
b1 5(
#1135
b11 ~&
1#'
b0 %'
b1 H'
1N'
b1 )(
b1 2(
b10 5(
#1136
b11001000111100000100100111100100 %&
b1 ~&
0#'
b10011010010011000001100000101001 %'
b1111 H'
0L'
0M'
0N'
b0 )(
b0 ,(
b0 2(
b0 5(
#1137
1H
1L'
1M'
b1 ,(
b1 5(
#1138
0H
b11 ~&
1#'
b0 %'
b1 H'
0M'
1N'
b1 )(
b0 ,(
b1 2(
b0 5(
#1139
b11110011110011111000011010100 (
b1101100110011111100010111100101 %&
b1 ~&
0#'
b0 )(
b0 2(
#1143
b11101001101011110001011100011001 (
#1144
b10010101001100011101111100100111 (
#1148
b10101101001011101110111100111101 (
#1149
b101010000111001001111001100 (
#1153
b110110011001000010001000100111 (
#1154
b10110100000011010101010101100100 (
#1158
b11000110111100111110110110001100 (
#1159
b1111001110000010110011100111001 (
#1163
b10101111110111010000101001011011 (
#1164
b11011101000111111110100010111010 (
#1168
b11001001110010111100100011000000 (
#1169
b10111000001001101001001000010111 (
#1173
b10011010001000110111010010000111 (
#1174
b11001110111010100110111110011 (
#1178
b10001110110010010110010101111110 (
#1179
b10100001011000101111010111100111 (
#1183
b11110001101010110111011110110000 (
#1184
b10111011110101100101111001100001 (
#1188
b11111110010010101001110111011000 (
#1189
b1001100100000111101100100101111 (
#1193
b1011101010000011110010101001110 (
#1194
b10011001100000010001000101010110 (
#1198
b11111001100100011110001110111001 (
#1199
b111000101001011111110010111000 (
#1203
b1110110001010010101010110011010 (
#1204
b111110111010110100101001 (
#1208
b1010010011000110001100001001100 (
#1210
1k
#1216
b110 _$
1d$
b1100 g&
b0 o&
0t&
#1217
b1010010011000110001100001001100 i#
#1219
b11 _$
1b$
0d$
b0 g&
b1 &(
b1 /(
#1220
1i
b10 _$
0b$
b0 &(
b0 /(
#1221
0i
0k
#1222
b1 +$
b110 _$
1d$
b101 g&
#1223
b1010110001010010000110110100101 i#
1M'
b1 ,(
b10 5(
#1224
b11001000111100000100100111100100 %'
b1111 H'
0L'
0M'
0N'
b0 ,(
b0 5(
#1225
b0 +$
b11 _$
1b$
0d$
b0 g&
1L'
b1 &(
b1 /(
#1226
b10 _$
0b$
b0 &(
b0 /(
#1227
1M'
b1 ,(
b1 5(
#1228
b11 +$
b11 g&
b11 ~&
1#'
b0 %'
b1 H'
0M'
1N'
b1 )(
b0 ,(
b1 2(
b0 5(
#1229
b10010101000101101110000011100011 i#
b1101110011101010110111001010010 %&
b1 ~&
0#'
b0 )(
b0 2(
#1231
b0 +$
b11 _$
1b$
b0 g&
1M'
b1 &(
b1 ,(
b1 /(
b10 5(
#1232
0l
b1001010110001100001100000110010 m
b10 _$
0b$
b1101100110011111100010111100101 %'
b1111 H'
0L'
0M'
0N'
b0 &(
b0 ,(
b0 /(
b0 5(
#1233
1l
b1101010100101001011000010100101 m
1L'
#1234
b1 +$
b1001 g&
b100 o&
1t&
#1235
b100011110111001101011110111001 i#
1M'
b1 ,(
b1 5(
#1236
b11 ~&
1#'
b0 %'
b1 H'
0M'
1N'
b1 )(
b0 ,(
b1 2(
b0 5(
#1237
0l
b0 +$
b11 _$
1b$
b10011010010011000001100000101001 %&
b0 g&
b0 o&
0t&
b1 ~&
0#'
b1 &(
b0 )(
b1 /(
b0 2(
#1238
1l
b10101001011010000000011111000111 m
b10 _$
0b$
b0 &(
b0 /(
#1239
1M'
b1 ,(
b10 5(
#1240
b1101110011101010110111001010010 %'
b1111 H'
0L'
0M'
0N'
b0 ,(
b0 5(
#1241
1L'
#1243
0l
1M'
b1 ,(
b1 5(
#1244
1l
b11000100001110111110101110011101 m
b11 ~&
1#'
b0 %'
b1 H'
0M'
1N'
b1 )(
b0 ,(
b1 2(
b0 5(
#1245
b1000011111100010011110001111011 %&
b1 ~&
0#'
b0 )(
b0 2(
#1247
1M'
b1 ,(
b10 5(
#1248
b10011010010011000001100000101001 %'
b1111 H'
0L'
0M'
0N'
b0 ,(
b0 5(
#1249
0l
1L'
#1250
1l
b0 m
#1251
1M'
b1 ,(
b1 5(
#1252
b11 ~&
1#'
b0 %'
b1 H'
0M'
1N'
b1 )(
b0 ,(
b1 2(
b0 5(
#1253
1H
b1110110101101000100010111100100 %&
b1 ~&
0#'
b0 )(
b0 2(
#1254
0H
#1255
b11110011110011111000011010100 (
#1259
b11101001101011110001011100011001 (
#1260
b10010101001100011101111100100111 (
#1264
b10101101001011101110111100111101 (
#1265
b101010000111001001111001100 (
#1269
b110110011001000010001000100111 (
#1270
b10110100000011010101010101100100 (
#1274
b11000110111100111110110110001100 (
#1275
b1111001110000010110011100111001 (
#1279
b10101111110111010000101001011011 (
#1280
b11011101000111111110100010111010 (
#1284
b11001001110010111100100011000000 (
#1285
b10111000001001101001001000010111 (
#1289
b10011010001000110111010010000111 (
#1290
b11001110111010100110111110011 (
#1294
b10001110110010010110010101111110 (
#1295
b10100001011000101111010111100111 (
#1299
b11110001101010110111011110110000 (
#1300
b10111011110101100101111001100001 (
#1304
b11111110010010101001110111011000 (
#1305
b1001100100000111101100100101111 (
#1309
b1011101010000011110010101001110 (
#1310
b10011001100000010001000101010110 (
#1314
b11111001100100011110001110111001 (
#1315
b111000101001011111110010111000 (
#1319
b1110110001010010101010110011010 (
#1320
b111110111010110100101001 (
#1324
b1010010011000110001100001001100 (
#1326
1k
#1332
b110 _$
1d$
b1100 g&
#1333
b1010010011000110001100001001100 i#
#1335
b11 _$
1b$
0d$
b0 g&
b1 &(
b1 /(
#1336
1i
b10 _$
0b$
b0 &(
b0 /(
#1337
0i
0k
#1338
b1001010110001100001100000110010 m
b1 +$
b110 _$
1d$
b101 g&
#1339
b1010110001010010000110110100101 i#
1M'
b1 ,(
b10 5(
#1340
b1000011111100010011110001111011 %'
b1111 H'
0L'
0M'
0N'
b0 ,(
b0 5(
#1341
b0 +$
b11 _$
1b$
0d$
b0 g&
1L'
b1 &(
b1 /(
#1342
b10 _$
0b$
b0 &(
b0 /(
#1343
1M'
b1 ,(
b1 5(
#1344
b11 +$
b11 g&
b11 ~&
1#'
b0 %'
b1 H'
0M'
1N'
b1 )(
b0 ,(
b1 2(
b0 5(
#1345
b10010101000101101110000011100011 i#
b11011111101010011110100000110 %&
b1 ~&
0#'
b0 )(
b0 2(
#1347
0l
b0 +$
b11 _$
1b$
b0 g&
1M'
b1 &(
b1 ,(
b1 /(
b10 5(
#1348
1l
b1101010100101001011000010100101 m
b10 _$
0b$
b1110110101101000100010111100100 %'
b1111 H'
0L'
0M'
0N'
b0 &(
b0 ,(
b0 /(
b0 5(
#1349
1L'
#1350
b1 +$
b1001 g&
b100 o&
1t&
#1351
b100011110111001101011110111001 i#
1M'
b1 ,(
b1 5(
#1352
b11 ~&
1#'
b0 %'
b1 H'
0M'
1N'
b1 )(
b0 ,(
b1 2(
b0 5(
#1353
0l
b0 +$
b11 _$
1b$
b100100010111111111101111011110 %&
b0 g&
b0 o&
0t&
b1 ~&
0#'
b1 &(
b0 )(
b1 /(
b0 2(
#1354
1l
b10101001011010000000011111000111 m
b10 _$
0b$
b0 &(
b0 /(
#1355
1M'
b1 ,(
b10 5(
#1356
b11011111101010011110100000110 %'
b1111 H'
0L'
0M'
0N'
b0 ,(
b0 5(
#1357
1L'
#1359
0l
1M'
b1 ,(
b1 5(
#1360
1l
b11000100001110111110101110011101 m
b11 ~&
1#'
b0 %'
b1 H'
0M'
1N'
b1 )(
b0 ,(
b1 2(
b0 5(
#1361
b10111000010010111011010001001111 %&
b1 ~&
0#'
b0 )(
b0 2(
#1363
1M'
b1 ,(
b10 5(
#1364
b100100010111111111101111011110 %'
b1111 H'
0L'
0M'
0N'
b0 ,(
b0 5(
#1365
0l
1L'
#1366
1l
b0 m
#1367
1M'
b1 ,(
b1 5(
#1368
b11 ~&
1#'
b0 %'
b1 H'
0M'
1N'
b1 )(
b0 ,(
b1 2(
b0 5(
#1369
1H
b11000010110100001010000110110101 %&
b1 ~&
0#'
b0 )(
b0 2(
#1370
0H
#1371
b11110011110011111000011010100 (
#1375
b11101001101011110001011100011001 (
#1376
b10010101001100011101111100100111 (
#1380
b10101101001011101110111100111101 (
#1381
b101010000111001001111001100 (
#1385
b110110011001000010001000100111 (
#1386
b10110100000011010101010101100100 (
#1390
b11000110111100111110110110001100 (
#1391
b1111001110000010110011100111001 (
#1395
b10101111110111010000101001011011 (
#1396
b11011101000111111110100010111010 (
#1400
b11001001110010111100100011000000 (
#1401
b10111000001001101001001000010111 (
#1405
b10011010001000110111010010000111 (
#1406
b11001110111010100110111110011 (
#1410
b10001110110010010110010101111110 (
#1411
b10100001011000101111010111100111 (
#1415
b11110001101010110111011110110000 (
#1416
b10111011110101100101111001100001 (
#1420
b11111110010010101001110111011000 (
#1421
b1001100100000111101100100101111 (
#1425
b1011101010000011110010101001110 (
#1426
b10011001100000010001000101010110 (
#1430
b11111001100100011110001110111001 (
#1431
b111000101001011111110010111000 (
#1435
b1110110001010010101010110011010 (
#1436
b111110111010110100101001 (
#1440
b1010010011000110001100001001100 (
#1442
1k
#1448
b110 _$
1d$
b1100 g&
#1449
b1010010011000110001100001001100 i#
#1451
b11 _$
1b$
0d$
b0 g&
b1 &(
b1 /(
#1452
1i
b10 _$
0b$
b0 &(
b0 /(
#1453
0i
0k
#1454
b1001010110001100001100000110010 m
b1 +$
b110 _$
1d$
b101 g&
#1455
b1010110001010010000110110100101 i#
1M'
b1 ,(
b10 5(
