.Xil/Vivado-270231-luiscarlos-GL552VX/hw_ila_data_1/zip_work/waveform.vcd
$date
        2023-Jun-06 17:04:20
$end
$version
        Vivado v2021.2 (64-bit)
$end
$timescale
        1ps
$end
$scope module dut $end
$var reg 1 " design_1_i/system_ila_0/inst/probe0_1 $end
$var reg 1 # design_1_i/system_ila_0/inst/probe1_1 $end
$var reg 1 $ design_1_i/system_ila_0/inst/probe2_1 $end
$var reg 1 % design_1_i/system_ila_0/inst/probe3_1 $end
$var reg 1 & design_1_i/system_ila_0/inst/probe4_1 $end
$var reg 1 ' design_1_i/system_ila_0/inst/probe5_1 $end
$var reg 128 ( design_1_i/system_ila_0/inst/probe6_1 [127:0] $end
$var reg 1 J" design_1_i/system_ila_0/inst/probe7_1 $end
$var reg 128 K" design_1_i/system_ila_0/inst/probe8_1 [127:0] $end
$var reg 1 m# design_1_i/system_ila_0/inst/probe9_1 $end
$var reg 1 n# design_1_i/system_ila_0/inst/probe10_1 $end
$var reg 1 o# design_1_i/system_ila_0/inst/probe11_1 $end
$var reg 1 p# design_1_i/system_ila_0/inst/SLOT_0_ICAP_csib_1 $end
$var reg 32 q# design_1_i/system_ila_0/inst/SLOT_0_ICAP_i_1 [31:0] $end
$var reg 32 3$ design_1_i/system_ila_0/inst/SLOT_0_ICAP_o_1 [31:0] $end
$var reg 1 S$ design_1_i/system_ila_0/inst/SLOT_0_ICAP_rdwrb_1 $end
$var reg 1 T$ design_1_i/system_ila_0/inst/SLOT_0_ICAP_avail_1 $end
$var reg 1 U$ design_1_i/system_ila_0/inst/SLOT_0_ICAP_prdone_1 $end
$var reg 1 V$ design_1_i/system_ila_0/inst/SLOT_0_ICAP_prerror_1 $end
$var reg 2 W$ design_1_i/system_ila_0/inst/net_slot_1_axi_ar_cnt [1:0] $end
$var reg 32 Y$ design_1_i/system_ila_0/inst/net_slot_1_axi_araddr [31:0] $end
$var reg 2 y$ design_1_i/system_ila_0/inst/net_slot_1_axi_arburst [1:0] $end
$var reg 4 {$ design_1_i/system_ila_0/inst/net_slot_1_axi_arcache [3:0] $end
$var reg 8 !% design_1_i/system_ila_0/inst/net_slot_1_axi_arlen [7:0] $end
$var reg 3 )% design_1_i/system_ila_0/inst/net_slot_1_axi_arprot [2:0] $end
$var reg 3 ,% design_1_i/system_ila_0/inst/net_slot_1_axi_arsize [2:0] $end
$var reg 4 /% design_1_i/system_ila_0/inst/net_slot_1_axi_aruser [3:0] $end
$var reg 2 3% design_1_i/system_ila_0/inst/net_slot_1_axi_aw_cnt [1:0] $end
$var reg 32 5% design_1_i/system_ila_0/inst/net_slot_1_axi_awaddr [31:0] $end
$var reg 2 U% design_1_i/system_ila_0/inst/net_slot_1_axi_awburst [1:0] $end
$var reg 4 W% design_1_i/system_ila_0/inst/net_slot_1_axi_awcache [3:0] $end
$var reg 8 [% design_1_i/system_ila_0/inst/net_slot_1_axi_awlen [7:0] $end
$var reg 3 c% design_1_i/system_ila_0/inst/net_slot_1_axi_awprot [2:0] $end
$var reg 3 f% design_1_i/system_ila_0/inst/net_slot_1_axi_awsize [2:0] $end
$var reg 2 i% design_1_i/system_ila_0/inst/net_slot_1_axi_b_cnt [1:0] $end
$var reg 2 k% design_1_i/system_ila_0/inst/net_slot_1_axi_r_cnt [1:0] $end
$var reg 32 m% design_1_i/system_ila_0/inst/net_slot_1_axi_rdata [31:0] $end
$var reg 2 /& design_1_i/system_ila_0/inst/net_slot_1_axi_rresp [1:0] $end
$var reg 32 1& design_1_i/system_ila_0/inst/net_slot_1_axi_wdata [31:0] $end
$var reg 1 Q& design_1_i/system_ila_0/inst/net_slot_1_axi_awvalid $end
$var reg 2 R& design_1_i/system_ila_0/inst/net_slot_1_axi_aw_ctrl [1:0] $end
$var reg 1 T& design_1_i/system_ila_0/inst/net_slot_1_axi_awready $end
$var reg 1 U& design_1_i/system_ila_0/inst/net_slot_1_axi_wvalid $end
$var reg 3 V& design_1_i/system_ila_0/inst/net_slot_1_axi_w_ctrl [2:0] $end
$var reg 1 Y& design_1_i/system_ila_0/inst/net_slot_1_axi_wready $end
$var reg 1 Z& design_1_i/system_ila_0/inst/net_slot_1_axi_wlast $end
$var reg 2 [& design_1_i/system_ila_0/inst/net_slot_1_axi_b_ctrl [1:0] $end
$var reg 1 ]& design_1_i/system_ila_0/inst/net_slot_1_axi_bvalid $end
$var reg 1 ^& design_1_i/system_ila_0/inst/net_slot_1_axi_bready $end
$var reg 2 _& design_1_i/system_ila_0/inst/net_slot_1_axi_ar_ctrl [1:0] $end
$var reg 1 a& design_1_i/system_ila_0/inst/net_slot_1_axi_arvalid $end
$var reg 1 b& design_1_i/system_ila_0/inst/net_slot_1_axi_arready $end
$var reg 3 c& design_1_i/system_ila_0/inst/net_slot_1_axi_r_ctrl [2:0] $end
$var reg 1 f& design_1_i/system_ila_0/inst/net_slot_1_axi_rvalid $end
$var reg 1 g& design_1_i/system_ila_0/inst/net_slot_1_axi_rready $end
$var reg 1 h& design_1_i/system_ila_0/inst/net_slot_1_axi_rlast $end
$var reg 2 i& design_1_i/system_ila_0/inst/net_slot_2_axi_ar_cnt [1:0] $end
$var reg 32 k& design_1_i/system_ila_0/inst/net_slot_2_axi_araddr [31:0] $end
$var reg 2 -' design_1_i/system_ila_0/inst/net_slot_2_axi_arburst [1:0] $end
$var reg 4 /' design_1_i/system_ila_0/inst/net_slot_2_axi_arcache [3:0] $end
$var reg 8 3' design_1_i/system_ila_0/inst/net_slot_2_axi_arlen [7:0] $end
$var reg 1 ;' design_1_i/system_ila_0/inst/net_slot_2_axi_arlock $end
$var reg 3 <' design_1_i/system_ila_0/inst/net_slot_2_axi_arprot [2:0] $end
$var reg 4 ?' design_1_i/system_ila_0/inst/net_slot_2_axi_arqos [3:0] $end
$var reg 3 C' design_1_i/system_ila_0/inst/net_slot_2_axi_arsize [2:0] $end
$var reg 2 F' design_1_i/system_ila_0/inst/net_slot_2_axi_aw_cnt [1:0] $end
$var reg 32 H' design_1_i/system_ila_0/inst/net_slot_2_axi_awaddr [31:0] $end
$var reg 2 h' design_1_i/system_ila_0/inst/net_slot_2_axi_awburst [1:0] $end
$var reg 4 j' design_1_i/system_ila_0/inst/net_slot_2_axi_awcache [3:0] $end
$var reg 8 n' design_1_i/system_ila_0/inst/net_slot_2_axi_awlen [7:0] $end
$var reg 1 v' design_1_i/system_ila_0/inst/net_slot_2_axi_awlock $end
$var reg 3 w' design_1_i/system_ila_0/inst/net_slot_2_axi_awprot [2:0] $end
$var reg 4 z' design_1_i/system_ila_0/inst/net_slot_2_axi_awqos [3:0] $end
$var reg 3 ~' design_1_i/system_ila_0/inst/net_slot_2_axi_awsize [2:0] $end
$var reg 2 #( design_1_i/system_ila_0/inst/net_slot_2_axi_b_cnt [1:0] $end
$var reg 2 %( design_1_i/system_ila_0/inst/net_slot_2_axi_bresp [1:0] $end
$var reg 2 '( design_1_i/system_ila_0/inst/net_slot_2_axi_r_cnt [1:0] $end
$var reg 32 )( design_1_i/system_ila_0/inst/net_slot_2_axi_rdata [31:0] $end
$var reg 2 I( design_1_i/system_ila_0/inst/net_slot_2_axi_rresp [1:0] $end
$var reg 32 K( design_1_i/system_ila_0/inst/net_slot_2_axi_wdata [31:0] $end
$var reg 4 k( design_1_i/system_ila_0/inst/net_slot_2_axi_wstrb [3:0] $end
$var reg 2 o( design_1_i/system_ila_0/inst/net_slot_2_axi_aw_ctrl [1:0] $end
$var reg 1 q( design_1_i/system_ila_0/inst/net_slot_2_axi_awvalid $end
$var reg 1 r( design_1_i/system_ila_0/inst/net_slot_2_axi_awready $end
$var reg 3 s( design_1_i/system_ila_0/inst/net_slot_2_axi_w_ctrl [2:0] $end
$var reg 1 v( design_1_i/system_ila_0/inst/net_slot_2_axi_wvalid $end
$var reg 1 w( design_1_i/system_ila_0/inst/net_slot_2_axi_wready $end
$var reg 1 x( design_1_i/system_ila_0/inst/net_slot_2_axi_wlast $end
$var reg 2 y( design_1_i/system_ila_0/inst/net_slot_2_axi_b_ctrl [1:0] $end
$var reg 1 {( design_1_i/system_ila_0/inst/net_slot_2_axi_bvalid $end
$var reg 1 |( design_1_i/system_ila_0/inst/net_slot_2_axi_bready $end
$var reg 1 }( design_1_i/system_ila_0/inst/net_slot_2_axi_arvalid $end
$var reg 2 ~( design_1_i/system_ila_0/inst/net_slot_2_axi_ar_ctrl [1:0] $end
$var reg 1 ") design_1_i/system_ila_0/inst/net_slot_2_axi_arready $end
$var reg 1 #) design_1_i/system_ila_0/inst/net_slot_2_axi_rvalid $end
$var reg 3 $) design_1_i/system_ila_0/inst/net_slot_2_axi_r_ctrl [2:0] $end
$var reg 1 ') design_1_i/system_ila_0/inst/net_slot_2_axi_rready $end
$var reg 1 () design_1_i/system_ila_0/inst/net_slot_2_axi_rlast $end
$var reg 32 )) design_1_i/system_ila_0/inst/net_slot_3_axis_tdata [31:0] $end
$var reg 3 I) design_1_i/system_ila_0/inst/net_slot_3_axis_tid [2:0] $end
$var reg 4 L) design_1_i/system_ila_0/inst/net_slot_3_axis_tkeep [3:0] $end
$var reg 1 P) design_1_i/system_ila_0/inst/net_slot_3_axis_tvalid $end
$var reg 1 Q) design_1_i/system_ila_0/inst/net_slot_3_axis_tready $end
$var reg 1 R) design_1_i/system_ila_0/inst/net_slot_3_axis_tlast $end
$var reg 32 S) design_1_i/system_ila_0/inst/net_slot_4_axis_tdata [31:0] $end
$var reg 3 s) design_1_i/system_ila_0/inst/net_slot_4_axis_tid [2:0] $end
$var reg 4 v) design_1_i/system_ila_0/inst/net_slot_4_axis_tkeep [3:0] $end
$var reg 1 z) design_1_i/system_ila_0/inst/net_slot_4_axis_tvalid $end
$var reg 1 {) design_1_i/system_ila_0/inst/net_slot_4_axis_tready $end
$var reg 1 |) design_1_i/system_ila_0/inst/net_slot_4_axis_tlast $end
$var reg 3 }) AR_Channel__i1_s1___dfx_controller_0_M_AXI_MEM_ [2:0] $end
$var reg 3 "* AR_Channel__i1_s2___axi_mm2s_mapper_0_M_AXI_ [2:0] $end
$var reg 3 %* AW_Channel__i1_s1___dfx_controller_0_M_AXI_MEM_ [2:0] $end
$var reg 3 (* AW_Channel__i1_s2___axi_mm2s_mapper_0_M_AXI_ [2:0] $end
$var reg 3 +* B_Channel__i1_s1___dfx_controller_0_M_AXI_MEM_ [2:0] $end
$var reg 3 .* B_Channel__i1_s2___axi_mm2s_mapper_0_M_AXI_ [2:0] $end
$var reg 3 1* Interface__i1_s1___dfx_controller_0_M_AXI_MEM_ [2:0] $end
$var reg 3 4* Interface__i1_s2___axi_mm2s_mapper_0_M_AXI_ [2:0] $end
$var reg 3 7* Interface__i1_s3___axi_mm2s_mapper_0_M_AXIS_ [2:0] $end
$var reg 3 :* Interface__i1_s4___aes_0_M_AXIS_ [2:0] $end
$var reg 3 =* R_Channel__i1_s1___dfx_controller_0_M_AXI_MEM_ [2:0] $end
$var reg 3 @* R_Channel__i1_s2___axi_mm2s_mapper_0_M_AXI_ [2:0] $end
$var reg 3 C* T_Channel__i1_s3___axi_mm2s_mapper_0_M_AXIS_ [2:0] $end
$var reg 3 F* T_Channel__i1_s4___aes_0_M_AXIS_ [2:0] $end
$var reg 3 I* W_Channel__i1_s1___dfx_controller_0_M_AXI_MEM_ [2:0] $end
$var reg 3 L* W_Channel__i1_s2___axi_mm2s_mapper_0_M_AXI_ [2:0] $end
$var reg 1 O* _TRIGGER $end
$var reg 1 P* _WINDOW $end
$var reg 1 Q* _GAP $end
$upscope $end
$enddefinitions $end
#0
$dumpvars
0"
1#
1$
0%
0&
0'
b10001110010111111111111000100000101011111011011101101111111000110001101110100101011011100101111110101111011001011100100111010010 (
0J"
b111011100110100011110100010011101110001101011010010110001111111010111000011101100011011100000001011010011000000011011110110010 K"
0m#
1n#
0o#
1p#
b11111100011010010110101100011101 q#
b11111111111111111111111111011011 3$
0S$
1T$
0U$
0V$
b10 W$
b0 Y$
b0 y$
b11 {$
b0 !%
b0 )%
b0 ,%
b0 /%
b0 3%
b0 5%
b1 U%
b11 W%
b0 [%
b0 c%
b10 f%
b0 i%
b10 k%
b101011000000000000000100111010 m%
b10 /&
b0 1&
0Q&
b10 R&
1T&
0U&
b0 V&
0Y&
0Z&
b0 [&
0]&
0^&
b10 _&
0a&
1b&
b10 c&
0f&
1g&
0h&
b10 i&
b1101111110010000000000 k&
b1 -'
b11 /'
b11111111 3'
0;'
b0 <'
b0 ?'
b10 C'
b0 F'
b0 H'
b0 h'
b0 j'
b0 n'
0v'
b0 w'
b0 z'
b0 ~'
b0 #(
b0 %(
b10 '(
b100010000011110101010100110100 )(
b0 I(
b0 K(
b1010 k(
b10 o(
0q(
1r(
b100 s(
0v(
0w(
1x(
b10 y(
0{(
1|(
0}(
b10 ~(
1")
1#)
b1 $)
0')
0()
b0 ))
b11 I)
b1 L)
1P)
0Q)
1R)
b101011000000000000000100111010 S)
b11 s)
b1111 v)
0z)
0{)
0|)
b11 })
b11 "*
b11 %*
b11 (*
b11 +*
b11 .*
b0 1*
b0 4*
b0 7*
b0 :*
b0 =*
b0 @*
b0 C*
b0 F*
b100 I*
b100 L*
0O*
1P*
0Q*
$end
#2
1Q)
b0 S)
b1 v)
1z)
1{)
1|)
b1 7*
b1 :*
b10 C*
b10 F*
#3
b0 /&
b11 c&
1f&
b0 k(
b0 s(
0x(
b111011011010011000000100000111 ))
b1111 L)
0P)
0Q)
0R)
0z)
0{)
b1 1*
b0 7*
b0 :*
b1 =*
b0 C*
b0 F*
#4
b10 c&
0f&
1P)
b0 1*
b0 =*
#6
1Q)
b11001111001011111100001111010110 S)
b1111 v)
1z)
1{)
0|)
b1 7*
b1 :*
b1 C*
b1 F*
#7
0p#
b10 /&
b110 c&
1h&
b110 k(
b100 s(
1x(
b11 $)
1')
b0 ))
b1 L)
0Q)
1R)
0z)
0{)
b1 4*
b0 7*
b0 :*
b1 @*
b0 C*
b0 F*
#8
1p#
b11010100000000001000000001011100 q#
b11001111001011111100001111010110 m%
b11100011110000100110111011111011 )(
b1 $)
0')
b0 4*
b0 @*
#10
1Q)
b0 S)
b1 v)
1z)
1{)
1|)
b1 7*
b1 :*
b10 C*
b10 F*
#11
b0 /&
b11 c&
1f&
0h&
b0 k(
b0 s(
0x(
b100010000011110101010100110100 ))
b1111 L)
0P)
0Q)
0R)
0z)
0{)
b1 1*
b0 7*
b0 :*
b1 =*
b0 C*
b0 F*
#12
b10 c&
0f&
1P)
b0 1*
b0 =*
#14
1Q)
b1011000110111010011110101111010 S)
b1111 v)
1z)
1{)
0|)
b1 7*
b1 :*
b1 C*
b1 F*
#15
0p#
b10 /&
b1010 k(
b100 s(
1x(
b11 $)
1')
b0 ))
b1 L)
0Q)
1R)
0z)
0{)
b1 4*
b0 7*
b0 :*
b1 @*
b0 C*
b0 F*
#16
1p#
b11110011111101001100001101101011 q#
b1011000110111010011110101111010 m%
b11000000100011010001110110101110 )(
b1 $)
0')
b0 4*
b0 @*
#18
1Q)
b0 S)
b1 v)
1z)
1{)
1|)
b1 7*
b1 :*
b10 C*
b10 F*
#19
b0 /&
b11 c&
1f&
b0 k(
b0 s(
0x(
b11100011110000100110111011111011 ))
b1111 L)
0P)
0Q)
0R)
0z)
0{)
b1 1*
b0 7*
b0 :*
b1 =*
b0 C*
b0 F*
#20
b10 c&
0f&
1P)
b0 1*
b0 =*
#22
1Q)
b10001101101011001111000011100110 S)
b1111 v)
1z)
1{)
0|)
b1 7*
b1 :*
b1 C*
b1 F*
#23
0p#
b10 /&
b110 c&
1h&
b110 k(
b11 $)
1')
b0 ))
b1 L)
0Q)
1R)
0z)
0{)
b1 4*
b0 7*
b0 :*
b1 @*
b0 C*
b0 F*
#24
1p#
b11010101110111011110001011110 q#
b10001101101011001111000011100110 m%
b10110010001101110110000001011010 )(
b1 $)
0')
b0 4*
b0 @*
#26
1Q)
b0 S)
b1 v)
1z)
1{)
1|)
b1 7*
b1 :*
b10 C*
b10 F*
#27
b0 /&
b11 c&
1f&
0h&
b0 k(
b11000000100011010001110110101110 ))
b1111 L)
0P)
0Q)
0R)
0z)
0{)
b1 1*
b0 7*
b0 :*
b1 =*
b0 C*
b0 F*
#28
b10 c&
0f&
1P)
b0 1*
b0 =*
#30
1Q)
b11000000100011010001110110101110 S)
b1111 v)
1z)
1{)
0|)
b1 7*
b1 :*
b1 C*
b1 F*
#31
0p#
b10 /&
b110 c&
1h&
b1110 k(
b11 $)
1')
b0 ))
b1 L)
0Q)
1R)
0z)
0{)
b1 4*
b0 7*
b0 :*
b1 @*
b0 C*
b0 F*
#32
1p#
b10110001001101010000111101100111 q#
b11000000100011010001110110101110 m%
b10011001111011001101000111011 )(
b1 $)
0')
b0 4*
b0 @*
#34
1Q)
b0 S)
b1 v)
1z)
1{)
1|)
b1 7*
b1 :*
b10 C*
b10 F*
#35
b0 /&
b11 c&
1f&
0h&
b0 k(
b10110010001101110110000001011010 ))
b1111 L)
0P)
0Q)
0R)
0z)
0{)
b1 1*
b0 7*
b0 :*
b1 =*
b0 C*
b0 F*
#36
b10 c&
0f&
1P)
b0 1*
b0 =*
#38
1Q)
b10110010001101110110000001011010 S)
b1111 v)
1z)
1{)
0|)
b1 7*
b1 :*
b1 C*
b1 F*
#39
0p#
b10 /&
b1010 k(
b100 s(
1x(
b11 $)
1')
b0 ))
b1 L)
0Q)
1R)
0z)
0{)
b1 4*
b0 7*
b0 :*
b1 @*
b0 C*
b0 F*
#40
1p#
b11101100011011100001110101 q#
b10110010001101110110000001011010 m%
b111111100101101101011010111000 )(
b1 $)
0')
b0 4*
b0 @*
#42
1Q)
b0 S)
b1 v)
1z)
1{)
1|)
b1 7*
b1 :*
b10 C*
b10 F*
#43
b0 /&
b11 c&
1f&
b0 k(
b0 s(
0x(
b10011001111011001101000111011 ))
b1111 L)
0P)
0Q)
0R)
0z)
0{)
b1 1*
b0 7*
b0 :*
b1 =*
b0 C*
b0 F*
#44
b10 c&
0f&
1P)
b0 1*
b0 =*
#46
1Q)
b10011001111011001101000111011 S)
b1111 v)
1z)
1{)
0|)
b1 7*
b1 :*
b1 C*
b1 F*
#47
0p#
b11 /&
b1011 k(
b100 s(
1x(
b11 $)
1')
b0 ))
b1 L)
0Q)
1R)
0z)
0{)
b1 4*
b0 7*
b0 :*
b1 @*
b0 C*
b0 F*
#48
1p#
b1001101111011000000011001011010 q#
b10011001111011001101000111011 m%
b1111010010001101001000100111100 )(
b1 $)
0')
b0 4*
b0 @*
#50
1Q)
b0 S)
b1 v)
1z)
1{)
1|)
b1 7*
b1 :*
b10 C*
b10 F*
#51
b0 /&
b11 c&
1f&
b0 k(
b0 s(
0x(
b111111100101101101011010111000 ))
b1111 L)
0P)
0Q)
0R)
0z)
0{)
b1 1*
b0 7*
b0 :*
b1 =*
b0 C*
b0 F*
#52
b10 c&
0f&
1P)
b0 1*
b0 =*
#54
1Q)
b111111100101101101011010111000 S)
b1111 v)
1z)
1{)
0|)
b1 7*
b1 :*
b1 C*
b1 F*
#55
0p#
b1000 k(
b100 s(
1x(
b11 $)
1')
b0 ))
b1 L)
0Q)
1R)
0z)
0{)
b1 4*
b0 7*
b0 :*
b1 @*
b0 C*
b0 F*
#56
1p#
b11001000101111000101100111011100 q#
b111111100101101101011010111000 m%
b101011101100000111100010100100 )(
b1 $)
0')
b0 4*
b0 @*
#58
1Q)
b0 S)
b1 v)
1z)
1{)
1|)
b1 7*
b1 :*
b10 C*
b10 F*
#59
b11 c&
1f&
b0 k(
b0 s(
0x(
b1111010010001101001000100111100 ))
b1111 L)
0P)
0Q)
0R)
0z)
0{)
b1 1*
b0 7*
b0 :*
b1 =*
b0 C*
b0 F*
#60
b10 c&
0f&
1P)
b0 1*
b0 =*
#62
1Q)
b1101101111011111000011110111100 S)
b1111 v)
1z)
1{)
0|)
b1 7*
b1 :*
b1 C*
b1 F*
#63
0p#
b110 c&
1h&
b1100 k(
b100 s(
1x(
b11 $)
1')
b0 ))
b1 L)
0Q)
1R)
0z)
0{)
b1 4*
b0 7*
b0 :*
b1 @*
b0 C*
b0 F*
#64
1p#
b11111100011010010110101100011101 q#
b1101101111011111000011110111100 m%
b1111111000000010011111101001001 )(
b1 $)
0')
b0 4*
b0 @*
#66
1Q)
b0 S)
b1 v)
1z)
1{)
1|)
b1 7*
b1 :*
b10 C*
b10 F*
#67
b11 c&
1f&
0h&
b0 k(
b0 s(
0x(
b101011101100000111100010100100 ))
b1111 L)
0P)
0Q)
0R)
0z)
0{)
b1 1*
b0 7*
b0 :*
b1 =*
b0 C*
b0 F*
#68
b10 c&
0f&
1P)
b0 1*
b0 =*
#70
1Q)
b111011011010011000000100000111 S)
b1111 v)
1z)
1{)
0|)
b1 7*
b1 :*
b1 C*
b1 F*
#71
0p#
b11 /&
b110 c&
1h&
b111 k(
b11 $)
1')
b0 ))
b1 L)
0Q)
1R)
0z)
0{)
b1 4*
b0 7*
b0 :*
b1 @*
b0 C*
b0 F*
#72
1p#
b10110110111101111110000100111101 q#
b111011011010011000000100000111 m%
b10010010010000110111000101011101 )(
b1 $)
0')
b0 4*
b0 @*
#74
1Q)
b0 S)
b1 v)
1z)
1{)
1|)
b1 7*
b1 :*
b10 C*
b10 F*
#75
b0 /&
b11 c&
1f&
0h&
b0 k(
b1111111000000010011111101001001 ))
b1111 L)
0P)
0Q)
0R)
0z)
0{)
b1 1*
b0 7*
b0 :*
b1 =*
b0 C*
b0 F*
#76
b10 c&
0f&
1P)
b0 1*
b0 =*
#78
1Q)
b100010000011110101010100110100 S)
b1111 v)
1z)
1{)
0|)
b1 7*
b1 :*
b1 C*
b1 F*
#79
0p#
b110 c&
1h&
b100 k(
b100 s(
1x(
b11 $)
1')
b0 ))
b1 L)
0Q)
1R)
0z)
0{)
b1 4*
b0 7*
b0 :*
b1 @*
b0 C*
b0 F*
#80
1p#
b11011100100101101000000111100000 q#
b100010000011110101010100110100 m%
b11000000100011010001110110101110 )(
b1 $)
0')
b0 4*
b0 @*
#82
1Q)
b0 S)
b1 v)
1z)
1{)
1|)
b1 7*
b1 :*
b10 C*
b10 F*
#83
b11 c&
1f&
0h&
b0 k(
b0 s(
0x(
b10010010010000110111000101011101 ))
b1111 L)
0P)
0Q)
0R)
0z)
0{)
b1 1*
b0 7*
b0 :*
b1 =*
b0 C*
b0 F*
#84
b10 c&
0f&
1P)
b0 1*
b0 =*
#86
1Q)
b11100011110000100110111011111011 S)
b1111 v)
1z)
1{)
0|)
b1 7*
b1 :*
b1 C*
b1 F*
#87
0p#
b11 /&
b1011 k(
b100 s(
1x(
b11 $)
1')
b0 ))
b1 L)
0Q)
1R)
0z)
0{)
b1 4*
b0 7*
b0 :*
b1 @*
b0 C*
b0 F*
#88
1p#
b1000100111100001010101000101100 q#
b11100011110000100110111011111011 m%
b10110010001101110110000001011010 )(
b1 $)
0')
b0 4*
b0 @*
#90
1Q)
b0 S)
b1 v)
1z)
1{)
1|)
b1 7*
b1 :*
b10 C*
b10 F*
#91
b0 /&
b11 c&
1f&
b0 k(
b0 s(
0x(
b11000000100011010001110110101110 ))
b1111 L)
0P)
0Q)
0R)
0z)
0{)
b1 1*
b0 7*
b0 :*
b1 =*
b0 C*
b0 F*
#92
b10 c&
0f&
1P)
b0 1*
b0 =*
#94
1Q)
b11000000100011010001110110101110 S)
b1111 v)
1z)
1{)
0|)
b1 7*
b1 :*
b1 C*
b1 F*
#95
0p#
b10 /&
b110 c&
1h&
b1110 k(
b11 $)
1')
b0 ))
b1 L)
0Q)
1R)
0z)
0{)
b1 4*
b0 7*
b0 :*
b1 @*
b0 C*
b0 F*
#96
1p#
b11000111010000110111011011011111 q#
b11000000100011010001110110101110 m%
b10011001111011001101000111011 )(
b1 $)
0')
b0 4*
b0 @*
#98
1Q)
b0 S)
b1 v)
1z)
1{)
1|)
b1 7*
b1 :*
b10 C*
b10 F*
#99
b0 /&
b11 c&
1f&
0h&
b0 k(
b10110010001101110110000001011010 ))
b1111 L)
0P)
0Q)
0R)
0z)
0{)
b1 1*
b0 7*
b0 :*
b1 =*
b0 C*
b0 F*
#100
b10 c&
0f&
1P)
b0 1*
b0 =*
#102
1Q)
b10110010001101110110000001011010 S)
b1111 v)
1z)
1{)
0|)
b1 7*
b1 :*
b1 C*
b1 F*
#103
0p#
b10 /&
b1010 k(
b100 s(
1x(
b11 $)
1')
b0 ))
b1 L)
0Q)
1R)
0z)
0{)
b1 4*
b0 7*
b0 :*
b1 @*
b0 C*
b0 F*
#104
1p#
b11101100011011100001110101 q#
b10110010001101110110000001011010 m%
b111111100101101101011010111000 )(
b1 $)
0')
b0 4*
b0 @*
#106
1Q)
b0 S)
b1 v)
1z)
1{)
1|)
b1 7*
b1 :*
b10 C*
b10 F*
#107
b0 /&
b11 c&
1f&
b0 k(
b0 s(
0x(
b10011001111011001101000111011 ))
b1111 L)
0P)
0Q)
0R)
0z)
0{)
b1 1*
b0 7*
b0 :*
b1 =*
b0 C*
b0 F*
#108
b10 c&
0f&
1P)
b0 1*
b0 =*
#110
1Q)
b10011001111011001101000111011 S)
b1111 v)
1z)
1{)
0|)
b1 7*
b1 :*
b1 C*
b1 F*
#111
0p#
b11 /&
b1011 k(
b100 s(
1x(
b11 $)
1')
b0 ))
b1 L)
0Q)
1R)
0z)
0{)
b1 4*
b0 7*
b0 :*
b1 @*
b0 C*
b0 F*
#112
1p#
b1001101111011000000011001011010 q#
b10011001111011001101000111011 m%
b11000000100011010001110110101110 )(
b1 $)
0')
b0 4*
b0 @*
#114
1Q)
b0 S)
b1 v)
1z)
1{)
1|)
b1 7*
b1 :*
b10 C*
b10 F*
#115
b0 /&
b11 c&
1f&
b0 k(
b0 s(
0x(
b111111100101101101011010111000 ))
b1111 L)
0P)
0Q)
0R)
0z)
0{)
b1 1*
b0 7*
b0 :*
b1 =*
b0 C*
b0 F*
#116
b10 c&
0f&
1P)
b0 1*
b0 =*
#118
1Q)
b111111100101101101011010111000 S)
b1111 v)
1z)
1{)
0|)
b1 7*
b1 :*
b1 C*
b1 F*
#119
0p#
b1000 k(
b100 s(
1x(
b11 $)
1')
b0 ))
b1 L)
0Q)
1R)
0z)
0{)
b1 4*
b0 7*
b0 :*
b1 @*
b0 C*
b0 F*
#120
1p#
b11001000101111000101100111011100 q#
b111111100101101101011010111000 m%
b10110010001101110110000001011010 )(
b1 $)
0')
b0 4*
b0 @*
#122
1Q)
b0 S)
b1 v)
1z)
1{)
1|)
b1 7*
b1 :*
b10 C*
b10 F*
#123
b11 c&
1f&
b0 k(
b0 s(
0x(
b11000000100011010001110110101110 ))
b1111 L)
0P)
0Q)
0R)
0z)
0{)
b1 1*
b0 7*
b0 :*
b1 =*
b0 C*
b0 F*
#124
b10 c&
0f&
1P)
b0 1*
b0 =*
#126
1Q)
b1111010010001101001000100111100 S)
b1111 v)
1z)
1{)
0|)
b1 7*
b1 :*
b1 C*
b1 F*
#127
0p#
b110 c&
1h&
b1100 k(
b100 s(
1x(
b11 $)
1')
b0 ))
b1 L)
0Q)
1R)
0z)
0{)
b1 4*
b0 7*
b0 :*
b1 @*
b0 C*
b0 F*
#128
1p#
b11111100011010010110101100011101 q#
b1111010010001101001000100111100 m%
b10011001111011001101000111011 )(
b1 $)
0')
b0 4*
b0 @*
#130
1Q)
b0 S)
b1 v)
1z)
1{)
1|)
b1 7*
b1 :*
b10 C*
b10 F*
#131
b11 c&
1f&
0h&
b0 k(
b0 s(
0x(
b10110010001101110110000001011010 ))
b1111 L)
0P)
0Q)
0R)
0z)
0{)
b1 1*
b0 7*
b0 :*
b1 =*
b0 C*
b0 F*
#132
b10 c&
0f&
1P)
b0 1*
b0 =*
#134
1Q)
b101011101100000111100010100100 S)
b1111 v)
1z)
1{)
0|)
b1 7*
b1 :*
b1 C*
b1 F*
#135
0p#
b110 c&
1h&
b100 k(
b11 $)
1')
b0 ))
b1 L)
0Q)
1R)
0z)
0{)
b1 4*
b0 7*
b0 :*
b1 @*
b0 C*
b0 F*
#136
1p#
b1011110011000101000100100111100 q#
b101011101100000111100010100100 m%
b111111100101101101011010111000 )(
b1 $)
0')
b0 4*
b0 @*
#138
1Q)
b0 S)
b1 v)
1z)
1{)
1|)
b1 7*
b1 :*
b10 C*
b10 F*
#139
b11 c&
1f&
0h&
b0 k(
b10011001111011001101000111011 ))
b1111 L)
0P)
0Q)
0R)
0z)
0{)
b1 1*
b0 7*
b0 :*
b1 =*
b0 C*
b0 F*
#140
b10 c&
0f&
1P)
b0 1*
b0 =*
#142
1Q)
b1111111000000010011111101001001 S)
b1111 v)
1z)
1{)
0|)
b1 7*
b1 :*
b1 C*
b1 F*
#143
0p#
b1 /&
b1001 k(
b11 $)
1')
b0 ))
b1 L)
0Q)
1R)
0z)
0{)
b1 4*
b0 7*
b0 :*
b1 @*
b0 C*
b0 F*
#144
1p#
b11010100000011010001111000100101 q#
b1111111000000010011111101001001 m%
b11000000100011010001110110101110 )(
b1 $)
0')
b0 4*
b0 @*
#146
1Q)
b0 S)
b1 v)
1z)
1{)
1|)
b1 7*
b1 :*
b10 C*
b10 F*
#147
b0 /&
b11 c&
1f&
b0 k(
b111111100101101101011010111000 ))
b1111 L)
0P)
0Q)
0R)
0z)
0{)
b1 1*
b0 7*
b0 :*
b1 =*
b0 C*
b0 F*
#148
b10 c&
0f&
1P)
b0 1*
b0 =*
#150
1Q)
b10010010010000110111000101011101 S)
b1111 v)
1z)
1{)
0|)
b1 7*
b1 :*
b1 C*
b1 F*
#151
0p#
b1 /&
b110 c&
1h&
b1101 k(
b100 s(
1x(
b11 $)
1')
b0 ))
b1 L)
0Q)
1R)
0z)
0{)
b1 4*
b0 7*
b0 :*
b1 @*
b0 C*
b0 F*
