.Xil/Vivado-4887-luiscarlos-GL552VX/hw_ila_data_1/zip_work/waveform.vcd
$date
        2023-Jun-06 08:57:43
$end
$version
        Vivado v2021.2 (64-bit)
$end
$timescale
        1ps
$end
$scope module dut $end
$var reg 1 " design_1_i/system_ila_0/inst/probe0_1 $end
$var reg 1 # design_1_i/system_ila_0/inst/probe1_1 $end
$var reg 1 $ design_1_i/system_ila_0/inst/probe2_1 $end
$var reg 1 % design_1_i/system_ila_0/inst/probe3_1 $end
$var reg 1 & design_1_i/system_ila_0/inst/probe4_1 $end
$var reg 1 ' design_1_i/system_ila_0/inst/probe5_1 $end
$var reg 128 ( design_1_i/system_ila_0/inst/probe6_1 [127:0] $end
$var reg 1 J" design_1_i/system_ila_0/inst/probe7_1 $end
$var reg 128 K" design_1_i/system_ila_0/inst/probe8_1 [127:0] $end
$var reg 1 m# design_1_i/system_ila_0/inst/probe9_1 $end
$var reg 1 n# design_1_i/system_ila_0/inst/probe10_1 $end
$var reg 1 o# design_1_i/system_ila_0/inst/probe11_1 $end
$var reg 1 p# design_1_i/system_ila_0/inst/SLOT_0_ICAP_csib_1 $end
$var reg 32 q# design_1_i/system_ila_0/inst/SLOT_0_ICAP_i_1 [31:0] $end
$var reg 32 3$ design_1_i/system_ila_0/inst/SLOT_0_ICAP_o_1 [31:0] $end
$var reg 1 S$ design_1_i/system_ila_0/inst/SLOT_0_ICAP_rdwrb_1 $end
$var reg 1 T$ design_1_i/system_ila_0/inst/SLOT_0_ICAP_avail_1 $end
$var reg 1 U$ design_1_i/system_ila_0/inst/SLOT_0_ICAP_prdone_1 $end
$var reg 1 V$ design_1_i/system_ila_0/inst/SLOT_0_ICAP_prerror_1 $end
$var reg 2 W$ design_1_i/system_ila_0/inst/net_slot_1_axi_ar_cnt [1:0] $end
$var reg 32 Y$ design_1_i/system_ila_0/inst/net_slot_1_axi_araddr [31:0] $end
$var reg 2 y$ design_1_i/system_ila_0/inst/net_slot_1_axi_arburst [1:0] $end
$var reg 4 {$ design_1_i/system_ila_0/inst/net_slot_1_axi_arcache [3:0] $end
$var reg 8 !% design_1_i/system_ila_0/inst/net_slot_1_axi_arlen [7:0] $end
$var reg 3 )% design_1_i/system_ila_0/inst/net_slot_1_axi_arprot [2:0] $end
$var reg 3 ,% design_1_i/system_ila_0/inst/net_slot_1_axi_arsize [2:0] $end
$var reg 4 /% design_1_i/system_ila_0/inst/net_slot_1_axi_aruser [3:0] $end
$var reg 2 3% design_1_i/system_ila_0/inst/net_slot_1_axi_aw_cnt [1:0] $end
$var reg 32 5% design_1_i/system_ila_0/inst/net_slot_1_axi_awaddr [31:0] $end
$var reg 2 U% design_1_i/system_ila_0/inst/net_slot_1_axi_awburst [1:0] $end
$var reg 4 W% design_1_i/system_ila_0/inst/net_slot_1_axi_awcache [3:0] $end
$var reg 8 [% design_1_i/system_ila_0/inst/net_slot_1_axi_awlen [7:0] $end
$var reg 3 c% design_1_i/system_ila_0/inst/net_slot_1_axi_awprot [2:0] $end
$var reg 3 f% design_1_i/system_ila_0/inst/net_slot_1_axi_awsize [2:0] $end
$var reg 2 i% design_1_i/system_ila_0/inst/net_slot_1_axi_b_cnt [1:0] $end
$var reg 2 k% design_1_i/system_ila_0/inst/net_slot_1_axi_r_cnt [1:0] $end
$var reg 32 m% design_1_i/system_ila_0/inst/net_slot_1_axi_rdata [31:0] $end
$var reg 2 /& design_1_i/system_ila_0/inst/net_slot_1_axi_rresp [1:0] $end
$var reg 32 1& design_1_i/system_ila_0/inst/net_slot_1_axi_wdata [31:0] $end
$var reg 1 Q& design_1_i/system_ila_0/inst/net_slot_1_axi_awvalid $end
$var reg 2 R& design_1_i/system_ila_0/inst/net_slot_1_axi_aw_ctrl [1:0] $end
$var reg 1 T& design_1_i/system_ila_0/inst/net_slot_1_axi_awready $end
$var reg 1 U& design_1_i/system_ila_0/inst/net_slot_1_axi_wvalid $end
$var reg 3 V& design_1_i/system_ila_0/inst/net_slot_1_axi_w_ctrl [2:0] $end
$var reg 1 Y& design_1_i/system_ila_0/inst/net_slot_1_axi_wready $end
$var reg 1 Z& design_1_i/system_ila_0/inst/net_slot_1_axi_wlast $end
$var reg 2 [& design_1_i/system_ila_0/inst/net_slot_1_axi_b_ctrl [1:0] $end
$var reg 1 ]& design_1_i/system_ila_0/inst/net_slot_1_axi_bvalid $end
$var reg 1 ^& design_1_i/system_ila_0/inst/net_slot_1_axi_bready $end
$var reg 2 _& design_1_i/system_ila_0/inst/net_slot_1_axi_ar_ctrl [1:0] $end
$var reg 1 a& design_1_i/system_ila_0/inst/net_slot_1_axi_arvalid $end
$var reg 1 b& design_1_i/system_ila_0/inst/net_slot_1_axi_arready $end
$var reg 3 c& design_1_i/system_ila_0/inst/net_slot_1_axi_r_ctrl [2:0] $end
$var reg 1 f& design_1_i/system_ila_0/inst/net_slot_1_axi_rvalid $end
$var reg 1 g& design_1_i/system_ila_0/inst/net_slot_1_axi_rready $end
$var reg 1 h& design_1_i/system_ila_0/inst/net_slot_1_axi_rlast $end
$var reg 2 i& design_1_i/system_ila_0/inst/net_slot_2_axi_ar_cnt [1:0] $end
$var reg 32 k& design_1_i/system_ila_0/inst/net_slot_2_axi_araddr [31:0] $end
$var reg 2 -' design_1_i/system_ila_0/inst/net_slot_2_axi_arburst [1:0] $end
$var reg 4 /' design_1_i/system_ila_0/inst/net_slot_2_axi_arcache [3:0] $end
$var reg 8 3' design_1_i/system_ila_0/inst/net_slot_2_axi_arlen [7:0] $end
$var reg 1 ;' design_1_i/system_ila_0/inst/net_slot_2_axi_arlock $end
$var reg 3 <' design_1_i/system_ila_0/inst/net_slot_2_axi_arprot [2:0] $end
$var reg 4 ?' design_1_i/system_ila_0/inst/net_slot_2_axi_arqos [3:0] $end
$var reg 3 C' design_1_i/system_ila_0/inst/net_slot_2_axi_arsize [2:0] $end
$var reg 2 F' design_1_i/system_ila_0/inst/net_slot_2_axi_aw_cnt [1:0] $end
$var reg 32 H' design_1_i/system_ila_0/inst/net_slot_2_axi_awaddr [31:0] $end
$var reg 2 h' design_1_i/system_ila_0/inst/net_slot_2_axi_awburst [1:0] $end
$var reg 4 j' design_1_i/system_ila_0/inst/net_slot_2_axi_awcache [3:0] $end
$var reg 8 n' design_1_i/system_ila_0/inst/net_slot_2_axi_awlen [7:0] $end
$var reg 1 v' design_1_i/system_ila_0/inst/net_slot_2_axi_awlock $end
$var reg 3 w' design_1_i/system_ila_0/inst/net_slot_2_axi_awprot [2:0] $end
$var reg 4 z' design_1_i/system_ila_0/inst/net_slot_2_axi_awqos [3:0] $end
$var reg 3 ~' design_1_i/system_ila_0/inst/net_slot_2_axi_awsize [2:0] $end
$var reg 2 #( design_1_i/system_ila_0/inst/net_slot_2_axi_b_cnt [1:0] $end
$var reg 2 %( design_1_i/system_ila_0/inst/net_slot_2_axi_bresp [1:0] $end
$var reg 2 '( design_1_i/system_ila_0/inst/net_slot_2_axi_r_cnt [1:0] $end
$var reg 32 )( design_1_i/system_ila_0/inst/net_slot_2_axi_rdata [31:0] $end
$var reg 2 I( design_1_i/system_ila_0/inst/net_slot_2_axi_rresp [1:0] $end
$var reg 32 K( design_1_i/system_ila_0/inst/net_slot_2_axi_wdata [31:0] $end
$var reg 4 k( design_1_i/system_ila_0/inst/net_slot_2_axi_wstrb [3:0] $end
$var reg 1 o( design_1_i/system_ila_0/inst/net_slot_2_axi_awvalid $end
$var reg 2 p( design_1_i/system_ila_0/inst/net_slot_2_axi_aw_ctrl [1:0] $end
$var reg 1 r( design_1_i/system_ila_0/inst/net_slot_2_axi_awready $end
$var reg 3 s( design_1_i/system_ila_0/inst/net_slot_2_axi_w_ctrl [2:0] $end
$var reg 1 v( design_1_i/system_ila_0/inst/net_slot_2_axi_wvalid $end
$var reg 1 w( design_1_i/system_ila_0/inst/net_slot_2_axi_wready $end
$var reg 1 x( design_1_i/system_ila_0/inst/net_slot_2_axi_wlast $end
$var reg 2 y( design_1_i/system_ila_0/inst/net_slot_2_axi_b_ctrl [1:0] $end
$var reg 1 {( design_1_i/system_ila_0/inst/net_slot_2_axi_bvalid $end
$var reg 1 |( design_1_i/system_ila_0/inst/net_slot_2_axi_bready $end
$var reg 1 }( design_1_i/system_ila_0/inst/net_slot_2_axi_arvalid $end
$var reg 2 ~( design_1_i/system_ila_0/inst/net_slot_2_axi_ar_ctrl [1:0] $end
$var reg 1 ") design_1_i/system_ila_0/inst/net_slot_2_axi_arready $end
$var reg 1 #) design_1_i/system_ila_0/inst/net_slot_2_axi_rvalid $end
$var reg 3 $) design_1_i/system_ila_0/inst/net_slot_2_axi_r_ctrl [2:0] $end
$var reg 1 ') design_1_i/system_ila_0/inst/net_slot_2_axi_rready $end
$var reg 1 () design_1_i/system_ila_0/inst/net_slot_2_axi_rlast $end
$var reg 32 )) design_1_i/system_ila_0/inst/net_slot_3_axis_tdata [31:0] $end
$var reg 3 I) design_1_i/system_ila_0/inst/net_slot_3_axis_tid [2:0] $end
$var reg 4 L) design_1_i/system_ila_0/inst/net_slot_3_axis_tkeep [3:0] $end
$var reg 1 P) design_1_i/system_ila_0/inst/net_slot_3_axis_tvalid $end
$var reg 1 Q) design_1_i/system_ila_0/inst/net_slot_3_axis_tready $end
$var reg 1 R) design_1_i/system_ila_0/inst/net_slot_3_axis_tlast $end
$var reg 32 S) design_1_i/system_ila_0/inst/net_slot_4_axis_tdata [31:0] $end
$var reg 1 s) design_1_i/system_ila_0/inst/net_slot_4_axis_tvalid $end
$var reg 1 t) design_1_i/system_ila_0/inst/net_slot_4_axis_tready $end
$var reg 1 u) design_1_i/system_ila_0/inst/net_slot_4_axis_tlast $end
$var reg 3 v) AR_Channel__i1_s1___dfx_controller_0_M_AXI_MEM_ [2:0] $end
$var reg 3 y) AR_Channel__i1_s2___axi_mm2s_mapper_0_M_AXI_ [2:0] $end
$var reg 3 |) AW_Channel__i1_s1___dfx_controller_0_M_AXI_MEM_ [2:0] $end
$var reg 3 !* AW_Channel__i1_s2___axi_mm2s_mapper_0_M_AXI_ [2:0] $end
$var reg 3 $* B_Channel__i1_s1___dfx_controller_0_M_AXI_MEM_ [2:0] $end
$var reg 3 '* B_Channel__i1_s2___axi_mm2s_mapper_0_M_AXI_ [2:0] $end
$var reg 3 ** Interface__i1_s1___dfx_controller_0_M_AXI_MEM_ [2:0] $end
$var reg 3 -* Interface__i1_s2___axi_mm2s_mapper_0_M_AXI_ [2:0] $end
$var reg 3 0* Interface__i1_s3___axi_mm2s_mapper_0_M_AXIS_ [2:0] $end
$var reg 3 3* R_Channel__i1_s1___dfx_controller_0_M_AXI_MEM_ [2:0] $end
$var reg 3 6* R_Channel__i1_s2___axi_mm2s_mapper_0_M_AXI_ [2:0] $end
$var reg 3 9* T_Channel__i1_s3___axi_mm2s_mapper_0_M_AXIS_ [2:0] $end
$var reg 3 <* W_Channel__i1_s1___dfx_controller_0_M_AXI_MEM_ [2:0] $end
$var reg 3 ?* W_Channel__i1_s2___axi_mm2s_mapper_0_M_AXI_ [2:0] $end
$var reg 16 B* ila_1___slot_1___dfx_controller_0_M_AXI_MEM___Read_Transactions_0 [15:0] $end
$var reg 16 R* ila_1___slot_2___axi_mm2s_mapper_0_M_AXI___Read_Transactions_0 [15:0] $end
$var reg 1 b* _TRIGGER $end
$var reg 1 c* _WINDOW $end
$var reg 1 d* _GAP $end
$upscope $end
$enddefinitions $end
#0
$dumpvars
0"
0#
1$
0%
0&
0'
b0 (
0J"
b0 K"
0m#
1n#
0o#
1p#
b0 q#
b11111111111111111111111110011011 3$
0S$
1T$
1U$
0V$
b0 W$
b0 Y$
b0 y$
b11 {$
b0 !%
b0 )%
b0 ,%
b0 /%
b0 3%
b0 5%
b1 U%
b11 W%
b0 [%
b0 c%
b10 f%
b0 i%
b0 k%
b0 m%
b0 /&
b0 1&
0Q&
b10 R&
1T&
0U&
b0 V&
0Y&
0Z&
b0 [&
0]&
0^&
b10 _&
0a&
1b&
b0 c&
0f&
0g&
0h&
b0 i&
b0 k&
b0 -'
b0 /'
b0 3'
0;'
b0 <'
b0 ?'
b0 C'
b0 F'
b0 H'
b0 h'
b0 j'
b0 n'
0v'
b0 w'
b0 z'
b0 ~'
b0 #(
b0 %(
b0 '(
b0 )(
b0 I(
b0 K(
b0 k(
0o(
b10 p(
1r(
b0 s(
0v(
0w(
0x(
b10 y(
0{(
1|(
0}(
b10 ~(
1")
0#)
b10 $)
1')
0()
b0 ))
b0 I)
b1 L)
0P)
0Q)
1R)
b0 S)
0s)
1t)
0u)
b0 v)
b0 y)
b11 |)
b11 !*
b11 $*
b11 '*
b0 **
b0 -*
b0 0*
b0 3*
b0 6*
b0 9*
b100 <*
b100 ?*
b0 B*
b0 R*
0b*
1c*
0d*
$end
#100
1#
1b*
#121
b1011100110011000100000 Y$
b1 y$
b1110111 !%
b10 ,%
b11 _&
1a&
b10 v)
b1 **
#122
b1 W$
b0 Y$
b0 y$
b0 !%
b0 ,%
b1 k%
b0 _&
0a&
0b&
b10 c&
1g&
b0 v)
b0 **
#123
b1011100110011000100000 ))
b10 I)
b1111 L)
1P)
1Q)
0R)
b1 0*
b1 9*
#124
b10 _&
1b&
b1110111001101010000 ))
1R)
b10 9*
#125
b0 ))
0P)
0Q)
0R)
b0 0*
b0 9*
#126
b1011100110100000000000 Y$
b1 y$
b11111111 !%
b10 ,%
b11 _&
1a&
b10 v)
b1 **
#127
b10 W$
b0 Y$
b0 y$
b0 !%
b0 ,%
b10 k%
b0 _&
0a&
0b&
b1011100110100000000000 ))
b0 v)
b0 **
#128
1P)
1Q)
b1 0*
b1 9*
#129
b10 _&
1b&
b11111111001101010000 ))
1R)
b10 9*
#130
b0 ))
0P)
0Q)
0R)
b0 0*
b0 9*
#131
b1011100110110000000000 Y$
b1 y$
b11111111 !%
b10 ,%
b11 _&
1a&
b10 v)
b1 **
b1 B*
#132
b11 W$
b0 Y$
b0 y$
b0 !%
b0 ,%
b11 k%
b0 _&
0a&
0b&
b1011100110110000000000 ))
b0 v)
b0 **
#133
1P)
1Q)
b1 0*
b1 9*
#134
b10 _&
1b&
b11111111001101010000 ))
1R)
b10 9*
#135
b100 s(
1x(
b0 ))
0P)
0Q)
0R)
b0 0*
b0 9*
#136
b1011100111000000000000 Y$
b1 y$
b11111111 !%
b10 ,%
b11 _&
1a&
b1011100110011000100000 k&
b1 -'
b11 /'
b1110111 3'
b10 C'
1}(
b11 ~(
b10 v)
b10 y)
b1 **
b1 -*
#137
b0 W$
b0 Y$
b0 y$
b0 !%
b0 ,%
b0 k%
b0 _&
0a&
0b&
b1 i&
b0 k&
b0 -'
b0 /'
b0 3'
b0 C'
b1 '(
0}(
b10 ~(
b1011100111000000000000 ))
b0 v)
b0 y)
b0 **
b0 -*
#138
1P)
1Q)
b1 0*
b1 9*
#139
b10 _&
1b&
b0 s(
0x(
b11111111001101010000 ))
1R)
b10 9*
#140
b0 ))
0P)
0Q)
0R)
b0 0*
b0 9*
#141
b1011100111010000000000 Y$
b1 y$
b11111111 !%
b10 ,%
b11 _&
1a&
b10 v)
b1 **
#142
b1 W$
b0 Y$
b0 y$
b0 !%
b0 ,%
b1 k%
b0 _&
0a&
0b&
b1011100111010000000000 ))
b0 v)
b0 **
#143
b100 s(
1x(
1P)
1Q)
b1 0*
b1 9*
#144
b10 _&
1b&
b1011100110100000000000 k&
b1 -'
b11 /'
b11111111 3'
b10 C'
1}(
b11 ~(
b11111111001101010000 ))
1R)
b10 y)
b1 -*
b10 9*
#145
b10 i&
b0 k&
b0 -'
b0 /'
b0 3'
b0 C'
b10 '(
0}(
b10 ~(
b0 ))
0P)
0Q)
0R)
b0 y)
b0 -*
b0 0*
b0 9*
#147
b0 s(
0x(
#151
b100 s(
1x(
#152
b1011100110110000000000 k&
b1 -'
b11 /'
b11111111 3'
b10 C'
1}(
b11 ~(
b10 y)
b1 -*
b1 R*
#153
b11 i&
b0 k&
b0 -'
b0 /'
b0 3'
b0 C'
b11 '(
0}(
b10 ~(
b0 y)
b0 -*
#155
b0 s(
0x(
#159
b100 s(
1x(
#160
b1011100111000000000000 k&
b1 -'
b11 /'
b11111111 3'
b10 C'
1}(
b11 ~(
b10 y)
b1 -*
#161
b0 i&
b0 k&
b0 -'
b0 /'
b0 3'
b0 C'
b0 '(
0}(
b10 ~(
b0 y)
b0 -*
#163
b0 s(
0x(
#167
b100 s(
1x(
#168
b1011100111010000000000 k&
b1 -'
b11 /'
b11111111 3'
b10 C'
1}(
b11 ~(
b10 y)
b1 -*
#169
b1 i&
b0 k&
b0 -'
b0 /'
b0 3'
b0 C'
b1 '(
0}(
b10 ~(
b0 y)
b0 -*
#182
b11001000111100000100100111100100 )(
1#)
b11 $)
b1 -*
b1 6*
#183
b1101100110011111100010111100101 )(
b1 $)
0')
b0 -*
b0 6*
#184
b11001000111100000100100111100100 ))
b11 I)
1P)
1Q)
b1 0*
b1 9*
#185
b11 $)
1')
b0 ))
b1 L)
1R)
b1 -*
b1 6*
b10 9*
#186
b1101110011101010110111001010010 )(
b1 $)
0')
b1101100110011111100010111100101 ))
b1111 L)
0P)
0Q)
0R)
b0 -*
b0 0*
b0 6*
b0 9*
#187
1P)
1Q)
b1 0*
b1 9*
#188
b11 $)
1')
b0 ))
b1 L)
1R)
b1 -*
b1 6*
b10 9*
#189
b11001000111100000100100111100100 K"
b10011010010011000001100000101001 )(
b1 $)
0')
b1101110011101010110111001010010 ))
b1111 L)
0P)
0Q)
0R)
b0 -*
b0 0*
b0 6*
b0 9*
#190
1P)
1Q)
b1 0*
b1 9*
#191
b11 $)
1')
b0 ))
b1 L)
1R)
b1 -*
b1 6*
b10 9*
#192
b11001000111100000100100111100100 )(
b1 $)
0')
b10011010010011000001100000101001 ))
b1111 L)
0P)
0Q)
0R)
b0 -*
b0 0*
b0 6*
b0 9*
#193
1P)
1Q)
b1 0*
b1 9*
#194
b11 $)
1')
b0 ))
b1 L)
1R)
b1 -*
b1 6*
b10 9*
#195
b1101100110011111100010111100101 )(
b1 $)
0')
b11001000111100000100100111100100 ))
b1111 L)
0P)
0Q)
0R)
b0 -*
b0 0*
b0 6*
b0 9*
#196
1P)
1Q)
b1 0*
b1 9*
#197
b110110011001111110001011110010111001000111100000100100111100100 K"
b11 $)
1')
b0 ))
b1 L)
1R)
b1 -*
b1 6*
b10 9*
#198
b1101110011101010110111001010010 )(
b1 $)
0')
b1101100110011111100010111100101 ))
b1111 L)
0P)
0Q)
0R)
b0 -*
b0 0*
b0 6*
b0 9*
#199
1P)
1Q)
b1 0*
b1 9*
#200
b11 $)
1')
b0 ))
b1 L)
1R)
b1 -*
b1 6*
b10 9*
#201
b10011010010011000001100000101001 )(
b1 $)
0')
b1101110011101010110111001010010 ))
b1111 L)
0P)
0Q)
0R)
b0 -*
b0 0*
b0 6*
b0 9*
#202
1P)
1Q)
b1 0*
b1 9*
#203
b11 $)
1')
b0 ))
b1 L)
1R)
b1 -*
b1 6*
b10 9*
#204
b11001000111100000100100111100100 )(
b1 $)
0')
b10011010010011000001100000101001 ))
b1111 L)
0P)
0Q)
0R)
b0 -*
b0 0*
b0 6*
b0 9*
#205
b11011100111010101101110010100100110110011001111110001011110010111001000111100000100100111100100 K"
1P)
1Q)
b1 0*
b1 9*
#206
b11 $)
1')
b0 ))
b1 L)
1R)
b1 -*
b1 6*
b10 9*
#207
b1101100110011111100010111100101 )(
b1 $)
0')
b11001000111100000100100111100100 ))
b1111 L)
0P)
0Q)
0R)
b0 -*
b0 0*
b0 6*
b0 9*
#208
1P)
1Q)
b1 0*
b1 9*
#209
b11 $)
1')
b0 ))
b1 L)
1R)
b1 -*
b1 6*
b10 9*
#210
b1101110011101010110111001010010 )(
b1 $)
0')
b1101100110011111100010111100101 ))
b1111 L)
0P)
0Q)
0R)
b0 -*
b0 0*
b0 6*
b0 9*
#211
1P)
1Q)
b1 0*
b1 9*
#212
b11 $)
1')
b0 ))
b1 L)
1R)
b1 -*
b1 6*
b10 9*
#213
b10011010010011000001100000101001011011100111010101101110010100100110110011001111110001011110010111001000111100000100100111100100 K"
b10011010010011000001100000101001 )(
b1 $)
0')
b1101110011101010110111001010010 ))
b1111 L)
0P)
0Q)
0R)
b0 -*
b0 0*
b0 6*
b0 9*
#214
1P)
1Q)
b1 0*
b1 9*
#215
b11 $)
1')
b0 ))
b1 L)
1R)
b1 -*
b1 6*
b10 9*
#216
b11001000111100000100100111100100 )(
b1 $)
0')
b10011010010011000001100000101001 ))
b1111 L)
0P)
0Q)
0R)
b0 -*
b0 0*
b0 6*
b0 9*
#217
1J"
1P)
1Q)
b1 0*
b1 9*
#218
0J"
b11 $)
1')
b0 ))
b1 L)
0Q)
1R)
b1 -*
b0 0*
b1 6*
b0 9*
#219
b101111011100010101000100111000111101000010110001100000000111110101100101110011100001010101111000011110011110011111000011010100 (
b1101100110011111100010111100101 )(
b1 $)
0')
b0 -*
b0 6*
#220
b1001110001011000111000001110110111101000010110001100000000111110101100101110011100001010101111000011110011110011111000011010100 (
#221
b1001110001011000111000001110110101110100100001010010000110010110101100101110011100001010101111000011110011110011111000011010100 (
#222
b1001110001011000111000001110110101110100100001010010000110010110001010110001111011001111001110100011110011110011111000011010100 (
#223
b1001110001011000111000001110110101110100100001010010000110010110001010110001111011001111001110111101001101011110001011100011001 (
#224
b11101000100110100100011110010010001110100000011000000001011001000001000011110011101010111010101010010101001100011101111100100111 (
#225
b11001000001101110001011001110100001110100000011000000001011001000001000011110011101010111010101010010101001100011101111100100111 (
#226
b11001000001101110001011001110100101000101010010100001001100011000001000011110011101010111010101010010101001100011101111100100111 (
#227
b11001000001101110001011001110100101000101010010100001001100011000111110001111110000011100110001010010101001100011101111100100111 (
#228
b11001000001101110001011001110100101000101010010100001001100011000111110001111110000011100110001010101101001011101110111100111101 (
#229
b10010100100010111000011110000101010100001110011101001101100100110101010010110100101000000010100000101010000111001001111001100 (
#230
b111001101011001101000000010111101010100001110011101001101100100110101010010110100101000000010100000101010000111001001111001100 (
#231
b111001101011001101000000010111011000101100010011101011001111100110101010010110100101000000010100000101010000111001001111001100 (
#232
b111001101011001101000000010111011000101100010011101011001111100101100000110101111001110011011000000101010000111001001111001100 (
#233
b111001101011001101000000010111011000101100010011101011001111100101100000110101111001110011011000110110011001000010001000100111 (
#234
b1010100110110000111001111011011000111011011000000010001010111111101100011000001001011001010010010110100000011010101010101100100 (
#235
b11111101001011011000111110011111000111011011000000010001010111111101100011000001001011001010010010110100000011010101010101100100 (
#236
b11111101001011011000111110011111110111101111110011100011100001001101100011000001001011001010010010110100000011010101010101100100 (
#237
b11111101001011011000111110011111110111101111110011100011100001000010110111011101010000100001110110110100000011010101010101100100 (
#238
b11111101001011011000111110011111110111101111110011100011100001000010110111011101010000100001110111000110111100111110110110001100 (
#239
b1011011111100010101001000111111001001001101100101000010001001010100000100101111011111000011001001111001110000010110011100111001 (
#240
b1010111001010110100100000100101001001001101100101000010001001010100000100101111011111000011001001111001110000010110011100111001 (
#241
b1010111001010110100100000100101101001101110010111110110110000100100000100101111011111000011001001111001110000010110011100111001 (
#242
b1010111001010110100100000100101101001101110010111110110110000101111100001001110000000011010000101111001110000010110011100111001 (
#243
b1010111001010110100100000100101101001101110010111110110110000101111100001001110000000011010000110101111110111010000101001011011 (
#244
b10010110001110000010001000101011010001001110111101010110111010001010011100101111110010110101101111011101000111111110100010111010 (
#245
b110101011101101001010000001011010001001110111101010110111010001010011100101111110010110101101111011101000111111110100010111010 (
#246
b110101011101101001010000001011100001100110000110111001110010001010011100101111110010110101101111011101000111111110100010111010 (
#247
b110101011101101001010000001011100001100110000110111001110010001000100101001110010110010101011111011101000111111110100010111010 (
#248
b110101011101101001010000001011100001100110000110111001110010001000100101001110010110010101011111001001110010111100100011000000 (
#249
b1001000000101001011111100100101101000001000100100101100001101010010101110010000011000100111111010111000001001101001001000010111 (
#250
b11010100100110111111010011000010101000001000100100101100001101010010101110010000011000100111111010111000001001101001001000010111 (
#251
b11010100100110111111010011000010010001111111001001000010110110010010101110010000011000100111111010111000001001101001001000010111 (
#252
b11010100100110111111010011000010010001111111001001000010110110010000101110010110101010111000101010111000001001101001001000010111 (
#253
b11010100100110111111010011000010010001111111001001000010110110010000101110010110101010111000101010011010001000110111010010000111 (
#254
b10100110101000011010110010010010011001101000101001011011010110110010110101010001100001010000011000011001110111010100110111110011 (
#255
b11000101111100011010101001110100011001101000101001011011010110110010110101010001100001010000011000011001110111010100110111110011 (
#256
b11000101111100011010101001110100110100111100111101010111010101110010110101010001100001010000011000011001110111010100110111110011 (
#257
b11000101111100011010101001110100110100111100111101010111010101111111101001110000011001111010010100011001110111010100110111110011 (
#258
b11000101111100011010101001110100110100111100111101010111010101111111101001110000011001111010010110001110110010010110010101111110 (
#259
b11110101101111001011011110101110010110111001100010111110100011110100110101100101111111000100010110100001011000101111010111100111 (
#260
b1110111011110000010000010111110010110111001100010111110100011110100110101100101111111000100010110100001011000101111010111100111 (
#261
b1110111011110000010000010111110010101111110001001011010011100110100110101100101111111000100010110100001011000101111010111100111 (
#262
b1110111011110000010000010111110010101111110001001011010011100110110010110111100010101010110100010100001011000101111010111100111 (
#263
b1110111011110000010000010111110010101111110001001011010011100110110010110111100010101010110100011110001101010110111011110110000 (
#264
b11000000101100011100000100100010111100111101001101100110100111000001001011110110100111101110010110111011110101100101111001100001 (
#265
b11111010101101101110110010100111100111101001101100110100111000001001011110110100111101110010110111011110101100101111001100001 (
#266
b11111010101101101110110010100011111101010100111010011000111000001001011110110100111101110010110111011110101100101111001100001 (
#267
b11111010101101101110110010100011111101010100111010011000111000011100111010110110111110010101010111011110101100101111001100001 (
#268
b11111010101101101110110010100011111101010100111010011000111000011100111010110110111110010101011111110010010101001110111011000 (
#269
b110100101000001101010010001111111110010111001101101100010000010110101001010001000011010000101001100100000111101100100101111 (
#270
b10100101111001110100001110101100111111110010111001101101100010000010110101001010001000011010000101001100100000111101100100101111 (
#271
b10100101111001110100001110101100011111011100001110110011100101110010110101001010001000011010000101001100100000111101100100101111 (
#272
b10100101111001110100001110101100011111011100001110110011100101111111101001011100011110111111000101001100100000111101100100101111 (
#273
b10100101111001110100001110101100011111011100001110110011100101111111101001011100011110111111000101011101010000011110010101001110 (
#274
b1001100110000011100100001011000010000110111011100011110010111111010001000001000010110001001100010011001100000010001000101010110 (
#275
b1011101110111011011000101011110010000110111011100011110010111111010001000001000010110001001100010011001100000010001000101010110 (
#276
b1011101110111011011000101011110011001000000001011101001100001001010001000001000010110001001100010011001100000010001000101010110 (
#277
b1011101110111011011000101011110011001000000001011101001100001000001101010111111010111101110001010011001100000010001000101010110 (
#278
b1011101110111011011000101011110011001000000001011101001100001000001101010111111010111101110001011111001100100011110001110111001 (
#279
b100001000100010111100111000010001110010111100000011000010101110101000111001111010011011100000000111000101001011111110010111000 (
#280
b1111011111000111010111110101000001110010111100000011000010101110101000111001111010011011100000000111000101001011111110010111000 (
#281
b1111011111000111010111110101000010110111100000100110100110110100101000111001111010011011100000000111000101001011111110010111000 (
#282
b1111011111000111010111110101000010110111100000100110100110110100111000001011111011001010001111100111000101001011111110010111000 (
#283
b1111011111000111010111110101000010110111100000100110100110110100111000001011111011001010001111101110110001010010101010110011010 (
#284
b100110100001100000111001010110001010100100011111100001000100011011000110100101110101110000011000000000111110111010110100101001 (
#285
b100011110111001101011110111001001010100100011111100001000100011011000110100101110101110000011000000000111110111010110100101001 (
#286
b100011110111001101011110111001100101010001011011100000111000111011000110100101110101110000011000000000111110111010110100101001 (
#287
b100011110111001101011110111001100101010001011011100000111000110101011000101001000011011010010100000000111110111010110100101001 (
#288
b100011110111001101011110111001100101010001011011100000111000110101011000101001000011011010010101010010011000110001100001001100 (
#290
1o#
#296
b110 c&
1h&
b1100 k(
b0 s(
0x(
#297
b1010010011000110001100001001100 m%
#299
b11 c&
1f&
0h&
b0 k(
b1 **
b1 3*
#300
1m#
b10 c&
0f&
b0 **
b0 3*
#301
0m#
0o#
#302
b1 /&
b110 c&
1h&
b101 k(
#303
b1010110001010010000110110100101 m%
1Q)
b1 0*
b10 9*
#304
b11001000111100000100100111100100 ))
b1111 L)
0P)
0Q)
0R)
b0 0*
b0 9*
#305
b0 /&
b11 c&
1f&
0h&
b0 k(
1P)
b1 **
b1 3*
#306
b10 c&
0f&
b0 **
b0 3*
#307
1Q)
b1 0*
b1 9*
#308
b11 /&
b11 k(
b11 $)
1')
b0 ))
b1 L)
0Q)
1R)
b1 -*
b0 0*
b1 6*
b0 9*
#309
b10010101000101101110000011100011 m%
b1101110011101010110111001010010 )(
b1 $)
0')
b0 -*
b0 6*
#311
b0 /&
b11 c&
1f&
b0 k(
1Q)
b1 **
b1 0*
b1 3*
b10 9*
#312
0p#
b1001010110001100001100000110010 q#
b10 c&
0f&
b1101100110011111100010111100101 ))
b1111 L)
0P)
0Q)
0R)
b0 **
b0 0*
b0 3*
b0 9*
#313
1p#
b1101010100101001011000010100101 q#
1P)
#314
b1 /&
b1001 k(
b100 s(
1x(
#315
b100011110111001101011110111001 m%
1Q)
b1 0*
b1 9*
#316
b11 $)
1')
b0 ))
b1 L)
0Q)
1R)
b1 -*
b0 0*
b1 6*
b0 9*
#317
0p#
b0 /&
b11 c&
1f&
b10011010010011000001100000101001 )(
b0 k(
b0 s(
0x(
b1 $)
0')
b1 **
b0 -*
b1 3*
b0 6*
#318
1p#
b10101001011010000000011111000111 q#
b10 c&
0f&
b0 **
b0 3*
#319
1Q)
b1 0*
b10 9*
#320
b1101110011101010110111001010010 ))
b1111 L)
0P)
0Q)
0R)
b0 0*
b0 9*
#321
1P)
#323
0p#
1Q)
b1 0*
b1 9*
