.Xil/Vivado-190886-luiscarlos-GL552VX/hw_ila_data_1/zip_work/waveform.vcd
$date
        2023-Jun-14 11:01:31
$end
$version
        Vivado v2021.2 (64-bit)
$end
$timescale
        1ps
$end
$scope module dut $end
$var reg 1 " design_1_i/system_ila_0/inst/probe0_1 $end
$var reg 1 # design_1_i/system_ila_0/inst/probe1_1 $end
$var reg 1 $ design_1_i/system_ila_0/inst/probe2_1 $end
$var reg 1 % design_1_i/system_ila_0/inst/probe3_1 $end
$var reg 2 & design_1_i/system_ila_0/inst/probe4_1 [1:0] $end
$var reg 256 ( design_1_i/system_ila_0/inst/probe5_1 [255:0] $end
$var reg 1 l# design_1_i/system_ila_0/inst/probe6_1 $end
$var reg 1 m# design_1_i/system_ila_0/inst/probe7_1 $end
$var reg 1 n# design_1_i/system_ila_0/inst/probe8_1 $end
$var reg 1 o# design_1_i/system_ila_0/inst/probe9_1 $end
$var reg 1 p# design_1_i/system_ila_0/inst/probe10_1 $end
$var reg 1 q# design_1_i/system_ila_0/inst/probe11_1 $end
$var reg 256 r# design_1_i/system_ila_0/inst/probe12_1 [255:0] $end
$var reg 1 X& design_1_i/system_ila_0/inst/probe13_1 $end
$var reg 128 Y& design_1_i/system_ila_0/inst/probe14_1 [127:0] $end
$var reg 128 {' design_1_i/system_ila_0/inst/probe15_1 [127:0] $end
$var reg 1 ?) design_1_i/system_ila_0/inst/probe16_1 $end
$var reg 128 @) design_1_i/system_ila_0/inst/probe17_1 [127:0] $end
$var reg 2 b* design_1_i/system_ila_0/inst/probe18_1 [1:0] $end
$var reg 1 d* design_1_i/system_ila_0/inst/probe19_1 $end
$var reg 4 e* design_1_i/system_ila_0/inst/probe20_1 [3:0] $end
$var reg 4 i* design_1_i/system_ila_0/inst/probe21_1 [3:0] $end
$var reg 1 m* design_1_i/system_ila_0/inst/probe22_1 $end
$var reg 1 n* design_1_i/system_ila_0/inst/probe23_1 $end
$var reg 1 o* design_1_i/system_ila_0/inst/SLOT_0_ICAP_csib_1 $end
$var reg 32 p* design_1_i/system_ila_0/inst/SLOT_0_ICAP_i_1 [31:0] $end
$var reg 32 2+ design_1_i/system_ila_0/inst/SLOT_0_ICAP_o_1 [31:0] $end
$var reg 1 R+ design_1_i/system_ila_0/inst/SLOT_0_ICAP_rdwrb_1 $end
$var reg 1 S+ design_1_i/system_ila_0/inst/SLOT_0_ICAP_avail_1 $end
$var reg 1 T+ design_1_i/system_ila_0/inst/SLOT_0_ICAP_prdone_1 $end
$var reg 1 U+ design_1_i/system_ila_0/inst/SLOT_0_ICAP_prerror_1 $end
$var reg 2 V+ design_1_i/system_ila_0/inst/net_slot_1_axi_ar_cnt [1:0] $end
$var reg 32 X+ design_1_i/system_ila_0/inst/net_slot_1_axi_araddr [31:0] $end
$var reg 2 x+ design_1_i/system_ila_0/inst/net_slot_1_axi_arburst [1:0] $end
$var reg 4 z+ design_1_i/system_ila_0/inst/net_slot_1_axi_arcache [3:0] $end
$var reg 8 ~+ design_1_i/system_ila_0/inst/net_slot_1_axi_arlen [7:0] $end
$var reg 3 (, design_1_i/system_ila_0/inst/net_slot_1_axi_arprot [2:0] $end
$var reg 3 +, design_1_i/system_ila_0/inst/net_slot_1_axi_arsize [2:0] $end
$var reg 4 ., design_1_i/system_ila_0/inst/net_slot_1_axi_aruser [3:0] $end
$var reg 2 2, design_1_i/system_ila_0/inst/net_slot_1_axi_aw_cnt [1:0] $end
$var reg 32 4, design_1_i/system_ila_0/inst/net_slot_1_axi_awaddr [31:0] $end
$var reg 2 T, design_1_i/system_ila_0/inst/net_slot_1_axi_awburst [1:0] $end
$var reg 4 V, design_1_i/system_ila_0/inst/net_slot_1_axi_awcache [3:0] $end
$var reg 8 Z, design_1_i/system_ila_0/inst/net_slot_1_axi_awlen [7:0] $end
$var reg 3 b, design_1_i/system_ila_0/inst/net_slot_1_axi_awprot [2:0] $end
$var reg 3 e, design_1_i/system_ila_0/inst/net_slot_1_axi_awsize [2:0] $end
$var reg 2 h, design_1_i/system_ila_0/inst/net_slot_1_axi_b_cnt [1:0] $end
$var reg 2 j, design_1_i/system_ila_0/inst/net_slot_1_axi_r_cnt [1:0] $end
$var reg 32 l, design_1_i/system_ila_0/inst/net_slot_1_axi_rdata [31:0] $end
$var reg 2 .- design_1_i/system_ila_0/inst/net_slot_1_axi_rresp [1:0] $end
$var reg 32 0- design_1_i/system_ila_0/inst/net_slot_1_axi_wdata [31:0] $end
$var reg 2 P- design_1_i/system_ila_0/inst/net_slot_1_axi_aw_ctrl [1:0] $end
$var reg 1 R- design_1_i/system_ila_0/inst/net_slot_1_axi_awvalid $end
$var reg 1 S- design_1_i/system_ila_0/inst/net_slot_1_axi_awready $end
$var reg 1 T- design_1_i/system_ila_0/inst/net_slot_1_axi_wvalid $end
$var reg 3 U- design_1_i/system_ila_0/inst/net_slot_1_axi_w_ctrl [2:0] $end
$var reg 1 X- design_1_i/system_ila_0/inst/net_slot_1_axi_wready $end
$var reg 1 Y- design_1_i/system_ila_0/inst/net_slot_1_axi_wlast $end
$var reg 1 Z- design_1_i/system_ila_0/inst/net_slot_1_axi_bvalid $end
$var reg 2 [- design_1_i/system_ila_0/inst/net_slot_1_axi_b_ctrl [1:0] $end
$var reg 1 ]- design_1_i/system_ila_0/inst/net_slot_1_axi_bready $end
$var reg 2 ^- design_1_i/system_ila_0/inst/net_slot_1_axi_ar_ctrl [1:0] $end
$var reg 1 `- design_1_i/system_ila_0/inst/net_slot_1_axi_arvalid $end
$var reg 1 a- design_1_i/system_ila_0/inst/net_slot_1_axi_arready $end
$var reg 3 b- design_1_i/system_ila_0/inst/net_slot_1_axi_r_ctrl [2:0] $end
$var reg 1 e- design_1_i/system_ila_0/inst/net_slot_1_axi_rvalid $end
$var reg 1 f- design_1_i/system_ila_0/inst/net_slot_1_axi_rready $end
$var reg 1 g- design_1_i/system_ila_0/inst/net_slot_1_axi_rlast $end
$var reg 2 h- design_1_i/system_ila_0/inst/net_slot_2_axi_ar_cnt [1:0] $end
$var reg 32 j- design_1_i/system_ila_0/inst/net_slot_2_axi_araddr [31:0] $end
$var reg 3 ,. design_1_i/system_ila_0/inst/net_slot_2_axi_arprot [2:0] $end
$var reg 2 /. design_1_i/system_ila_0/inst/net_slot_2_axi_aw_cnt [1:0] $end
$var reg 32 1. design_1_i/system_ila_0/inst/net_slot_2_axi_awaddr [31:0] $end
$var reg 3 Q. design_1_i/system_ila_0/inst/net_slot_2_axi_awprot [2:0] $end
$var reg 2 T. design_1_i/system_ila_0/inst/net_slot_2_axi_b_cnt [1:0] $end
$var reg 2 V. design_1_i/system_ila_0/inst/net_slot_2_axi_r_cnt [1:0] $end
$var reg 32 X. design_1_i/system_ila_0/inst/net_slot_2_axi_rdata [31:0] $end
$var reg 2 x. design_1_i/system_ila_0/inst/net_slot_2_axi_rresp [1:0] $end
$var reg 32 z. design_1_i/system_ila_0/inst/net_slot_2_axi_wdata [31:0] $end
$var reg 1 </ design_1_i/system_ila_0/inst/net_slot_2_axi_awvalid $end
$var reg 2 =/ design_1_i/system_ila_0/inst/net_slot_2_axi_aw_ctrl [1:0] $end
$var reg 1 ?/ design_1_i/system_ila_0/inst/net_slot_2_axi_awready $end
$var reg 1 @/ design_1_i/system_ila_0/inst/net_slot_2_axi_wvalid $end
$var reg 2 A/ design_1_i/system_ila_0/inst/net_slot_2_axi_w_ctrl [1:0] $end
$var reg 1 C/ design_1_i/system_ila_0/inst/net_slot_2_axi_wready $end
$var reg 2 D/ design_1_i/system_ila_0/inst/net_slot_2_axi_b_ctrl [1:0] $end
$var reg 1 F/ design_1_i/system_ila_0/inst/net_slot_2_axi_bvalid $end
$var reg 1 G/ design_1_i/system_ila_0/inst/net_slot_2_axi_bready $end
$var reg 2 H/ design_1_i/system_ila_0/inst/net_slot_2_axi_ar_ctrl [1:0] $end
$var reg 1 J/ design_1_i/system_ila_0/inst/net_slot_2_axi_arvalid $end
$var reg 1 K/ design_1_i/system_ila_0/inst/net_slot_2_axi_arready $end
$var reg 1 L/ design_1_i/system_ila_0/inst/net_slot_2_axi_rvalid $end
$var reg 2 M/ design_1_i/system_ila_0/inst/net_slot_2_axi_r_ctrl [1:0] $end
$var reg 1 O/ design_1_i/system_ila_0/inst/net_slot_2_axi_rready $end
$var reg 2 P/ design_1_i/system_ila_0/inst/net_slot_3_axi_ar_cnt [1:0] $end
$var reg 32 R/ design_1_i/system_ila_0/inst/net_slot_3_axi_araddr [31:0] $end
$var reg 3 r/ design_1_i/system_ila_0/inst/net_slot_3_axi_arprot [2:0] $end
$var reg 2 u/ design_1_i/system_ila_0/inst/net_slot_3_axi_aw_cnt [1:0] $end
$var reg 32 w/ design_1_i/system_ila_0/inst/net_slot_3_axi_awaddr [31:0] $end
$var reg 3 90 design_1_i/system_ila_0/inst/net_slot_3_axi_awprot [2:0] $end
$var reg 2 <0 design_1_i/system_ila_0/inst/net_slot_3_axi_b_cnt [1:0] $end
$var reg 2 >0 design_1_i/system_ila_0/inst/net_slot_3_axi_bresp [1:0] $end
$var reg 2 @0 design_1_i/system_ila_0/inst/net_slot_3_axi_r_cnt [1:0] $end
$var reg 32 B0 design_1_i/system_ila_0/inst/net_slot_3_axi_rdata [31:0] $end
$var reg 2 b0 design_1_i/system_ila_0/inst/net_slot_3_axi_rresp [1:0] $end
$var reg 32 d0 design_1_i/system_ila_0/inst/net_slot_3_axi_wdata [31:0] $end
$var reg 4 &1 design_1_i/system_ila_0/inst/net_slot_3_axi_wstrb [3:0] $end
$var reg 2 *1 design_1_i/system_ila_0/inst/net_slot_3_axi_aw_ctrl [1:0] $end
$var reg 1 ,1 design_1_i/system_ila_0/inst/net_slot_3_axi_awvalid $end
$var reg 1 -1 design_1_i/system_ila_0/inst/net_slot_3_axi_awready $end
$var reg 2 .1 design_1_i/system_ila_0/inst/net_slot_3_axi_w_ctrl [1:0] $end
$var reg 1 01 design_1_i/system_ila_0/inst/net_slot_3_axi_wvalid $end
$var reg 1 11 design_1_i/system_ila_0/inst/net_slot_3_axi_wready $end
$var reg 1 21 design_1_i/system_ila_0/inst/net_slot_3_axi_bvalid $end
$var reg 2 31 design_1_i/system_ila_0/inst/net_slot_3_axi_b_ctrl [1:0] $end
$var reg 1 51 design_1_i/system_ila_0/inst/net_slot_3_axi_bready $end
$var reg 1 61 design_1_i/system_ila_0/inst/net_slot_3_axi_arvalid $end
$var reg 2 71 design_1_i/system_ila_0/inst/net_slot_3_axi_ar_ctrl [1:0] $end
$var reg 1 91 design_1_i/system_ila_0/inst/net_slot_3_axi_arready $end
$var reg 2 :1 design_1_i/system_ila_0/inst/net_slot_3_axi_r_ctrl [1:0] $end
$var reg 1 <1 design_1_i/system_ila_0/inst/net_slot_3_axi_rvalid $end
$var reg 1 =1 design_1_i/system_ila_0/inst/net_slot_3_axi_rready $end
$var reg 3 >1 AR_Channel__i1_s1___dfx_controller_0_M_AXI_MEM_ [2:0] $end
$var reg 3 A1 AR_Channel__i1_s2___axi_interconnect_0_M00_AXI_ [2:0] $end
$var reg 3 D1 AR_Channel__i1_s3___aes_0_m00_axi_ [2:0] $end
$var reg 3 G1 AW_Channel__i1_s1___dfx_controller_0_M_AXI_MEM_ [2:0] $end
$var reg 3 J1 AW_Channel__i1_s2___axi_interconnect_0_M00_AXI_ [2:0] $end
$var reg 3 M1 AW_Channel__i1_s3___aes_0_m00_axi_ [2:0] $end
$var reg 3 P1 B_Channel__i1_s1___dfx_controller_0_M_AXI_MEM_ [2:0] $end
$var reg 3 S1 B_Channel__i1_s2___axi_interconnect_0_M00_AXI_ [2:0] $end
$var reg 3 V1 B_Channel__i1_s3___aes_0_m00_axi_ [2:0] $end
$var reg 3 Y1 Interface__i1_s1___dfx_controller_0_M_AXI_MEM_ [2:0] $end
$var reg 3 \1 Interface__i1_s2___axi_interconnect_0_M00_AXI_ [2:0] $end
$var reg 3 _1 Interface__i1_s3___aes_0_m00_axi_ [2:0] $end
$var reg 3 b1 R_Channel__i1_s1___dfx_controller_0_M_AXI_MEM_ [2:0] $end
$var reg 3 e1 R_Channel__i1_s2___axi_interconnect_0_M00_AXI_ [2:0] $end
$var reg 3 h1 R_Channel__i1_s3___aes_0_m00_axi_ [2:0] $end
$var reg 3 k1 W_Channel__i1_s1___dfx_controller_0_M_AXI_MEM_ [2:0] $end
$var reg 3 n1 W_Channel__i1_s2___axi_interconnect_0_M00_AXI_ [2:0] $end
$var reg 3 q1 W_Channel__i1_s3___aes_0_m00_axi_ [2:0] $end
$var reg 16 t1 ila_1___slot_2___axi_interconnect_0_M00_AXI___Read_Transactions_0 [15:0] $end
$var reg 16 &2 ila_1___slot_3___aes_0_m00_axi___Read_Transactions_0 [15:0] $end
$var reg 1 62 _TRIGGER $end
$var reg 1 72 _WINDOW $end
$var reg 1 82 _GAP $end
$upscope $end
$enddefinitions $end
#0
$dumpvars
0"
0#
1$
1%
b10 &
b11110001 (
1l#
0m#
0n#
0o#
0p#
1q#
b11110001 r#
1X&
b0 Y&
b0 {'
0?)
b0 @)
b0 b*
1d*
b1 e*
b1 i*
0m*
0n*
1o*
b0 p*
b11111111111111111111111110011011 2+
0R+
1S+
1T+
0U+
b0 V+
b0 X+
b0 x+
b11 z+
b0 ~+
b0 (,
b0 +,
b0 .,
b0 2,
b0 4,
b1 T,
b11 V,
b0 Z,
b0 b,
b10 e,
b0 h,
b0 j,
b0 l,
b0 .-
b0 0-
b0 P-
0R-
0S-
0T-
b0 U-
0X-
0Y-
0Z-
b0 [-
0]-
b10 ^-
0`-
1a-
b0 b-
0e-
0f-
0g-
b0 h-
b0 j-
b0 ,.
b0 /.
b0 1.
b0 Q.
b0 T.
b0 V.
b0 X.
b0 x.
b0 z.
0</
b0 =/
0?/
0@/
b0 A/
0C/
b0 D/
0F/
0G/
b0 H/
0J/
0K/
0L/
b10 M/
1O/
b0 P/
b0 R/
b0 r/
b0 u/
b0 w/
b0 90
b0 <0
b0 >0
b0 @0
b0 B0
b0 b0
b0 d0
b0 &1
b10 *1
0,1
1-1
b0 .1
001
011
021
b0 31
051
061
b10 71
191
b0 :1
0<1
0=1
b0 >1
b0 A1
b0 D1
b11 G1
b11 J1
b11 M1
b11 P1
b11 S1
b11 V1
b0 Y1
b0 \1
b0 _1
b0 b1
b0 e1
b0 h1
b100 k1
b100 n1
b100 q1
b0 t1
b0 &2
062
172
082
$end
#128
1#
162
#148
b1011100110011000100000 X+
b1 x+
b1110111 ~+
b10 +,
b11 ^-
1`-
b10 >1
b1 Y1
#149
b1 V+
b0 X+
b0 x+
b0 ~+
b0 +,
b1 j,
b10 ^-
0`-
b10 b-
1f-
b1011100110011000100000 j-
b0 >1
b0 Y1
#150
b1 H/
1J/
b10 A1
b1 \1
#151
b11 H/
1K/
#152
b1 h-
b1011100110011000100100 j-
b1 V.
b1 H/
0K/
b0 A1
b0 \1
#153
b1011100110100000000000 X+
b1 x+
b11111111 ~+
b10 +,
b11 ^-
1`-
b10 >1
b1 Y1
#154
b10 V+
b0 X+
b0 x+
b0 ~+
b0 +,
b10 j,
b0 ^-
0`-
0a-
b0 >1
b0 Y1
#155
b1011100110011000100000 R/
161
b11 71
b10 D1
b1 _1
#156
b11 H/
1K/
b1 P/
b1 @0
061
b10 71
b10 A1
b0 D1
b1 \1
b0 _1
#157
b10 h-
b1011100110011000101000 j-
b10 V.
b1 H/
0K/
b0 A1
b0 \1
#158
b1011100110110000000000 X+
b1 x+
b11111111 ~+
b10 +,
b1 ^-
1`-
b11 H/
1K/
b1011100110011000100100 R/
161
b11 71
b10 A1
b10 D1
b1 \1
b1 _1
b1 t1
#159
b11 h-
b1011100110011000101100 j-
b11 V.
b1 H/
0K/
b10 P/
b10 @0
061
b10 71
b0 A1
b0 D1
b0 \1
b0 _1
#160
b11 H/
1K/
b10 A1
b1 \1
#161
b0 h-
b1011100110011000110000 j-
b0 V.
b1 H/
0K/
b1011100110011000101000 R/
161
b11 71
b0 A1
b10 D1
b0 \1
b1 _1
b1 &2
#162
b11 H/
1K/
b11 P/
b11 @0
061
b10 71
b10 A1
b0 D1
b1 \1
b0 _1
#163
b1 h-
b1011100110011000110100 j-
b1 V.
b1 H/
0K/
b0 A1
b0 \1
#164
b1011100110011000101100 R/
161
b11 71
b10 D1
b1 _1
#165
b0 P/
b0 @0
061
b10 71
b0 D1
b0 _1
#167
b11 H/
1K/
b1011100110011000110000 R/
161
b11 71
b10 A1
b10 D1
b1 \1
b1 _1
#168
b10 h-
b1011100110011000111000 j-
b10 V.
b1 H/
0K/
b1 P/
b1 @0
061
b10 71
b0 A1
b0 D1
b0 \1
b0 _1
#169
b11 H/
1K/
b10 A1
b1 \1
#170
b11 h-
b1011100110011000111100 j-
b11 V.
b1 H/
0K/
b1011100110011000110100 R/
161
b11 71
b0 A1
b10 D1
b0 \1
b1 _1
#171
b11 H/
1K/
b10 P/
b10 @0
061
b10 71
b10 A1
b0 D1
b1 \1
b0 _1
#172
b0 h-
b1011100110011001000000 j-
b0 V.
b1 H/
0K/
b0 A1
b0 \1
#173
b11 H/
1K/
b1011100110011000111000 R/
161
b11 71
b10 A1
b10 D1
b1 \1
b1 _1
#174
b1 h-
b1011100110011001000100 j-
b1 V.
b1 H/
0K/
b11 P/
b11 @0
061
b10 71
b0 A1
b0 D1
b0 \1
b0 _1
#176
b1011100110011000111100 R/
161
b11 71
b10 D1
b1 _1
#177
b0 P/
b0 @0
061
b10 71
b0 D1
b0 _1
#178
b11 H/
1K/
b10 A1
b1 \1
#179
b10 h-
b1011100110011001001000 j-
b10 V.
b1 H/
0K/
b1011100110011001000000 R/
161
b11 71
b0 A1
b10 D1
b0 \1
b1 _1
#180
b11 H/
1K/
b1 P/
b1 @0
061
b10 71
b10 A1
b0 D1
b1 \1
b0 _1
#181
b11 h-
b1011100110011001001100 j-
b11 V.
b1 H/
0K/
b0 A1
b0 \1
#182
b11 H/
1K/
b1011100110011001000100 R/
161
b11 71
b10 A1
b10 D1
b1 \1
b1 _1
#183
b0 h-
b1011100110011001010000 j-
b0 V.
b1 H/
0K/
b10 P/
b10 @0
061
b10 71
b0 A1
b0 D1
b0 \1
b0 _1
#184
b11 H/
1K/
b10 A1
b1 \1
#185
b1 h-
b1011100110011001010100 j-
b1 V.
b1 H/
0K/
b1011100110011001001000 R/
161
b11 71
b0 A1
b10 D1
b0 \1
b1 _1
#186
b11 P/
b11 @0
061
b10 71
b0 D1
b0 _1
#188
b1011100110011001001100 R/
161
b11 71
b10 D1
b1 _1
#189
b11 H/
1K/
b0 P/
b0 @0
061
b10 71
b10 A1
b0 D1
b1 \1
b0 _1
#190
b10 h-
b1011100110011001011000 j-
b10 V.
b1 H/
0K/
b0 A1
b0 \1
#191
b11 H/
1K/
b1011100110011001010000 R/
161
b11 71
b10 A1
b10 D1
b1 \1
b1 _1
#192
b11 h-
b1011100110011001011100 j-
b11 V.
b1 H/
0K/
b1 P/
b1 @0
061
b10 71
b0 A1
b0 D1
b0 \1
b0 _1
#193
b11 H/
1K/
b10 A1
b1 \1
#194
b0 h-
b1011100110011001100000 j-
b0 V.
b1 H/
0K/
b1011100110011001010100 R/
161
b11 71
b0 A1
b10 D1
b0 \1
b1 _1
#195
b11 H/
1K/
b10 P/
b10 @0
061
b10 71
b10 A1
b0 D1
b1 \1
b0 _1
#196
b1 h-
b1011100110011001100100 j-
b1 V.
b1 H/
0K/
b11001000111100000100100111100100 B0
b1 :1
1<1
b0 A1
b0 \1
#197
b1011100110011001011000 R/
161
b11 71
b11 :1
1=1
b10 D1
b1 _1
b111 h1
#198
b1101100110011111100010111100101 B0
061
b10 71
b1 :1
0=1
b0 D1
b0 _1
b0 h1
#200
b11 H/
1K/
b1011100110011001011100 R/
161
b11 71
b11 :1
1=1
b10 A1
b10 D1
b1 \1
b1 _1
b111 h1
#201
b10 h-
b1011100110011001101000 j-
b10 V.
b1 H/
0K/
b1101110011101010110111001010010 B0
061
b10 71
b1 :1
0=1
b0 A1
b0 D1
b0 \1
b0 _1
b0 h1
#202
b11 H/
1K/
b10 A1
b1 \1
#203
b11 h-
b1011100110011001101100 j-
b11 V.
b1 H/
0K/
b1011100110011001100000 R/
161
b11 71
b11 :1
1=1
b0 A1
b10 D1
b0 \1
b1 _1
b111 h1
#204
b11 H/
1K/
b10011010010011000001100000101001 B0
061
b10 71
b1 :1
0=1
b10 A1
b0 D1
b1 \1
b0 _1
b0 h1
#205
b0 h-
b1011100110011001110000 j-
b0 V.
b1 H/
0K/
b0 A1
b0 \1
#206
b11 H/
1K/
b1011100110011001100100 R/
161
b11 71
b11 :1
1=1
b10 A1
b10 D1
b1 \1
b1 _1
b111 h1
#207
b1 h-
b1011100110011001110100 j-
b1 V.
b1 H/
0K/
b11001000111100000100100111100100 B0
061
b10 71
b1 :1
0=1
b0 A1
b0 D1
b0 \1
b0 _1
b0 h1
#209
b1011100110011001101000 R/
161
b11 71
b10 D1
b1 _1
#210
b11 P/
b11 @0
061
b10 71
b11 :1
1=1
b0 D1
b111 h1
#211
1o#
b11100100010010011111000011001000111001011100010111001111011011000101001001101110011101010110111000101001000110000100110010011010 Y&
b11 H/
1K/
b10 P/
b10 @0
b1101100110011111100010111100101 B0
b1 :1
0=1
b10 A1
b1 \1
b0 _1
b0 h1
#212
0o#
0q#
b10 h-
b1011100110011001111000 j-
b10 V.
b1 H/
0K/
b1011100110011001101100 R/
161
b11 71
b0 A1
b10 D1
b0 \1
b1 _1
#213
b11 H/
1K/
b11 P/
b11 @0
061
b10 71
b11 :1
1=1
b10 A1
b0 D1
b1 \1
b111 h1
#214
b11 h-
b1011100110011001111100 j-
b11 V.
b1 H/
0K/
b10 P/
b10 @0
b1101110011101010110111001010010 B0
b1 :1
0=1
b0 A1
b0 \1
b0 _1
b0 h1
#215
b11 H/
1K/
b1011100110011001110000 R/
161
b11 71
b10 A1
b10 D1
b1 \1
b1 _1
#216
b0 h-
b1011100110011010000000 j-
b0 V.
b1 H/
0K/
b11 P/
b11 @0
061
b10 71
b11 :1
1=1
b0 A1
b0 D1
b0 \1
b111 h1
#217
b11 H/
1K/
b10 P/
b10 @0
b10011010010011000001100000101001 B0
b1 :1
0=1
b10 A1
b1 \1
b0 _1
b0 h1
#218
b1 h-
b1011100110011010000100 j-
b1 V.
b1 H/
0K/
b1011100110011001110100 R/
161
b11 71
b0 A1
b10 D1
b0 \1
b1 _1
#219
b11 P/
b11 @0
061
b10 71
b11 :1
1=1
b0 D1
b111 h1
#220
b10 P/
b10 @0
b11001000111100000100100111100100 B0
b1 :1
0=1
b0 _1
b0 h1
#221
b1011100110011001111000 R/
161
b11 71
b10 D1
b1 _1
#222
b11 H/
1K/
b11 P/
b11 @0
061
b10 71
b10 A1
b0 D1
b1 \1
b0 _1
#223
b10 h-
b1011100110011010001000 j-
b10 V.
b1 H/
0K/
b11 :1
1=1
b0 A1
b0 \1
b1 _1
b111 h1
#224
b11 H/
1K/
b10 P/
b1011100110011001111100 R/
b10 @0
b1101100110011111100010111100101 B0
161
b11 71
b1 :1
0=1
b10 A1
b10 D1
b1 \1
b0 h1
#225
b11 h-
b1011100110011010001100 j-
b11 V.
b1 H/
0K/
b11 P/
b11 @0
061
b10 71
b0 A1
b0 D1
b0 \1
b0 _1
#226
b11 H/
1K/
b11 :1
1=1
b10 A1
b1 \1
b1 _1
b111 h1
#227
b0 h-
b1011100110011010010000 j-
b0 V.
b0 H/
0J/
0K/
b10 P/
b1011100110011010000000 R/
b10 @0
b1101110011101010110111001010010 B0
161
b11 71
b1 :1
0=1
b0 A1
b10 D1
b0 \1
b0 h1
#228
b11 P/
b11 @0
061
b10 71
b0 D1
b0 _1
#229
b11 :1
1=1
b1 _1
b111 h1
#230
1q#
b10 P/
b1011100110011010000100 R/
b10 @0
b10011010010011000001100000101001 B0
161
b11 71
b1 :1
0=1
b10 D1
b0 h1
#231
1p#
b11 P/
b11 @0
061
b10 71
b0 D1
b0 _1
#232
0p#
0q#
b11 :1
1=1
b1 _1
b111 h1
#233
b1010001100110011110000100000110011111110010100101100101100101000110011111000011011011010010000011111111110110000101000100110101 {'
b10 P/
b1011100110011010001000 R/
b10 @0
b11001000111100000100100111100100 B0
161
b11 71
b1 :1
0=1
b10 D1
b0 h1
#234
b1110000111110011110000010100101011111110010100101100101100101000110011111000011011011010010000011111111110110000101000100110101 {'
b11 P/
b11 @0
061
b10 71
b0 D1
b0 _1
#235
b1110000111110011110000010100101011010110100110010111100111001110110011111000011011011010010000011111111110110000101000100110101 {'
#236
b1110000111110011110000010100101011010110100110010111100111001110000101000110011101100110101010011111111110110000101000100110101 {'
b1011100110011010001100 R/
161
b11 71
b11 :1
1=1
b10 D1
b1 _1
b111 h1
#237
b1110000111110011110000010100101011010110100110010111100111001110000101000110011101100110101010001111101001011010111000011011001 {'
b1101100110011111100010111100101 B0
061
b10 71
b1 :1
0=1
b0 D1
b0 _1
b0 h1
#238
b1010100101001001000110101010111010101101111010011100111011000110101001001100101011001001111110000010101010110101011110110010 {'
#239
b10100011111001111010110001100010111010101101111010011100111011000110101001001100101011001001111110000010101010110101011110110010 {'
b11 :1
1=1
b1 _1
b111 h1
#240
b10100011111001111010110001100010101110111001110000011100100000110110101001001100101011001001111110000010101010110101011110110010 {'
b10 P/
b10 @0
b1101110011101010110111001010010 B0
b1 :1
0=1
b0 _1
b0 h1
#241
b10100011111001111010110001100010101110111001110000011100100000110101100001011101101010100110111010000010101010110101011110110010 {'
#242
b10100011111001111010110001100010101110111001110000011100100000110101100001011101101010100110111000010001000011101101101000111110 {'
b11 :1
1=1
b1 _1
b111 h1
#243
b11010010100110100000100111111010001100101000001000101111111100101101011011011110101010110110001000000101011010010111001110111010 {'
b1 P/
b1 @0
b10011010010011000001100000101001 B0
b1 :1
0=1
b0 _1
b0 h1
#244
b1111111001101110100000000010100001100101000001000101111111100101101011011011110101010110110001000000101011010010111001110111010 {'
#245
b1111111001101110100000000010100101000010001000101001110000001001101011011011110101010110110001000000101011010010111001110111010 {'
b11 :1
1=1
b1 _1
b111 h1
#246
b1111111001101110100000000010100101000010001000101001110000001000100101010011100000011101010101100000101011010010111001110111010 {'
b0 P/
b0 @0
b11001000111100000100100111100100 B0
b0 :1
0<1
0=1
b0 _1
b0 h1
#247
b1111111001101110100000000010100101000010001000101001110000001000100101010011100000011101010101100110110111001001000111111000000 {'
#248
b11001110010001010101111000110100110111000110001101101010111110101000101111001000111111001101000111101101000110011111101110110011 {'
#249
b11101100011010001001110100101000110111000110001101101010111110101000101111001000111111001101000111101101000110011111101110110011 {'
#250
b11101100011010001001110100101000100100110000000001011000000101001000101111001000111111001101000111101101000110011111101110110011 {'
#251
b11101100011010001001110100101000100100110000000001011000000101001100111010110001010101010101000111101101000110011111101110110011 {'
#252
b11101100011010001001110100101000100100110000000001011000000101001100111010110001010101010101000101010011100011100110001101001011 {'
#253
b11010110011100010010000010000011110000111110111111101100100000100111010011010000000010110101000110010101111101010101100100000100 {'
#254
b1001010001011000101010001000001110000111110111111101100100000100111010011010000000010110101000110010101111101010101100100000100 {'
#255
b1001010001011000101010001000001001100110110000110000011000100010111010011010000000010110101000110010101111101010101100100000100 {'
#256
b1001010001011000101010001000001001100110110000110000011000100011100101001100000100111100111000010010101111101010101100100000100 {'
#257
b1001010001011000101010001000001001100110110000110000011000100011100101001100000100111100111000010101101011101110001010100110000 {'
#258
b11100100101011000101011101001011001001100001011010110011110000011101101101101101011111001010110110000110011011010001111111100100 {'
#259
b10101110101010101101101011001100001001100001011010110011110000011101101101101101011111001010110110000110011011010001111111100100 {'
#260
b10101110101010101101101011001100001000111111111101001011110111011101101101101101011111001010110110000110011011010001111111100100 {'
#261
b10101110101010101101101011001100001000111111111101001011110111011001111110110011000000010001100010000110011011010001111111100100 {'
#262
b10101110101010101101101011001100001000111111111101001011110111011001111110110011000000010001100011011100101100111100101110101110 {'
#263
b11000000110000101011011100110111010100101110001010101101011010111000111010101010101110001011111000101111001010011001010011100000 {'
#264
b11111101010000010000010110010010100101110001010101101011010111000111010101010101110001011111000101111001010011001010011100000 {'
#265
b11111101010000010000010110010010010000011101100011000000001011000111010101010101110001011111000101111001010011001010011100000 {'
#266
b11111101010000010000010110010010010000011101100011000000001011110011001100010100110100101101000101111001010011001010011100000 {'
#267
b11111101010000010000010110010010010000011101100011000000001011110011001100010100110100101101001001110010011001110011110100000 {'
#268
b1110000011000010110000011010001110001111111000111001011000110001101011010000111111101001001000011010000010100010011100101110011 {'
#269
b11010000110110001001000001010001110001111111000111001011000110001101011010000111111101001001000011010000010100010011100101110011 {'
#270
b11010000110110001001000001010001001100010010101101011001001101001101011010000111111101001001000011010000010100010011100101110011 {'
#271
b11010000110110001001000001010001001100010010101101011001001101000100101011101010101110101001011011010000010100010011100101110011 {'
#272
b11010000110110001001000001010001001100010010101101011001001101000100101011101010101110101001011001100000011100000101101110001111 {'
#273
b100000111111011110011100000001101101000011101011100100011011011100001111010011001001000010110111000010110101010001010110010 {'
#274
b110000110010110111100010100000001101101000011101011100100011011011100001111010011001001000010110111000010110101010001010110010 {'
#275
b110000110010110111100010100000001001001110101010100111101101001011100001111010011001001000010110111000010110101010001010110010 {'
#276
b110000110010110111100010100000001001001110101010100111101101001001101010111101100011000110011110111000010110101010001010110010 {'
#277
b110000110010110111100010100000001001001110101010100111101101001001101010111101100011000110011110011010010001100001101000111110 {'
b1000011111100010011110001111011 B0
b1 :1
1<1
#278
b1011101101100000100010011111000000001110111101010101110001000111110000101100001011000110100110110111111001101111010011000011010 {'
b11 :1
1=1
b1 _1
b111 h1
#279
b10001101111111001000011011100001000001110111101010101110001000111110000101100001011000110100110110111111001101111010011000011010 {'
b11 P/
b11 @0
b1110110101101000100010111100100 B0
b1 :1
0=1
b0 _1
b0 h1
