.Xil/Vivado-263165-luiscarlos-GL552VX/hw_ila_data_1/zip_work/waveform.vcd
$date
        2023-Jun-12 10:20:50
$end
$version
        Vivado v2021.2 (64-bit)
$end
$timescale
        1ps
$end
$scope module dut $end
$var reg 1 " design_1_i/system_ila_0/inst/probe0_1 $end
$var reg 1 # design_1_i/system_ila_0/inst/probe1_1 $end
$var reg 1 $ design_1_i/system_ila_0/inst/probe2_1 $end
$var reg 1 % design_1_i/system_ila_0/inst/probe3_1 $end
$var reg 1 & design_1_i/system_ila_0/inst/probe4_1 $end
$var reg 1 ' design_1_i/system_ila_0/inst/probe5_1 $end
$var reg 1 ( design_1_i/system_ila_0/inst/probe6_1 $end
$var reg 1 ) design_1_i/system_ila_0/inst/probe7_1 $end
$var reg 1 * design_1_i/system_ila_0/inst/probe8_1 $end
$var reg 1 + design_1_i/system_ila_0/inst/probe9_1 $end
$var reg 1 , design_1_i/system_ila_0/inst/probe10_1 $end
$var reg 1 - design_1_i/system_ila_0/inst/probe11_1 $end
$var reg 1 . design_1_i/system_ila_0/inst/SLOT_0_ICAP_csib_1 $end
$var reg 32 / design_1_i/system_ila_0/inst/SLOT_0_ICAP_i_1 [31:0] $end
$var reg 32 O design_1_i/system_ila_0/inst/SLOT_0_ICAP_o_1 [31:0] $end
$var reg 1 o design_1_i/system_ila_0/inst/SLOT_0_ICAP_rdwrb_1 $end
$var reg 1 p design_1_i/system_ila_0/inst/SLOT_0_ICAP_avail_1 $end
$var reg 1 q design_1_i/system_ila_0/inst/SLOT_0_ICAP_prdone_1 $end
$var reg 1 r design_1_i/system_ila_0/inst/SLOT_0_ICAP_prerror_1 $end
$var reg 2 s design_1_i/system_ila_0/inst/net_slot_1_axi_ar_cnt [1:0] $end
$var reg 32 u design_1_i/system_ila_0/inst/net_slot_1_axi_araddr [31:0] $end
$var reg 2 7" design_1_i/system_ila_0/inst/net_slot_1_axi_arburst [1:0] $end
$var reg 4 9" design_1_i/system_ila_0/inst/net_slot_1_axi_arcache [3:0] $end
$var reg 8 =" design_1_i/system_ila_0/inst/net_slot_1_axi_arlen [7:0] $end
$var reg 3 E" design_1_i/system_ila_0/inst/net_slot_1_axi_arprot [2:0] $end
$var reg 3 H" design_1_i/system_ila_0/inst/net_slot_1_axi_arsize [2:0] $end
$var reg 4 K" design_1_i/system_ila_0/inst/net_slot_1_axi_aruser [3:0] $end
$var reg 2 O" design_1_i/system_ila_0/inst/net_slot_1_axi_aw_cnt [1:0] $end
$var reg 32 Q" design_1_i/system_ila_0/inst/net_slot_1_axi_awaddr [31:0] $end
$var reg 2 q" design_1_i/system_ila_0/inst/net_slot_1_axi_awburst [1:0] $end
$var reg 4 s" design_1_i/system_ila_0/inst/net_slot_1_axi_awcache [3:0] $end
$var reg 8 w" design_1_i/system_ila_0/inst/net_slot_1_axi_awlen [7:0] $end
$var reg 3 !# design_1_i/system_ila_0/inst/net_slot_1_axi_awprot [2:0] $end
$var reg 3 $# design_1_i/system_ila_0/inst/net_slot_1_axi_awsize [2:0] $end
$var reg 2 '# design_1_i/system_ila_0/inst/net_slot_1_axi_b_cnt [1:0] $end
$var reg 2 )# design_1_i/system_ila_0/inst/net_slot_1_axi_r_cnt [1:0] $end
$var reg 32 +# design_1_i/system_ila_0/inst/net_slot_1_axi_rdata [31:0] $end
$var reg 2 K# design_1_i/system_ila_0/inst/net_slot_1_axi_rresp [1:0] $end
$var reg 32 M# design_1_i/system_ila_0/inst/net_slot_1_axi_wdata [31:0] $end
$var reg 1 m# design_1_i/system_ila_0/inst/net_slot_1_axi_awvalid $end
$var reg 2 n# design_1_i/system_ila_0/inst/net_slot_1_axi_aw_ctrl [1:0] $end
$var reg 1 p# design_1_i/system_ila_0/inst/net_slot_1_axi_awready $end
$var reg 1 q# design_1_i/system_ila_0/inst/net_slot_1_axi_wvalid $end
$var reg 3 r# design_1_i/system_ila_0/inst/net_slot_1_axi_w_ctrl [2:0] $end
$var reg 1 u# design_1_i/system_ila_0/inst/net_slot_1_axi_wready $end
$var reg 1 v# design_1_i/system_ila_0/inst/net_slot_1_axi_wlast $end
$var reg 2 w# design_1_i/system_ila_0/inst/net_slot_1_axi_b_ctrl [1:0] $end
$var reg 1 y# design_1_i/system_ila_0/inst/net_slot_1_axi_bvalid $end
$var reg 1 z# design_1_i/system_ila_0/inst/net_slot_1_axi_bready $end
$var reg 2 {# design_1_i/system_ila_0/inst/net_slot_1_axi_ar_ctrl [1:0] $end
$var reg 1 }# design_1_i/system_ila_0/inst/net_slot_1_axi_arvalid $end
$var reg 1 ~# design_1_i/system_ila_0/inst/net_slot_1_axi_arready $end
$var reg 3 !$ design_1_i/system_ila_0/inst/net_slot_1_axi_r_ctrl [2:0] $end
$var reg 1 $$ design_1_i/system_ila_0/inst/net_slot_1_axi_rvalid $end
$var reg 1 %$ design_1_i/system_ila_0/inst/net_slot_1_axi_rready $end
$var reg 1 &$ design_1_i/system_ila_0/inst/net_slot_1_axi_rlast $end
$var reg 2 '$ design_1_i/system_ila_0/inst/net_slot_2_axi_ar_cnt [1:0] $end
$var reg 32 )$ design_1_i/system_ila_0/inst/net_slot_2_axi_araddr [31:0] $end
$var reg 3 I$ design_1_i/system_ila_0/inst/net_slot_2_axi_arprot [2:0] $end
$var reg 2 L$ design_1_i/system_ila_0/inst/net_slot_2_axi_aw_cnt [1:0] $end
$var reg 32 N$ design_1_i/system_ila_0/inst/net_slot_2_axi_awaddr [31:0] $end
$var reg 3 n$ design_1_i/system_ila_0/inst/net_slot_2_axi_awprot [2:0] $end
$var reg 2 q$ design_1_i/system_ila_0/inst/net_slot_2_axi_b_cnt [1:0] $end
$var reg 2 s$ design_1_i/system_ila_0/inst/net_slot_2_axi_r_cnt [1:0] $end
$var reg 32 u$ design_1_i/system_ila_0/inst/net_slot_2_axi_rdata [31:0] $end
$var reg 2 7% design_1_i/system_ila_0/inst/net_slot_2_axi_rresp [1:0] $end
$var reg 32 9% design_1_i/system_ila_0/inst/net_slot_2_axi_wdata [31:0] $end
$var reg 2 Y% design_1_i/system_ila_0/inst/net_slot_2_axi_aw_ctrl [1:0] $end
$var reg 1 [% design_1_i/system_ila_0/inst/net_slot_2_axi_awvalid $end
$var reg 1 \% design_1_i/system_ila_0/inst/net_slot_2_axi_awready $end
$var reg 2 ]% design_1_i/system_ila_0/inst/net_slot_2_axi_w_ctrl [1:0] $end
$var reg 1 _% design_1_i/system_ila_0/inst/net_slot_2_axi_wvalid $end
$var reg 1 `% design_1_i/system_ila_0/inst/net_slot_2_axi_wready $end
$var reg 2 a% design_1_i/system_ila_0/inst/net_slot_2_axi_b_ctrl [1:0] $end
$var reg 1 c% design_1_i/system_ila_0/inst/net_slot_2_axi_bvalid $end
$var reg 1 d% design_1_i/system_ila_0/inst/net_slot_2_axi_bready $end
$var reg 2 e% design_1_i/system_ila_0/inst/net_slot_2_axi_ar_ctrl [1:0] $end
$var reg 1 g% design_1_i/system_ila_0/inst/net_slot_2_axi_arvalid $end
$var reg 1 h% design_1_i/system_ila_0/inst/net_slot_2_axi_arready $end
$var reg 2 i% design_1_i/system_ila_0/inst/net_slot_2_axi_r_ctrl [1:0] $end
$var reg 1 k% design_1_i/system_ila_0/inst/net_slot_2_axi_rvalid $end
$var reg 1 l% design_1_i/system_ila_0/inst/net_slot_2_axi_rready $end
$var reg 2 m% design_1_i/system_ila_0/inst/net_slot_3_axi_ar_cnt [1:0] $end
$var reg 32 o% design_1_i/system_ila_0/inst/net_slot_3_axi_araddr [31:0] $end
$var reg 3 1& design_1_i/system_ila_0/inst/net_slot_3_axi_arprot [2:0] $end
$var reg 2 4& design_1_i/system_ila_0/inst/net_slot_3_axi_aw_cnt [1:0] $end
$var reg 32 6& design_1_i/system_ila_0/inst/net_slot_3_axi_awaddr [31:0] $end
$var reg 3 V& design_1_i/system_ila_0/inst/net_slot_3_axi_awprot [2:0] $end
$var reg 2 Y& design_1_i/system_ila_0/inst/net_slot_3_axi_b_cnt [1:0] $end
$var reg 2 [& design_1_i/system_ila_0/inst/net_slot_3_axi_bresp [1:0] $end
$var reg 2 ]& design_1_i/system_ila_0/inst/net_slot_3_axi_r_cnt [1:0] $end
$var reg 32 _& design_1_i/system_ila_0/inst/net_slot_3_axi_rdata [31:0] $end
$var reg 2 !' design_1_i/system_ila_0/inst/net_slot_3_axi_rresp [1:0] $end
$var reg 32 #' design_1_i/system_ila_0/inst/net_slot_3_axi_wdata [31:0] $end
$var reg 4 C' design_1_i/system_ila_0/inst/net_slot_3_axi_wstrb [3:0] $end
$var reg 1 G' design_1_i/system_ila_0/inst/net_slot_3_axi_awvalid $end
$var reg 2 H' design_1_i/system_ila_0/inst/net_slot_3_axi_aw_ctrl [1:0] $end
$var reg 1 J' design_1_i/system_ila_0/inst/net_slot_3_axi_awready $end
$var reg 1 K' design_1_i/system_ila_0/inst/net_slot_3_axi_wvalid $end
$var reg 2 L' design_1_i/system_ila_0/inst/net_slot_3_axi_w_ctrl [1:0] $end
$var reg 1 N' design_1_i/system_ila_0/inst/net_slot_3_axi_wready $end
$var reg 2 O' design_1_i/system_ila_0/inst/net_slot_3_axi_b_ctrl [1:0] $end
$var reg 1 Q' design_1_i/system_ila_0/inst/net_slot_3_axi_bvalid $end
$var reg 1 R' design_1_i/system_ila_0/inst/net_slot_3_axi_bready $end
$var reg 2 S' design_1_i/system_ila_0/inst/net_slot_3_axi_ar_ctrl [1:0] $end
$var reg 1 U' design_1_i/system_ila_0/inst/net_slot_3_axi_arvalid $end
$var reg 1 V' design_1_i/system_ila_0/inst/net_slot_3_axi_arready $end
$var reg 2 W' design_1_i/system_ila_0/inst/net_slot_3_axi_r_ctrl [1:0] $end
$var reg 1 Y' design_1_i/system_ila_0/inst/net_slot_3_axi_rvalid $end
$var reg 1 Z' design_1_i/system_ila_0/inst/net_slot_3_axi_rready $end
$var reg 2 [' design_1_i/system_ila_0/inst/net_slot_4_axi_ar_cnt [1:0] $end
$var reg 32 ]' design_1_i/system_ila_0/inst/net_slot_4_axi_araddr [31:0] $end
$var reg 2 }' design_1_i/system_ila_0/inst/net_slot_4_axi_arburst [1:0] $end
$var reg 4 !( design_1_i/system_ila_0/inst/net_slot_4_axi_arcache [3:0] $end
$var reg 8 %( design_1_i/system_ila_0/inst/net_slot_4_axi_arlen [7:0] $end
$var reg 1 -( design_1_i/system_ila_0/inst/net_slot_4_axi_arlock $end
$var reg 3 .( design_1_i/system_ila_0/inst/net_slot_4_axi_arprot [2:0] $end
$var reg 4 1( design_1_i/system_ila_0/inst/net_slot_4_axi_arqos [3:0] $end
$var reg 4 5( design_1_i/system_ila_0/inst/net_slot_4_axi_arregion [3:0] $end
$var reg 3 9( design_1_i/system_ila_0/inst/net_slot_4_axi_arsize [2:0] $end
$var reg 2 <( design_1_i/system_ila_0/inst/net_slot_4_axi_aw_cnt [1:0] $end
$var reg 32 >( design_1_i/system_ila_0/inst/net_slot_4_axi_awaddr [31:0] $end
$var reg 2 ^( design_1_i/system_ila_0/inst/net_slot_4_axi_awburst [1:0] $end
$var reg 4 `( design_1_i/system_ila_0/inst/net_slot_4_axi_awcache [3:0] $end
$var reg 8 d( design_1_i/system_ila_0/inst/net_slot_4_axi_awlen [7:0] $end
$var reg 1 l( design_1_i/system_ila_0/inst/net_slot_4_axi_awlock $end
$var reg 3 m( design_1_i/system_ila_0/inst/net_slot_4_axi_awprot [2:0] $end
$var reg 4 p( design_1_i/system_ila_0/inst/net_slot_4_axi_awqos [3:0] $end
$var reg 4 t( design_1_i/system_ila_0/inst/net_slot_4_axi_awregion [3:0] $end
$var reg 3 x( design_1_i/system_ila_0/inst/net_slot_4_axi_awsize [2:0] $end
$var reg 2 {( design_1_i/system_ila_0/inst/net_slot_4_axi_b_cnt [1:0] $end
$var reg 2 }( design_1_i/system_ila_0/inst/net_slot_4_axi_bresp [1:0] $end
$var reg 2 !) design_1_i/system_ila_0/inst/net_slot_4_axi_r_cnt [1:0] $end
$var reg 32 #) design_1_i/system_ila_0/inst/net_slot_4_axi_rdata [31:0] $end
$var reg 2 C) design_1_i/system_ila_0/inst/net_slot_4_axi_rresp [1:0] $end
$var reg 32 E) design_1_i/system_ila_0/inst/net_slot_4_axi_wdata [31:0] $end
$var reg 4 e) design_1_i/system_ila_0/inst/net_slot_4_axi_wstrb [3:0] $end
$var reg 2 i) design_1_i/system_ila_0/inst/net_slot_4_axi_aw_ctrl [1:0] $end
$var reg 3 k) design_1_i/system_ila_0/inst/net_slot_4_axi_w_ctrl [2:0] $end
$var reg 2 n) design_1_i/system_ila_0/inst/net_slot_4_axi_b_ctrl [1:0] $end
$var reg 2 p) design_1_i/system_ila_0/inst/net_slot_4_axi_ar_ctrl [1:0] $end
$var reg 3 r) design_1_i/system_ila_0/inst/net_slot_4_axi_r_ctrl [2:0] $end
$var reg 3 u) AR_Channel__i1_s1___dfx_controller_0_M_AXI_MEM_ [2:0] $end
$var reg 3 x) AR_Channel__i1_s2___axi_interconnect_0_M00_AXI_ [2:0] $end
$var reg 3 {) AR_Channel__i1_s3___axi_mm2s_mapper_0_M_AXI_ [2:0] $end
$var reg 3 ~) AW_Channel__i1_s1___dfx_controller_0_M_AXI_MEM_ [2:0] $end
$var reg 3 #* AW_Channel__i1_s2___axi_interconnect_0_M00_AXI_ [2:0] $end
$var reg 3 &* AW_Channel__i1_s3___axi_mm2s_mapper_0_M_AXI_ [2:0] $end
$var reg 3 )* B_Channel__i1_s1___dfx_controller_0_M_AXI_MEM_ [2:0] $end
$var reg 3 ,* B_Channel__i1_s2___axi_interconnect_0_M00_AXI_ [2:0] $end
$var reg 3 /* B_Channel__i1_s3___axi_mm2s_mapper_0_M_AXI_ [2:0] $end
$var reg 3 2* Interface__i1_s1___dfx_controller_0_M_AXI_MEM_ [2:0] $end
$var reg 3 5* Interface__i1_s2___axi_interconnect_0_M00_AXI_ [2:0] $end
$var reg 3 8* Interface__i1_s3___axi_mm2s_mapper_0_M_AXI_ [2:0] $end
$var reg 3 ;* R_Channel__i1_s1___dfx_controller_0_M_AXI_MEM_ [2:0] $end
$var reg 3 >* R_Channel__i1_s2___axi_interconnect_0_M00_AXI_ [2:0] $end
$var reg 3 A* R_Channel__i1_s3___axi_mm2s_mapper_0_M_AXI_ [2:0] $end
$var reg 3 D* W_Channel__i1_s1___dfx_controller_0_M_AXI_MEM_ [2:0] $end
$var reg 3 G* W_Channel__i1_s2___axi_interconnect_0_M00_AXI_ [2:0] $end
$var reg 3 J* W_Channel__i1_s3___axi_mm2s_mapper_0_M_AXI_ [2:0] $end
$var reg 16 M* ila_1___slot_1___dfx_controller_0_M_AXI_MEM___Read_Transactions_0 [15:0] $end
$var reg 16 ]* ila_1___slot_2___axi_interconnect_0_M00_AXI___Read_Transactions_0 [15:0] $end
$var reg 16 m* ila_1___slot_3___axi_mm2s_mapper_0_M_AXI___Read_Transactions_0 [15:0] $end
$var reg 1 }* _TRIGGER $end
$var reg 1 ~* _WINDOW $end
$var reg 1 !+ _GAP $end
$upscope $end
$enddefinitions $end
#0
$dumpvars
0"
0#
1$
0%
0&
0'
0(
0)
0*
0+
0,
0-
1.
b0 /
b11111111111111111111111110011011 O
0o
1p
1q
0r
b0 s
b0 u
b0 7"
b11 9"
b0 ="
b0 E"
b0 H"
b0 K"
b0 O"
b0 Q"
b1 q"
b11 s"
b0 w"
b0 !#
b10 $#
b0 '#
b0 )#
b0 +#
b0 K#
b0 M#
0m#
b0 n#
0p#
0q#
b0 r#
0u#
0v#
b0 w#
0y#
0z#
b10 {#
0}#
1~#
b0 !$
0$$
0%$
0&$
b0 '$
b0 )$
b0 I$
b0 L$
b0 N$
b0 n$
b0 q$
b0 s$
b0 u$
b0 7%
b0 9%
b0 Y%
0[%
0\%
b0 ]%
0_%
0`%
b0 a%
0c%
0d%
b0 e%
0g%
0h%
b10 i%
0k%
1l%
b0 m%
b0 o%
b0 1&
b0 4&
b0 6&
b0 V&
b0 Y&
b0 [&
b0 ]&
b0 _&
b0 !'
b0 #'
b0 C'
0G'
b10 H'
1J'
0K'
b0 L'
0N'
b0 O'
0Q'
0R'
b10 S'
0U'
1V'
b0 W'
0Y'
0Z'
b0 ['
b0 ]'
b1 }'
b11 !(
b0 %(
0-(
b0 .(
b0 1(
b0 5(
b10 9(
b0 <(
b0 >(
b1 ^(
b11 `(
b0 d(
0l(
b0 m(
b0 p(
b0 t(
b10 x(
b0 {(
b0 }(
b0 !)
b0 #)
b0 C)
b0 E)
b1111 e)
b0 i)
b0 k)
b0 n)
b0 p)
b0 r)
b0 u)
b0 x)
b0 {)
b11 ~)
b11 #*
b11 &*
b11 )*
b11 ,*
b11 /*
b0 2*
b0 5*
b0 8*
b0 ;*
b0 >*
b0 A*
b100 D*
b100 G*
b100 J*
b0 M*
b0 ]*
b0 m*
0}*
1~*
0!+
$end
#128
1#
1}*
#147
b1011100110011000100000 u
b1 7"
b1110111 ="
b10 H"
b11 {#
1}#
b10 u)
b1 2*
#148
b1 s
b0 u
b0 7"
b0 ="
b0 H"
b1 )#
b10 {#
0}#
b10 !$
1%$
b1011100110011000100000 )$
b0 u)
b0 2*
#149
b1 e%
1g%
b10 x)
b1 5*
#150
b11 e%
1h%
#151
b1 '$
b1011100110011000100100 )$
b1 s$
b1 e%
0h%
b0 x)
b0 5*
#152
b1011100110100000000000 u
b1 7"
b11111111 ="
b10 H"
b11 {#
1}#
b10 u)
b1 2*
#153
b10 s
b0 u
b0 7"
b0 ="
b0 H"
b10 )#
b0 {#
0}#
0~#
b0 u)
b0 2*
#154
b1011100110011000100000 o%
b11 S'
1U'
b10 {)
b1 8*
#155
b11 e%
1h%
b1 m%
b1 ]&
b10 S'
0U'
b10 x)
b0 {)
b1 5*
b0 8*
#156
b10 '$
b1011100110011000101000 )$
b10 s$
b1 e%
0h%
b0 x)
b0 5*
#157
b1011100110110000000000 u
b1 7"
b11111111 ="
b10 H"
b1 {#
1}#
b11 e%
1h%
b1011100110011000100100 o%
b11 S'
1U'
b10 u)
b10 x)
b10 {)
b1 2*
b1 5*
b1 8*
b1 ]*
#158
b11 '$
b1011100110011000101100 )$
b11 s$
b1 e%
0h%
b10 m%
b10 ]&
b10 S'
0U'
b0 x)
b0 {)
b0 5*
b0 8*
#159
b11 e%
1h%
b10 x)
b1 5*
#160
b0 '$
b1011100110011000110000 )$
b0 s$
b1 e%
0h%
b1011100110011000101000 o%
b11 S'
1U'
b0 x)
b10 {)
b0 5*
b1 8*
b1 m*
#161
b11 e%
1h%
b11 m%
b11 ]&
b10 S'
0U'
b10 x)
b0 {)
b1 5*
b0 8*
#162
b1 '$
b1011100110011000110100 )$
b1 s$
b1 e%
0h%
b0 x)
b0 5*
#163
b1011100110011000101100 o%
b11 S'
1U'
b10 {)
b1 8*
#164
b0 m%
b0 ]&
b10 S'
0U'
b0 {)
b0 8*
#166
b11 e%
1h%
b1011100110011000110000 o%
b11 S'
1U'
b10 x)
b10 {)
b1 5*
b1 8*
#167
b10 '$
b1011100110011000111000 )$
b10 s$
b1 e%
0h%
b1 m%
b1 ]&
b10 S'
0U'
b0 x)
b0 {)
b0 5*
b0 8*
#168
b11 e%
1h%
b10 x)
b1 5*
#169
b11 '$
b1011100110011000111100 )$
b11 s$
b1 e%
0h%
b1011100110011000110100 o%
b11 S'
1U'
b0 x)
b10 {)
b0 5*
b1 8*
#170
b11 e%
1h%
b10 m%
b10 ]&
b10 S'
0U'
b10 x)
b0 {)
b1 5*
b0 8*
#171
b0 '$
b1011100110011001000000 )$
b0 s$
b1 e%
0h%
b0 x)
b0 5*
#172
b11 e%
1h%
b1011100110011000111000 o%
b11 S'
1U'
b10 x)
b10 {)
b1 5*
b1 8*
#173
b1 '$
b1011100110011001000100 )$
b1 s$
b1 e%
0h%
b11 m%
b11 ]&
b10 S'
0U'
b0 x)
b0 {)
b0 5*
b0 8*
#175
b1011100110011000111100 o%
b11 S'
1U'
b10 {)
b1 8*
#176
b0 m%
b0 ]&
b10 S'
0U'
b0 {)
b0 8*
#177
b11 e%
1h%
b10 x)
b1 5*
#178
b10 '$
b1011100110011001001000 )$
b10 s$
b1 e%
0h%
b1011100110011001000000 o%
b11 S'
1U'
b0 x)
b10 {)
b0 5*
b1 8*
#179
b11 e%
1h%
b1 m%
b1 ]&
b10 S'
0U'
b10 x)
b0 {)
b1 5*
b0 8*
#180
b11 '$
b1011100110011001001100 )$
b11 s$
b1 e%
0h%
b0 x)
b0 5*
#181
b11 e%
1h%
b1011100110011001000100 o%
b11 S'
1U'
b10 x)
b10 {)
b1 5*
b1 8*
#182
b0 '$
b1011100110011001010000 )$
b0 s$
b1 e%
0h%
b10 m%
b10 ]&
b10 S'
0U'
b0 x)
b0 {)
b0 5*
b0 8*
#183
b11 e%
1h%
b10 x)
b1 5*
#184
b1 '$
b1011100110011001010100 )$
b1 s$
b1 e%
0h%
b1011100110011001001000 o%
b11 S'
1U'
b0 x)
b10 {)
b0 5*
b1 8*
#185
b11 m%
b11 ]&
b10 S'
0U'
b0 {)
b0 8*
#187
b1011100110011001001100 o%
b11 S'
1U'
b10 {)
b1 8*
#188
b11 e%
1h%
b0 m%
b0 ]&
b10 S'
0U'
b10 x)
b0 {)
b1 5*
b0 8*
#189
b10 '$
b1011100110011001011000 )$
b10 s$
b1 e%
0h%
b0 x)
b0 5*
#190
b11 e%
1h%
b1011100110011001010000 o%
b11 S'
1U'
b10 x)
b10 {)
b1 5*
b1 8*
#191
b11 '$
b1011100110011001011100 )$
b11 s$
b1 e%
0h%
b1 m%
b1 ]&
b10 S'
0U'
b0 x)
b0 {)
b0 5*
b0 8*
#192
b11 e%
1h%
b10 x)
b1 5*
#193
b0 '$
b1011100110011001100000 )$
b0 s$
b1 e%
0h%
b1011100110011001010100 o%
b11 S'
1U'
b0 x)
b10 {)
b0 5*
b1 8*
#194
b11 e%
1h%
b10 m%
b10 ]&
b10 S'
0U'
b10 x)
b0 {)
b1 5*
b0 8*
#195
b1 '$
b1011100110011001100100 )$
b1 s$
b1 e%
0h%
b11001000111100000100100111100100 _&
b1 W'
1Y'
b0 x)
b0 5*
#196
b1011100110011001011000 o%
b11 S'
1U'
b11 W'
1Z'
b10 {)
b1 8*
b111 A*
#197
b1101100110011111100010111100101 _&
b10 S'
0U'
b1 W'
0Z'
b0 {)
b0 8*
b0 A*
#199
b11 e%
1h%
b1011100110011001011100 o%
b11 S'
1U'
b11 W'
1Z'
b10 x)
b10 {)
b1 5*
b1 8*
b111 A*
#200
b10 '$
b1011100110011001101000 )$
b10 s$
b1 e%
0h%
b1101110011101010110111001010010 _&
b10 S'
0U'
b1 W'
0Z'
b0 x)
b0 {)
b0 5*
b0 8*
b0 A*
#201
b11 e%
1h%
b10 x)
b1 5*
#202
b11 '$
b1011100110011001101100 )$
b11 s$
b1 e%
0h%
b1011100110011001100000 o%
b11 S'
1U'
b11 W'
1Z'
b0 x)
b10 {)
b0 5*
b1 8*
b111 A*
#203
b11 e%
1h%
b10011010010011000001100000101001 _&
b10 S'
0U'
b1 W'
0Z'
b10 x)
b0 {)
b1 5*
b0 8*
b0 A*
#204
b0 '$
b1011100110011001110000 )$
b0 s$
b1 e%
0h%
b0 x)
b0 5*
#205
b11 e%
1h%
b1011100110011001100100 o%
b11 S'
1U'
b11 W'
1Z'
b10 x)
b10 {)
b1 5*
b1 8*
b111 A*
#206
b1 '$
b1011100110011001110100 )$
b1 s$
b1 e%
0h%
b11001000111100000100100111100100 _&
b10 S'
0U'
b1 W'
0Z'
b0 x)
b0 {)
b0 5*
b0 8*
b0 A*
#208
b1011100110011001101000 o%
b11 S'
1U'
b10 {)
b1 8*
#209
b11 m%
b11 ]&
b10 S'
0U'
b11 W'
1Z'
b0 {)
b111 A*
#210
b11 e%
1h%
b10 m%
b10 ]&
b1101100110011111100010111100101 _&
b1 W'
0Z'
b10 x)
b1 5*
b0 8*
b0 A*
#211
b10 '$
b1011100110011001111000 )$
b10 s$
b1 e%
0h%
b1011100110011001101100 o%
b11 S'
1U'
b0 x)
b10 {)
b0 5*
b1 8*
#212
b11 e%
1h%
b11 m%
b11 ]&
b10 S'
0U'
b11 W'
1Z'
b10 x)
b0 {)
b1 5*
b111 A*
#213
b11 '$
b1011100110011001111100 )$
b11 s$
b1 e%
0h%
b10 m%
b10 ]&
b1101110011101010110111001010010 _&
b1 W'
0Z'
b0 x)
b0 5*
b0 8*
b0 A*
#214
b11 e%
1h%
b1011100110011001110000 o%
b11 S'
1U'
b10 x)
b10 {)
b1 5*
b1 8*
#215
b0 '$
b1011100110011010000000 )$
b0 s$
b1 e%
0h%
b11 m%
b11 ]&
b10 S'
0U'
b11 W'
1Z'
b0 x)
b0 {)
b0 5*
b111 A*
#216
b11 e%
1h%
b10 m%
b10 ]&
b10011010010011000001100000101001 _&
b1 W'
0Z'
b10 x)
b1 5*
b0 8*
b0 A*
#217
b1 '$
b1011100110011010000100 )$
b1 s$
b1 e%
0h%
b1011100110011001110100 o%
b11 S'
1U'
b0 x)
b10 {)
b0 5*
b1 8*
#218
b11 m%
b11 ]&
b10 S'
0U'
b11 W'
1Z'
b0 {)
b111 A*
#219
b10 m%
b10 ]&
b11001000111100000100100111100100 _&
b1 W'
0Z'
b0 8*
b0 A*
#220
b1011100110011001111000 o%
b11 S'
1U'
b10 {)
b1 8*
#221
b11 e%
1h%
b11 m%
b11 ]&
b10 S'
0U'
b10 x)
b0 {)
b1 5*
b0 8*
#222
b10 '$
b1011100110011010001000 )$
b10 s$
b1 e%
0h%
b11 W'
1Z'
b0 x)
b0 5*
b1 8*
b111 A*
#223
b11 e%
1h%
b10 m%
b1011100110011001111100 o%
b10 ]&
b1101100110011111100010111100101 _&
b11 S'
1U'
b1 W'
0Z'
b10 x)
b10 {)
b1 5*
b0 A*
#224
b11 '$
b1011100110011010001100 )$
b11 s$
b1 e%
0h%
b11 m%
b11 ]&
b10 S'
0U'
b0 x)
b0 {)
b0 5*
b0 8*
#225
b11 e%
1h%
b11 W'
1Z'
b10 x)
b1 5*
b1 8*
b111 A*
#226
b0 '$
b1011100110011010010000 )$
b0 s$
b0 e%
0g%
0h%
b10 m%
b1011100110011010000000 o%
b10 ]&
b1101110011101010110111001010010 _&
b11 S'
1U'
b1 W'
0Z'
b0 x)
b10 {)
b0 5*
b0 A*
#227
b11 m%
b11 ]&
b10 S'
0U'
b0 {)
b0 8*
#228
b11 W'
1Z'
b1 8*
b111 A*
#229
b10 m%
b1011100110011010000100 o%
b10 ]&
b10011010010011000001100000101001 _&
b11 S'
1U'
b1 W'
0Z'
b10 {)
b0 A*
#230
b11 m%
b11 ]&
b10 S'
0U'
b0 {)
b0 8*
#231
b11 W'
1Z'
b1 8*
b111 A*
#232
b10 m%
b1011100110011010001000 o%
b10 ]&
b11001000111100000100100111100100 _&
b11 S'
1U'
b1 W'
0Z'
b10 {)
b0 A*
#233
b11 m%
b11 ]&
b10 S'
0U'
b0 {)
b0 8*
#235
b1011100110011010001100 o%
b11 S'
1U'
b11 W'
1Z'
b10 {)
b1 8*
b111 A*
#236
b1101100110011111100010111100101 _&
b10 S'
0U'
b1 W'
0Z'
b0 {)
b0 8*
b0 A*
#238
b11 W'
1Z'
b1 8*
b111 A*
#239
b10 m%
b10 ]&
b11001000111100000100100111100100 _&
b0 W'
0Y'
0Z'
b0 8*
b0 A*
#264
b1101110011101010110111001010010 _&
b1 W'
1Y'
#265
b11 W'
1Z'
b1 8*
b111 A*
#266
b1 m%
b1 ]&
b10011010010011000001100000101001 _&
b1 W'
0Z'
b0 8*
b0 A*
#268
b11 W'
1Z'
b1 8*
b111 A*
#269
b0 m%
b0 ]&
b101110101010110100100010000001 _&
b1 W'
0Z'
b0 8*
b0 A*
#272
b11 W'
1Z'
b1 8*
b111 A*
#273
b11 m%
b11 ]&
b101100000000111000101110011100 _&
b1 W'
0Z'
b0 8*
b0 A*
#275
b11 W'
1Z'
b1 8*
b111 A*
#276
b10 m%
b10 ]&
b11111100010111111000000000000110 _&
b1 W'
0Z'
b0 8*
b0 A*
#278
b11 W'
1Z'
b1 8*
b111 A*
#279
b1 m%
b1 ]&
b10011101110111010001000101101011 _&
b1 W'
0Z'
b0 8*
b0 A*
#281
b11 W'
1Z'
b1 8*
b111 A*
#282
b0 m%
b0 ]&
b101100100101001100001011010010 _&
b1 W'
0Z'
b0 8*
b0 A*
#285
b11 W'
1Z'
b1 8*
b111 A*
#286
b11 m%
b11 ]&
b1010111000110010010110100100100 _&
b1 W'
0Z'
b0 8*
b0 A*
#287
b1010010011000110001100001001100 u$
b11 i%
1k%
b1 5*
b111 >*
#288
b11 '$
b11 s$
b10101100111001100100001100001 u$
b10 i%
0k%
b11 W'
1Z'
b0 5*
b1 8*
b0 >*
b111 A*
#289
b1010010011000110001100001001100 +#
b11 !$
1$$
b10010101000101101110000011100011 u$
b11 i%
1k%
b10 m%
b10 ]&
b10000111001111001110101101010100 _&
b1 W'
0Z'
b1 5*
b0 8*
b1 ;*
b111 >*
b0 A*
#290
b0 +#
b10 !$
0$$
b10 '$
b10 s$
b1010010011010010111000011100101 u$
b10 i%
0k%
b0 5*
b0 ;*
b0 >*
#291
b10010101000101101110000011100011 +#
b11 !$
1$$
b1010010011000110001100001001100 u$
b11 i%
1k%
b11 W'
1Z'
b1 5*
b1 8*
b1 ;*
b111 >*
b111 A*
#292
b0 +#
b10 !$
0$$
b1 '$
b1 s$
b10101100111001000100001001001 u$
b1 e%
1g%
b10 i%
0k%
b1 m%
b1 ]&
b1110111001101110001011011000000 _&
b1 W'
0Z'
b10 x)
b0 8*
b0 ;*
b0 >*
b0 A*
#293
b1010010011000110001100001001100 +#
b11 !$
1$$
b10010101000101101110000011100011 u$
b11 e%
1h%
b11 i%
1k%
b1 ;*
b111 >*
