.Xil/Vivado-858825-luiscarlos-GL552VX/hw_ila_data_1/zip_work/waveform.vcd
$date
        2023-May-29 13:20:17
$end
$version
        Vivado v2021.2 (64-bit)
$end
$timescale
        1ps
$end
$scope module dut $end
$var reg 1 " design_1_i/system_ila_0/inst/probe0_1 $end
$var reg 1 # design_1_i/system_ila_0/inst/probe1_1 $end
$var reg 1 $ design_1_i/system_ila_0/inst/probe2_1 $end
$var reg 1 % design_1_i/system_ila_0/inst/probe3_1 $end
$var reg 1 & design_1_i/system_ila_0/inst/probe4_1 $end
$var reg 1 ' design_1_i/system_ila_0/inst/probe5_1 $end
$var reg 1 ( design_1_i/system_ila_0/inst/SLOT_0_ICAP_csib_1 $end
$var reg 32 ) design_1_i/system_ila_0/inst/SLOT_0_ICAP_i_1 [31:0] $end
$var reg 32 I design_1_i/system_ila_0/inst/SLOT_0_ICAP_o_1 [31:0] $end
$var reg 1 i design_1_i/system_ila_0/inst/SLOT_0_ICAP_rdwrb_1 $end
$var reg 1 j design_1_i/system_ila_0/inst/SLOT_0_ICAP_avail_1 $end
$var reg 1 k design_1_i/system_ila_0/inst/SLOT_0_ICAP_prdone_1 $end
$var reg 1 l design_1_i/system_ila_0/inst/SLOT_0_ICAP_prerror_1 $end
$var reg 2 m design_1_i/system_ila_0/inst/net_slot_1_axi_ar_cnt [1:0] $end
$var reg 32 o design_1_i/system_ila_0/inst/net_slot_1_axi_araddr [31:0] $end
$var reg 2 1" design_1_i/system_ila_0/inst/net_slot_1_axi_arburst [1:0] $end
$var reg 4 3" design_1_i/system_ila_0/inst/net_slot_1_axi_arcache [3:0] $end
$var reg 8 7" design_1_i/system_ila_0/inst/net_slot_1_axi_arlen [7:0] $end
$var reg 3 ?" design_1_i/system_ila_0/inst/net_slot_1_axi_arprot [2:0] $end
$var reg 3 B" design_1_i/system_ila_0/inst/net_slot_1_axi_arsize [2:0] $end
$var reg 4 E" design_1_i/system_ila_0/inst/net_slot_1_axi_aruser [3:0] $end
$var reg 2 I" design_1_i/system_ila_0/inst/net_slot_1_axi_aw_cnt [1:0] $end
$var reg 32 K" design_1_i/system_ila_0/inst/net_slot_1_axi_awaddr [31:0] $end
$var reg 2 k" design_1_i/system_ila_0/inst/net_slot_1_axi_awburst [1:0] $end
$var reg 4 m" design_1_i/system_ila_0/inst/net_slot_1_axi_awcache [3:0] $end
$var reg 8 q" design_1_i/system_ila_0/inst/net_slot_1_axi_awlen [7:0] $end
$var reg 3 y" design_1_i/system_ila_0/inst/net_slot_1_axi_awprot [2:0] $end
$var reg 3 |" design_1_i/system_ila_0/inst/net_slot_1_axi_awsize [2:0] $end
$var reg 2 !# design_1_i/system_ila_0/inst/net_slot_1_axi_b_cnt [1:0] $end
$var reg 2 ## design_1_i/system_ila_0/inst/net_slot_1_axi_r_cnt [1:0] $end
$var reg 32 %# design_1_i/system_ila_0/inst/net_slot_1_axi_rdata [31:0] $end
$var reg 2 E# design_1_i/system_ila_0/inst/net_slot_1_axi_rresp [1:0] $end
$var reg 32 G# design_1_i/system_ila_0/inst/net_slot_1_axi_wdata [31:0] $end
$var reg 1 g# design_1_i/system_ila_0/inst/net_slot_1_axi_awvalid $end
$var reg 2 h# design_1_i/system_ila_0/inst/net_slot_1_axi_aw_ctrl [1:0] $end
$var reg 1 j# design_1_i/system_ila_0/inst/net_slot_1_axi_awready $end
$var reg 3 k# design_1_i/system_ila_0/inst/net_slot_1_axi_w_ctrl [2:0] $end
$var reg 1 n# design_1_i/system_ila_0/inst/net_slot_1_axi_wvalid $end
$var reg 1 o# design_1_i/system_ila_0/inst/net_slot_1_axi_wready $end
$var reg 1 p# design_1_i/system_ila_0/inst/net_slot_1_axi_wlast $end
$var reg 1 q# design_1_i/system_ila_0/inst/net_slot_1_axi_bvalid $end
$var reg 2 r# design_1_i/system_ila_0/inst/net_slot_1_axi_b_ctrl [1:0] $end
$var reg 1 t# design_1_i/system_ila_0/inst/net_slot_1_axi_bready $end
$var reg 2 u# design_1_i/system_ila_0/inst/net_slot_1_axi_ar_ctrl [1:0] $end
$var reg 1 w# design_1_i/system_ila_0/inst/net_slot_1_axi_arvalid $end
$var reg 1 x# design_1_i/system_ila_0/inst/net_slot_1_axi_arready $end
$var reg 3 y# design_1_i/system_ila_0/inst/net_slot_1_axi_r_ctrl [2:0] $end
$var reg 1 |# design_1_i/system_ila_0/inst/net_slot_1_axi_rvalid $end
$var reg 1 }# design_1_i/system_ila_0/inst/net_slot_1_axi_rready $end
$var reg 1 ~# design_1_i/system_ila_0/inst/net_slot_1_axi_rlast $end
$var reg 2 !$ design_1_i/system_ila_0/inst/net_slot_2_axi_ar_cnt [1:0] $end
$var reg 32 #$ design_1_i/system_ila_0/inst/net_slot_2_axi_araddr [31:0] $end
$var reg 2 C$ design_1_i/system_ila_0/inst/net_slot_2_axi_arburst [1:0] $end
$var reg 4 E$ design_1_i/system_ila_0/inst/net_slot_2_axi_arcache [3:0] $end
$var reg 8 I$ design_1_i/system_ila_0/inst/net_slot_2_axi_arlen [7:0] $end
$var reg 1 Q$ design_1_i/system_ila_0/inst/net_slot_2_axi_arlock $end
$var reg 3 R$ design_1_i/system_ila_0/inst/net_slot_2_axi_arprot [2:0] $end
$var reg 4 U$ design_1_i/system_ila_0/inst/net_slot_2_axi_arqos [3:0] $end
$var reg 3 Y$ design_1_i/system_ila_0/inst/net_slot_2_axi_arsize [2:0] $end
$var reg 2 \$ design_1_i/system_ila_0/inst/net_slot_2_axi_aw_cnt [1:0] $end
$var reg 32 ^$ design_1_i/system_ila_0/inst/net_slot_2_axi_awaddr [31:0] $end
$var reg 2 ~$ design_1_i/system_ila_0/inst/net_slot_2_axi_awburst [1:0] $end
$var reg 4 "% design_1_i/system_ila_0/inst/net_slot_2_axi_awcache [3:0] $end
$var reg 8 &% design_1_i/system_ila_0/inst/net_slot_2_axi_awlen [7:0] $end
$var reg 1 .% design_1_i/system_ila_0/inst/net_slot_2_axi_awlock $end
$var reg 3 /% design_1_i/system_ila_0/inst/net_slot_2_axi_awprot [2:0] $end
$var reg 4 2% design_1_i/system_ila_0/inst/net_slot_2_axi_awqos [3:0] $end
$var reg 3 6% design_1_i/system_ila_0/inst/net_slot_2_axi_awsize [2:0] $end
$var reg 2 9% design_1_i/system_ila_0/inst/net_slot_2_axi_b_cnt [1:0] $end
$var reg 2 ;% design_1_i/system_ila_0/inst/net_slot_2_axi_bresp [1:0] $end
$var reg 2 =% design_1_i/system_ila_0/inst/net_slot_2_axi_r_cnt [1:0] $end
$var reg 32 ?% design_1_i/system_ila_0/inst/net_slot_2_axi_rdata [31:0] $end
$var reg 2 _% design_1_i/system_ila_0/inst/net_slot_2_axi_rresp [1:0] $end
$var reg 32 a% design_1_i/system_ila_0/inst/net_slot_2_axi_wdata [31:0] $end
$var reg 4 #& design_1_i/system_ila_0/inst/net_slot_2_axi_wstrb [3:0] $end
$var reg 1 '& design_1_i/system_ila_0/inst/net_slot_2_axi_awvalid $end
$var reg 2 (& design_1_i/system_ila_0/inst/net_slot_2_axi_aw_ctrl [1:0] $end
$var reg 1 *& design_1_i/system_ila_0/inst/net_slot_2_axi_awready $end
$var reg 3 +& design_1_i/system_ila_0/inst/net_slot_2_axi_w_ctrl [2:0] $end
$var reg 1 .& design_1_i/system_ila_0/inst/net_slot_2_axi_wvalid $end
$var reg 1 /& design_1_i/system_ila_0/inst/net_slot_2_axi_wready $end
$var reg 1 0& design_1_i/system_ila_0/inst/net_slot_2_axi_wlast $end
$var reg 1 1& design_1_i/system_ila_0/inst/net_slot_2_axi_bvalid $end
$var reg 2 2& design_1_i/system_ila_0/inst/net_slot_2_axi_b_ctrl [1:0] $end
$var reg 1 4& design_1_i/system_ila_0/inst/net_slot_2_axi_bready $end
$var reg 2 5& design_1_i/system_ila_0/inst/net_slot_2_axi_ar_ctrl [1:0] $end
$var reg 1 7& design_1_i/system_ila_0/inst/net_slot_2_axi_arvalid $end
$var reg 1 8& design_1_i/system_ila_0/inst/net_slot_2_axi_arready $end
$var reg 3 9& design_1_i/system_ila_0/inst/net_slot_2_axi_r_ctrl [2:0] $end
$var reg 1 <& design_1_i/system_ila_0/inst/net_slot_2_axi_rvalid $end
$var reg 1 =& design_1_i/system_ila_0/inst/net_slot_2_axi_rready $end
$var reg 1 >& design_1_i/system_ila_0/inst/net_slot_2_axi_rlast $end
$var reg 32 ?& design_1_i/system_ila_0/inst/net_slot_3_axis_tdata [31:0] $end
$var reg 3 _& design_1_i/system_ila_0/inst/net_slot_3_axis_tid [2:0] $end
$var reg 4 b& design_1_i/system_ila_0/inst/net_slot_3_axis_tkeep [3:0] $end
$var reg 1 f& design_1_i/system_ila_0/inst/net_slot_3_axis_tvalid $end
$var reg 1 g& design_1_i/system_ila_0/inst/net_slot_3_axis_tready $end
$var reg 1 h& design_1_i/system_ila_0/inst/net_slot_3_axis_tlast $end
$var reg 32 i& design_1_i/system_ila_0/inst/net_slot_4_axis_tdata [31:0] $end
$var reg 3 +' design_1_i/system_ila_0/inst/net_slot_4_axis_tid [2:0] $end
$var reg 4 .' design_1_i/system_ila_0/inst/net_slot_4_axis_tkeep [3:0] $end
$var reg 1 2' design_1_i/system_ila_0/inst/net_slot_4_axis_tvalid $end
$var reg 1 3' design_1_i/system_ila_0/inst/net_slot_4_axis_tready $end
$var reg 1 4' design_1_i/system_ila_0/inst/net_slot_4_axis_tlast $end
$var reg 2 5' design_1_i/system_ila_0/inst/net_slot_5_axi_ar_cnt [1:0] $end
$var reg 49 7' design_1_i/system_ila_0/inst/net_slot_5_axi_araddr [48:0] $end
$var reg 2 h' design_1_i/system_ila_0/inst/net_slot_5_axi_arburst [1:0] $end
$var reg 4 j' design_1_i/system_ila_0/inst/net_slot_5_axi_arcache [3:0] $end
$var reg 8 n' design_1_i/system_ila_0/inst/net_slot_5_axi_arlen [7:0] $end
$var reg 1 v' design_1_i/system_ila_0/inst/net_slot_5_axi_arlock $end
$var reg 3 w' design_1_i/system_ila_0/inst/net_slot_5_axi_arprot [2:0] $end
$var reg 4 z' design_1_i/system_ila_0/inst/net_slot_5_axi_arqos [3:0] $end
$var reg 3 ~' design_1_i/system_ila_0/inst/net_slot_5_axi_arsize [2:0] $end
$var reg 2 #( design_1_i/system_ila_0/inst/net_slot_5_axi_aw_cnt [1:0] $end
$var reg 49 %( design_1_i/system_ila_0/inst/net_slot_5_axi_awaddr [48:0] $end
$var reg 2 V( design_1_i/system_ila_0/inst/net_slot_5_axi_awburst [1:0] $end
$var reg 4 X( design_1_i/system_ila_0/inst/net_slot_5_axi_awcache [3:0] $end
$var reg 8 \( design_1_i/system_ila_0/inst/net_slot_5_axi_awlen [7:0] $end
$var reg 1 d( design_1_i/system_ila_0/inst/net_slot_5_axi_awlock $end
$var reg 3 e( design_1_i/system_ila_0/inst/net_slot_5_axi_awprot [2:0] $end
$var reg 4 h( design_1_i/system_ila_0/inst/net_slot_5_axi_awqos [3:0] $end
$var reg 3 l( design_1_i/system_ila_0/inst/net_slot_5_axi_awsize [2:0] $end
$var reg 2 o( design_1_i/system_ila_0/inst/net_slot_5_axi_b_cnt [1:0] $end
$var reg 2 q( design_1_i/system_ila_0/inst/net_slot_5_axi_bresp [1:0] $end
$var reg 2 s( design_1_i/system_ila_0/inst/net_slot_5_axi_r_cnt [1:0] $end
$var reg 128 u( design_1_i/system_ila_0/inst/net_slot_5_axi_rdata [127:0] $end
$var reg 2 9* design_1_i/system_ila_0/inst/net_slot_5_axi_rresp [1:0] $end
$var reg 128 ;* design_1_i/system_ila_0/inst/net_slot_5_axi_wdata [127:0] $end
$var reg 16 ]+ design_1_i/system_ila_0/inst/net_slot_5_axi_wstrb [15:0] $end
$var reg 2 m+ design_1_i/system_ila_0/inst/net_slot_5_axi_aw_ctrl [1:0] $end
$var reg 1 o+ design_1_i/system_ila_0/inst/net_slot_5_axi_awvalid $end
$var reg 1 p+ design_1_i/system_ila_0/inst/net_slot_5_axi_awready $end
$var reg 3 q+ design_1_i/system_ila_0/inst/net_slot_5_axi_w_ctrl [2:0] $end
$var reg 1 t+ design_1_i/system_ila_0/inst/net_slot_5_axi_wvalid $end
$var reg 1 u+ design_1_i/system_ila_0/inst/net_slot_5_axi_wready $end
$var reg 1 v+ design_1_i/system_ila_0/inst/net_slot_5_axi_wlast $end
$var reg 1 w+ design_1_i/system_ila_0/inst/net_slot_5_axi_bvalid $end
$var reg 2 x+ design_1_i/system_ila_0/inst/net_slot_5_axi_b_ctrl [1:0] $end
$var reg 1 z+ design_1_i/system_ila_0/inst/net_slot_5_axi_bready $end
$var reg 1 {+ design_1_i/system_ila_0/inst/net_slot_5_axi_arvalid $end
$var reg 2 |+ design_1_i/system_ila_0/inst/net_slot_5_axi_ar_ctrl [1:0] $end
$var reg 1 ~+ design_1_i/system_ila_0/inst/net_slot_5_axi_arready $end
$var reg 3 !, design_1_i/system_ila_0/inst/net_slot_5_axi_r_ctrl [2:0] $end
$var reg 1 $, design_1_i/system_ila_0/inst/net_slot_5_axi_rvalid $end
$var reg 1 %, design_1_i/system_ila_0/inst/net_slot_5_axi_rready $end
$var reg 1 &, design_1_i/system_ila_0/inst/net_slot_5_axi_rlast $end
$var reg 3 ', AR_Channel__i1_s1___dfx_controller_0_M_AXI_MEM_ [2:0] $end
$var reg 3 *, AR_Channel__i1_s2___axi_mm2s_mapper_0_M_AXI_ [2:0] $end
$var reg 3 -, AR_Channel__i1_s5___axi_smc_M00_AXI_ [2:0] $end
$var reg 3 0, AW_Channel__i1_s1___dfx_controller_0_M_AXI_MEM_ [2:0] $end
$var reg 3 3, AW_Channel__i1_s2___axi_mm2s_mapper_0_M_AXI_ [2:0] $end
$var reg 3 6, AW_Channel__i1_s5___axi_smc_M00_AXI_ [2:0] $end
$var reg 3 9, B_Channel__i1_s1___dfx_controller_0_M_AXI_MEM_ [2:0] $end
$var reg 3 <, B_Channel__i1_s2___axi_mm2s_mapper_0_M_AXI_ [2:0] $end
$var reg 3 ?, B_Channel__i1_s5___axi_smc_M00_AXI_ [2:0] $end
$var reg 3 B, Interface__i1_s1___dfx_controller_0_M_AXI_MEM_ [2:0] $end
$var reg 3 E, Interface__i1_s2___axi_mm2s_mapper_0_M_AXI_ [2:0] $end
$var reg 3 H, Interface__i1_s5___axi_smc_M00_AXI_ [2:0] $end
$var reg 3 K, R_Channel__i1_s1___dfx_controller_0_M_AXI_MEM_ [2:0] $end
$var reg 3 N, R_Channel__i1_s2___axi_mm2s_mapper_0_M_AXI_ [2:0] $end
$var reg 3 Q, R_Channel__i1_s5___axi_smc_M00_AXI_ [2:0] $end
$var reg 3 T, W_Channel__i1_s1___dfx_controller_0_M_AXI_MEM_ [2:0] $end
$var reg 3 W, W_Channel__i1_s2___axi_mm2s_mapper_0_M_AXI_ [2:0] $end
$var reg 3 Z, W_Channel__i1_s5___axi_smc_M00_AXI_ [2:0] $end
$var reg 1 ], _TRIGGER $end
$var reg 1 ^, _WINDOW $end
$var reg 1 _, _GAP $end
$upscope $end
$enddefinitions $end
#0
$dumpvars
0"
1#
1$
0%
0&
0'
1(
b0 )
b11111111111111111111111111011011 I
0i
1j
0k
0l
b10 m
b0 o
b0 1"
b11 3"
b0 7"
b0 ?"
b0 B"
b0 E"
b0 I"
b0 K"
b1 k"
b11 m"
b0 q"
b0 y"
b10 |"
b0 !#
b10 ##
b0 %#
b0 E#
b0 G#
0g#
b10 h#
1j#
b0 k#
0n#
0o#
0p#
0q#
b0 r#
0t#
b10 u#
0w#
1x#
b10 y#
0|#
1}#
0~#
b1 !$
b10110010000000000000000 #$
b1 C$
b11 E$
b11111111 I$
0Q$
b0 R$
b0 U$
b10 Y$
b0 \$
b0 ^$
b0 ~$
b0 "%
b0 &%
0.%
b0 /%
b0 2%
b0 6%
b0 9%
b0 ;%
b1 =%
b0 ?%
b0 _%
b0 a%
b0 #&
0'&
b10 (&
1*&
b0 +&
0.&
0/&
00&
01&
b10 2&
14&
b10 5&
07&
18&
b1 9&
1<&
0=&
0>&
b0 ?&
b0 _&
b1111 b&
0f&
1g&
0h&
b0 i&
b0 +'
b1111 .'
02'
13'
04'
b1 5'
b10110010011110000000000 7'
b1 h'
b11 j'
b101000 n'
0v'
b0 w'
b0 z'
b100 ~'
b0 #(
b0 %(
b1 V(
b0 X(
b0 \(
0d(
b0 e(
b0 h(
b0 l(
b0 o(
b0 q(
b1 s(
b100000000000000000000000000000001000000000000000000000000000000010000000000000000000000000000000100000000000000000000000000000 u(
b0 9*
b0 ;*
b0 ]+
b10 m+
0o+
1p+
b10 q+
0t+
1u+
0v+
0w+
b10 x+
1z+
0{+
b10 |+
1~+
b101 !,
1$,
0%,
1&,
b11 ',
b11 *,
b11 -,
b11 0,
b11 3,
b11 6,
b11 9,
b11 <,
b11 ?,
b0 B,
b0 E,
b0 H,
b0 K,
b0 N,
b0 Q,
b100 T,
b100 W,
b100 Z,
0],
1^,
0_,
$end
#2
b11 9&
1=&
b1 E,
b1 N,
#3
b11000000000011000000001000100000 %#
b1 9&
0=&
b0 E,
b0 N,
#5
0(
b11 y#
1|#
b1 B,
b1 K,
#6
1(
b10 y#
0|#
b0 B,
b0 K,
#8
b11 9&
1=&
b1 E,
b1 N,
#9
b1100110011000000 %#
b1 9&
0=&
b0 E,
b0 N,
#11
0(
b11 y#
1|#
b1 B,
b1 K,
#12
1(
b11001100000100000000000100 )
b10 y#
0|#
b0 B,
b0 K,
#14
b110 y#
1~#
b1100 #&
b11 9&
1=&
b1 E,
b1 N,
#15
b10101010101010000000001000001100 %#
b10000000000000000 ?%
b1 9&
0=&
b0 E,
b0 N,
#17
0(
b111 y#
1|#
b100 #&
b1 B,
b111 K,
#18
1(
b11001100000011 )
b1 m
b1 ##
b110 y#
0|#
b111 !,
1%,
b0 B,
b1 H,
b0 K,
b111 Q,
#19
b0 5'
b0 s(
b10 !,
0$,
0&,
b0 H,
b0 Q,
#20
b10 y#
0~#
b0 #&
b11 9&
1=&
b0 !,
0%,
b1 E,
b1 N,
#21
b0 %#
b0 ?%
b1 9&
0=&
b0 E,
b0 N,
#23
0(
b11 y#
1|#
b1 B,
b1 K,
#24
1(
b1010101000101010100000000110000 )
b10 y#
0|#
b0 B,
b0 K,
#26
b11 9&
1=&
b1 E,
b1 N,
#27
b1 9&
0=&
b0 E,
b0 N,
#29
0(
b11 y#
1|#
b1 B,
b1 K,
#30
1(
b0 )
b10 y#
0|#
b0 B,
b0 K,
#32
b11 9&
1=&
b1 E,
b1 N,
#33
b1 9&
0=&
b0 E,
b0 N,
#35
0(
b11 y#
1|#
b1 B,
b1 K,
#36
1(
b10 y#
0|#
b0 B,
b0 K,
#38
b11 9&
1=&
b1 E,
b1 N,
#39
b1 9&
0=&
b0 E,
b0 N,
#41
0(
b11 y#
1|#
b1 B,
b1 K,
#42
1(
b10 y#
0|#
b10 !,
1%,
b0 B,
b0 K,
#44
b11 9&
1=&
b1 E,
b1 N,
#45
b10000000000000000 %#
b1 9&
0=&
b0 E,
b0 N,
#47
0(
b11 y#
1|#
b1 B,
b1 K,
#48
1(
b10 y#
0|#
b0 B,
b0 K,
#50
b11 9&
1=&
b1 E,
b1 N,
#51
b0 %#
b1 9&
0=&
b0 E,
b0 N,
#53
0(
b11 y#
1|#
b1 B,
b1 K,
#54
1(
b100000000000000000000000 )
b10 y#
0|#
b0 B,
b0 K,
#56
b11 9&
1=&
b1 E,
b1 N,
#57
b1 9&
0=&
b0 E,
b0 N,
#59
0(
b11 y#
1|#
b1 B,
b1 K,
#60
1(
b0 )
b10 y#
0|#
b0 B,
b0 K,
#62
b11 9&
1=&
b1 E,
b1 N,
#63
b1 ?%
b1 9&
0=&
b0 E,
b0 N,
#65
0(
b11 y#
1|#
b1 B,
b1 K,
#66
1(
b10 y#
0|#
b0 B,
b0 K,
#68
b11 9&
1=&
b1 E,
b1 N,
#69
b0 ?%
b1 9&
0=&
b0 E,
b0 N,
#71
0(
b11 y#
1|#
b1 B,
b1 K,
#72
1(
b10 y#
0|#
b0 B,
b0 K,
#74
b11 9&
1=&
b1 E,
b1 N,
#75
b1 9&
0=&
b0 E,
b0 N,
#77
0(
b11 y#
1|#
b1 B,
b1 K,
#78
1(
b10 y#
0|#
b0 B,
b0 K,
#80
b11 9&
1=&
b1 E,
b1 N,
#81
b1 9&
0=&
b0 E,
b0 N,
#83
0(
b11 y#
1|#
b1 B,
b1 K,
#84
1(
b10 y#
0|#
b0 B,
b0 K,
#86
b11 9&
1=&
b1 E,
b1 N,
#87
b1 9&
0=&
b0 E,
b0 N,
#89
0(
b11 y#
1|#
b1 B,
b1 K,
#90
1(
b10 y#
0|#
b0 B,
b0 K,
#92
b1 E#
b1 #&
b11 9&
1=&
b1 E,
b1 N,
#93
b1 %#
b1 9&
0=&
b0 E,
b0 N,
#95
0(
b0 E#
b11 y#
1|#
b0 #&
b1 B,
b1 K,
#96
1(
b10 y#
0|#
b0 B,
b0 K,
#98
b11 9&
1=&
b1 E,
b1 N,
#99
b0 %#
b1 9&
0=&
b0 E,
b0 N,
#101
0(
b11 y#
1|#
b1 B,
b1 K,
#102
1(
b10000000 )
b10 y#
0|#
b0 B,
b0 K,
#104
b11 9&
1=&
b1 E,
b1 N,
#105
b10000000000000000 ?%
b1 9&
0=&
b0 E,
b0 N,
#107
0(
b11 y#
1|#
b1 B,
b1 K,
#108
1(
b0 )
b10 y#
0|#
b0 B,
b0 K,
#110
b11 9&
1=&
b1 E,
b1 N,
#111
b0 ?%
b1 9&
0=&
b0 E,
b0 N,
#113
0(
b11 y#
1|#
b1 B,
b1 K,
#114
1(
b10 y#
0|#
b0 B,
b0 K,
#116
b11 9&
1=&
b1 E,
b1 N,
#117
b1 9&
0=&
b0 E,
b0 N,
#119
0(
b11 y#
1|#
b1 B,
b1 K,
#120
1(
b10 y#
0|#
b0 B,
b0 K,
#122
b11 9&
1=&
b1 E,
b1 N,
#123
b1 9&
0=&
b0 E,
b0 N,
#125
0(
b11 y#
1|#
b1 B,
b1 K,
#126
1(
b10 y#
0|#
b0 B,
b0 K,
#128
b11 9&
1=&
b1 E,
b1 N,
#129
b1 9&
0=&
b0 E,
b0 N,
#131
0(
b11 y#
1|#
b1 B,
b1 K,
#132
1(
b10 y#
0|#
b0 B,
b0 K,
#134
b11 9&
1=&
b1 E,
b1 N,
#135
b10000000000000000 %#
b1 9&
0=&
b0 E,
b0 N,
#137
0(
b11 y#
1|#
b1 B,
b1 K,
#138
1(
b10 y#
0|#
b0 B,
b0 K,
#140
b11 9&
1=&
b1 E,
b1 N,
#141
b0 %#
b1 9&
0=&
b0 E,
b0 N,
#143
0(
b11 y#
1|#
b1 B,
b1 K,
#144
1(
b100000000000000000000000 )
b10 y#
0|#
b0 B,
b0 K,
#146
b11 9&
1=&
b1 E,
b1 N,
#147
b1 9&
0=&
b0 E,
b0 N,
#149
0(
b11 y#
1|#
b1 B,
b1 K,
#150
1(
b0 )
b10 y#
0|#
b0 B,
b0 K,
#152
b11 9&
1=&
b1 E,
b1 N,
#153
b1 ?%
b1 9&
0=&
b0 E,
b0 N,
#155
0(
b11 y#
1|#
b1 B,
b1 K,
#156
1(
b10 y#
0|#
b0 B,
b0 K,
#158
b11 9&
1=&
b1 E,
b1 N,
#159
b0 ?%
b1 9&
0=&
b0 E,
b0 N,
#161
0(
b11 y#
1|#
b1 B,
b1 K,
#162
1(
b10 y#
0|#
b0 B,
b0 K,
#164
b11 9&
1=&
b1 E,
b1 N,
#165
b1 9&
0=&
b0 E,
b0 N,
#167
0(
b11 y#
1|#
b1 B,
b1 K,
#168
1(
b10 y#
0|#
b0 B,
b0 K,
#170
b11 9&
1=&
b1 E,
b1 N,
#171
b1 9&
0=&
b0 E,
b0 N,
#173
0(
b11 y#
1|#
b1 B,
b1 K,
#174
1(
b10 y#
0|#
b0 B,
b0 K,
#176
b11 9&
1=&
b1 E,
b1 N,
#177
b1 9&
0=&
b0 E,
b0 N,
#179
0(
b11 y#
1|#
b1 B,
b1 K,
#180
1(
b10 y#
0|#
b0 B,
b0 K,
#182
b1 E#
b1 #&
b11 9&
1=&
b1 E,
b1 N,
#183
b1 %#
b1 9&
0=&
b0 E,
b0 N,
#185
0(
b0 E#
b11 y#
1|#
b0 #&
b1 B,
b1 K,
#186
1(
b10 y#
0|#
b0 B,
b0 K,
#188
b11 9&
1=&
b1 E,
b1 N,
#189
b0 %#
b1 9&
0=&
b0 E,
b0 N,
#191
0(
b11 y#
1|#
b1 B,
b1 K,
#192
1(
b10000000 )
b10 y#
0|#
b0 B,
b0 K,
#194
b11 9&
1=&
b1 E,
b1 N,
#195
b10000000000000000 ?%
b1 9&
0=&
b0 E,
b0 N,
#197
0(
b11 y#
1|#
b1 B,
b1 K,
#198
1(
b0 )
b10 y#
0|#
b0 B,
b0 K,
#200
b11 9&
1=&
b1 E,
b1 N,
#201
b0 ?%
b1 9&
0=&
b0 E,
b0 N,
#203
0(
b11 y#
1|#
b1 B,
b1 K,
#204
1(
b10 y#
0|#
b0 B,
b0 K,
#206
b11 9&
1=&
b1 E,
b1 N,
#207
b1 9&
0=&
b0 E,
b0 N,
#209
0(
b11 y#
1|#
b1 B,
b1 K,
#210
1(
b10 y#
0|#
b0 B,
b0 K,
#212
b11 9&
1=&
b1 E,
b1 N,
#213
b1 9&
0=&
b0 E,
b0 N,
#215
0(
b11 y#
1|#
b1 B,
b1 K,
#216
1(
b10 y#
0|#
b0 B,
b0 K,
#218
b11 9&
1=&
b1 E,
b1 N,
#219
b1 9&
0=&
b0 E,
b0 N,
#221
0(
b11 y#
1|#
b1 B,
b1 K,
#222
1(
b10 y#
0|#
b0 B,
b0 K,
#224
b11 9&
1=&
b1 E,
b1 N,
#225
b10000000000000000 %#
b1 9&
0=&
b0 E,
b0 N,
#227
0(
b11 y#
1|#
b1 B,
b1 K,
#228
1(
b10 y#
0|#
b0 B,
b0 K,
#230
b11 9&
1=&
b1 E,
b1 N,
#231
b0 %#
b1 9&
0=&
b0 E,
b0 N,
#233
0(
b11 y#
1|#
b1 B,
b1 K,
#234
1(
b100000000000000000000000 )
b10 y#
0|#
b0 B,
b0 K,
#236
b11 9&
1=&
b1 E,
b1 N,
#237
b1 9&
0=&
b0 E,
b0 N,
#239
0(
b11 y#
1|#
b1 B,
b1 K,
#240
1(
b0 )
b10 y#
0|#
b0 B,
b0 K,
#242
b11 9&
1=&
b1 E,
b1 N,
#243
b1 ?%
b1 9&
0=&
b0 E,
b0 N,
#245
0(
b11 y#
1|#
b1 B,
b1 K,
#246
1(
b10 y#
0|#
b0 B,
b0 K,
#248
b11 9&
1=&
b1 E,
b1 N,
#249
b0 ?%
b1 9&
0=&
b0 E,
b0 N,
#251
0(
b11 y#
1|#
b1 B,
b1 K,
#252
1(
b10 y#
0|#
b0 B,
b0 K,
#254
b11 9&
1=&
b1 E,
b1 N,
#255
b1 9&
0=&
b0 E,
b0 N,
#257
0(
b11 y#
1|#
b1 B,
b1 K,
#258
1(
b10 y#
0|#
b0 B,
b0 K,
#260
b11 9&
1=&
b1 E,
b1 N,
#261
b1 9&
0=&
b0 E,
b0 N,
#263
0(
b11 y#
1|#
b1 B,
b1 K,
#264
1(
b10 y#
0|#
b0 B,
b0 K,
#266
b11 9&
1=&
b1 E,
b1 N,
#267
b1 9&
0=&
b0 E,
b0 N,
#269
0(
b11 y#
1|#
b1 B,
b1 K,
#270
1(
b10 y#
0|#
b0 B,
b0 K,
#272
b1 E#
b1 #&
b11 9&
1=&
b1 E,
b1 N,
#273
b1 %#
b1 9&
0=&
b0 E,
b0 N,
#275
0(
b0 E#
b11 y#
1|#
b0 #&
b1 B,
b1 K,
#276
1(
b10 y#
0|#
b0 B,
b0 K,
#278
b11 9&
1=&
b1 E,
b1 N,
#279
b0 %#
b1 9&
0=&
b0 E,
b0 N,
#281
0(
b11 y#
1|#
b1 B,
b1 K,
#282
1(
b10000000 )
b10 y#
0|#
b0 B,
b0 K,
#284
b11 9&
1=&
b1 E,
b1 N,
#285
b1 9&
0=&
b0 E,
b0 N,
#287
0(
b11 y#
1|#
b1 B,
b1 K,
#288
1(
b0 )
b10 y#
0|#
b0 B,
b0 K,
#290
b11 9&
1=&
b1 E,
b1 N,
#291
b1 9&
0=&
b0 E,
b0 N,
#293
0(
b11 y#
1|#
b1 B,
b1 K,
#294
1(
b10 y#
0|#
b0 B,
b0 K,
#296
b11 9&
1=&
b1 E,
b1 N,
#297
b1 9&
0=&
b0 E,
b0 N,
#299
0(
b11 y#
1|#
b1 B,
b1 K,
#300
1(
b10 y#
0|#
b0 B,
b0 K,
#302
b11 9&
1=&
b1 E,
b1 N,
#303
b1 9&
0=&
b0 E,
b0 N,
#305
0(
b11 y#
1|#
b1 B,
b1 K,
#306
1(
b10 y#
0|#
b0 B,
b0 K,
#308
b11 9&
1=&
b1 E,
b1 N,
#309
b1 9&
0=&
b0 E,
b0 N,
#311
0(
b11 y#
1|#
b1 B,
b1 K,
#312
1(
b10 y#
0|#
b0 B,
b0 K,
#314
b11 9&
1=&
b1 E,
b1 N,
#315
b1 9&
0=&
b0 E,
b0 N,
#317
0(
b11 y#
1|#
b1 B,
b1 K,
#318
1(
b10 y#
0|#
b0 B,
b0 K,
#320
b11 9&
1=&
b1 E,
b1 N,
#321
b1 9&
0=&
b0 E,
b0 N,
#323
0(
b11 y#
1|#
b1 B,
b1 K,
#324
1(
b10 y#
0|#
b0 B,
b0 K,
#326
b11 9&
1=&
b1 E,
b1 N,
#327
b1 9&
0=&
b0 E,
b0 N,
#329
0(
b11 y#
1|#
b1 B,
b1 K,
#330
1(
b10 y#
0|#
b0 B,
b0 K,
#332
b11 9&
1=&
b1 E,
b1 N,
#333
b1 9&
0=&
b0 E,
b0 N,
