.Xil/Vivado-5038-luiscarlos-GL552VX/hw_ila_data_1/zip_work/waveform.vcd
$date
        2023-Jun-13 10:52:59
$end
$version
        Vivado v2021.2 (64-bit)
$end
$timescale
        1ps
$end
$scope module dut $end
$var reg 1 " design_1_i/system_ila_0/inst/probe0_1 $end
$var reg 1 # design_1_i/system_ila_0/inst/probe1_1 $end
$var reg 1 $ design_1_i/system_ila_0/inst/probe2_1 $end
$var reg 1 % design_1_i/system_ila_0/inst/probe3_1 $end
$var reg 2 & design_1_i/system_ila_0/inst/probe4_1 [1:0] $end
$var reg 256 ( design_1_i/system_ila_0/inst/probe5_1 [255:0] $end
$var reg 1 l# design_1_i/system_ila_0/inst/probe6_1 $end
$var reg 1 m# design_1_i/system_ila_0/inst/probe7_1 $end
$var reg 1 n# design_1_i/system_ila_0/inst/probe8_1 $end
$var reg 1 o# design_1_i/system_ila_0/inst/probe9_1 $end
$var reg 1 p# design_1_i/system_ila_0/inst/probe10_1 $end
$var reg 1 q# design_1_i/system_ila_0/inst/probe11_1 $end
$var reg 256 r# design_1_i/system_ila_0/inst/probe12_1 [255:0] $end
$var reg 1 X& design_1_i/system_ila_0/inst/probe13_1 $end
$var reg 128 Y& design_1_i/system_ila_0/inst/probe14_1 [127:0] $end
$var reg 128 {' design_1_i/system_ila_0/inst/probe15_1 [127:0] $end
$var reg 1 ?) design_1_i/system_ila_0/inst/probe16_1 $end
$var reg 128 @) design_1_i/system_ila_0/inst/probe17_1 [127:0] $end
$var reg 1 b* design_1_i/system_ila_0/inst/SLOT_0_ICAP_csib_1 $end
$var reg 32 c* design_1_i/system_ila_0/inst/SLOT_0_ICAP_i_1 [31:0] $end
$var reg 32 %+ design_1_i/system_ila_0/inst/SLOT_0_ICAP_o_1 [31:0] $end
$var reg 1 E+ design_1_i/system_ila_0/inst/SLOT_0_ICAP_rdwrb_1 $end
$var reg 1 F+ design_1_i/system_ila_0/inst/SLOT_0_ICAP_avail_1 $end
$var reg 1 G+ design_1_i/system_ila_0/inst/SLOT_0_ICAP_prdone_1 $end
$var reg 1 H+ design_1_i/system_ila_0/inst/SLOT_0_ICAP_prerror_1 $end
$var reg 2 I+ design_1_i/system_ila_0/inst/net_slot_1_axi_ar_cnt [1:0] $end
$var reg 32 K+ design_1_i/system_ila_0/inst/net_slot_1_axi_araddr [31:0] $end
$var reg 2 k+ design_1_i/system_ila_0/inst/net_slot_1_axi_arburst [1:0] $end
$var reg 4 m+ design_1_i/system_ila_0/inst/net_slot_1_axi_arcache [3:0] $end
$var reg 8 q+ design_1_i/system_ila_0/inst/net_slot_1_axi_arlen [7:0] $end
$var reg 3 y+ design_1_i/system_ila_0/inst/net_slot_1_axi_arprot [2:0] $end
$var reg 3 |+ design_1_i/system_ila_0/inst/net_slot_1_axi_arsize [2:0] $end
$var reg 4 !, design_1_i/system_ila_0/inst/net_slot_1_axi_aruser [3:0] $end
$var reg 2 %, design_1_i/system_ila_0/inst/net_slot_1_axi_aw_cnt [1:0] $end
$var reg 32 ', design_1_i/system_ila_0/inst/net_slot_1_axi_awaddr [31:0] $end
$var reg 2 G, design_1_i/system_ila_0/inst/net_slot_1_axi_awburst [1:0] $end
$var reg 4 I, design_1_i/system_ila_0/inst/net_slot_1_axi_awcache [3:0] $end
$var reg 8 M, design_1_i/system_ila_0/inst/net_slot_1_axi_awlen [7:0] $end
$var reg 3 U, design_1_i/system_ila_0/inst/net_slot_1_axi_awprot [2:0] $end
$var reg 3 X, design_1_i/system_ila_0/inst/net_slot_1_axi_awsize [2:0] $end
$var reg 2 [, design_1_i/system_ila_0/inst/net_slot_1_axi_b_cnt [1:0] $end
$var reg 2 ], design_1_i/system_ila_0/inst/net_slot_1_axi_r_cnt [1:0] $end
$var reg 32 _, design_1_i/system_ila_0/inst/net_slot_1_axi_rdata [31:0] $end
$var reg 2 !- design_1_i/system_ila_0/inst/net_slot_1_axi_rresp [1:0] $end
$var reg 32 #- design_1_i/system_ila_0/inst/net_slot_1_axi_wdata [31:0] $end
$var reg 2 C- design_1_i/system_ila_0/inst/net_slot_1_axi_aw_ctrl [1:0] $end
$var reg 1 E- design_1_i/system_ila_0/inst/net_slot_1_axi_awvalid $end
$var reg 1 F- design_1_i/system_ila_0/inst/net_slot_1_axi_awready $end
$var reg 1 G- design_1_i/system_ila_0/inst/net_slot_1_axi_wvalid $end
$var reg 3 H- design_1_i/system_ila_0/inst/net_slot_1_axi_w_ctrl [2:0] $end
$var reg 1 K- design_1_i/system_ila_0/inst/net_slot_1_axi_wready $end
$var reg 1 L- design_1_i/system_ila_0/inst/net_slot_1_axi_wlast $end
$var reg 2 M- design_1_i/system_ila_0/inst/net_slot_1_axi_b_ctrl [1:0] $end
$var reg 1 O- design_1_i/system_ila_0/inst/net_slot_1_axi_bvalid $end
$var reg 1 P- design_1_i/system_ila_0/inst/net_slot_1_axi_bready $end
$var reg 2 Q- design_1_i/system_ila_0/inst/net_slot_1_axi_ar_ctrl [1:0] $end
$var reg 1 S- design_1_i/system_ila_0/inst/net_slot_1_axi_arvalid $end
$var reg 1 T- design_1_i/system_ila_0/inst/net_slot_1_axi_arready $end
$var reg 1 U- design_1_i/system_ila_0/inst/net_slot_1_axi_rvalid $end
$var reg 3 V- design_1_i/system_ila_0/inst/net_slot_1_axi_r_ctrl [2:0] $end
$var reg 1 Y- design_1_i/system_ila_0/inst/net_slot_1_axi_rready $end
$var reg 1 Z- design_1_i/system_ila_0/inst/net_slot_1_axi_rlast $end
$var reg 2 [- design_1_i/system_ila_0/inst/net_slot_2_axi_ar_cnt [1:0] $end
$var reg 32 ]- design_1_i/system_ila_0/inst/net_slot_2_axi_araddr [31:0] $end
$var reg 3 }- design_1_i/system_ila_0/inst/net_slot_2_axi_arprot [2:0] $end
$var reg 2 ". design_1_i/system_ila_0/inst/net_slot_2_axi_aw_cnt [1:0] $end
$var reg 32 $. design_1_i/system_ila_0/inst/net_slot_2_axi_awaddr [31:0] $end
$var reg 3 D. design_1_i/system_ila_0/inst/net_slot_2_axi_awprot [2:0] $end
$var reg 2 G. design_1_i/system_ila_0/inst/net_slot_2_axi_b_cnt [1:0] $end
$var reg 2 I. design_1_i/system_ila_0/inst/net_slot_2_axi_r_cnt [1:0] $end
$var reg 32 K. design_1_i/system_ila_0/inst/net_slot_2_axi_rdata [31:0] $end
$var reg 2 k. design_1_i/system_ila_0/inst/net_slot_2_axi_rresp [1:0] $end
$var reg 32 m. design_1_i/system_ila_0/inst/net_slot_2_axi_wdata [31:0] $end
$var reg 2 // design_1_i/system_ila_0/inst/net_slot_2_axi_aw_ctrl [1:0] $end
$var reg 1 1/ design_1_i/system_ila_0/inst/net_slot_2_axi_awvalid $end
$var reg 1 2/ design_1_i/system_ila_0/inst/net_slot_2_axi_awready $end
$var reg 2 3/ design_1_i/system_ila_0/inst/net_slot_2_axi_w_ctrl [1:0] $end
$var reg 1 5/ design_1_i/system_ila_0/inst/net_slot_2_axi_wvalid $end
$var reg 1 6/ design_1_i/system_ila_0/inst/net_slot_2_axi_wready $end
$var reg 1 7/ design_1_i/system_ila_0/inst/net_slot_2_axi_bvalid $end
$var reg 2 8/ design_1_i/system_ila_0/inst/net_slot_2_axi_b_ctrl [1:0] $end
$var reg 1 :/ design_1_i/system_ila_0/inst/net_slot_2_axi_bready $end
$var reg 2 ;/ design_1_i/system_ila_0/inst/net_slot_2_axi_ar_ctrl [1:0] $end
$var reg 1 =/ design_1_i/system_ila_0/inst/net_slot_2_axi_arvalid $end
$var reg 1 >/ design_1_i/system_ila_0/inst/net_slot_2_axi_arready $end
$var reg 2 ?/ design_1_i/system_ila_0/inst/net_slot_2_axi_r_ctrl [1:0] $end
$var reg 1 A/ design_1_i/system_ila_0/inst/net_slot_2_axi_rvalid $end
$var reg 1 B/ design_1_i/system_ila_0/inst/net_slot_2_axi_rready $end
$var reg 2 C/ design_1_i/system_ila_0/inst/net_slot_3_axi_ar_cnt [1:0] $end
$var reg 32 E/ design_1_i/system_ila_0/inst/net_slot_3_axi_araddr [31:0] $end
$var reg 3 e/ design_1_i/system_ila_0/inst/net_slot_3_axi_arprot [2:0] $end
$var reg 2 h/ design_1_i/system_ila_0/inst/net_slot_3_axi_aw_cnt [1:0] $end
$var reg 32 j/ design_1_i/system_ila_0/inst/net_slot_3_axi_awaddr [31:0] $end
$var reg 3 ,0 design_1_i/system_ila_0/inst/net_slot_3_axi_awprot [2:0] $end
$var reg 2 /0 design_1_i/system_ila_0/inst/net_slot_3_axi_b_cnt [1:0] $end
$var reg 2 10 design_1_i/system_ila_0/inst/net_slot_3_axi_bresp [1:0] $end
$var reg 2 30 design_1_i/system_ila_0/inst/net_slot_3_axi_r_cnt [1:0] $end
$var reg 32 50 design_1_i/system_ila_0/inst/net_slot_3_axi_rdata [31:0] $end
$var reg 2 U0 design_1_i/system_ila_0/inst/net_slot_3_axi_rresp [1:0] $end
$var reg 32 W0 design_1_i/system_ila_0/inst/net_slot_3_axi_wdata [31:0] $end
$var reg 4 w0 design_1_i/system_ila_0/inst/net_slot_3_axi_wstrb [3:0] $end
$var reg 2 {0 design_1_i/system_ila_0/inst/net_slot_3_axi_aw_ctrl [1:0] $end
$var reg 1 }0 design_1_i/system_ila_0/inst/net_slot_3_axi_awvalid $end
$var reg 1 ~0 design_1_i/system_ila_0/inst/net_slot_3_axi_awready $end
$var reg 1 !1 design_1_i/system_ila_0/inst/net_slot_3_axi_wvalid $end
$var reg 2 "1 design_1_i/system_ila_0/inst/net_slot_3_axi_w_ctrl [1:0] $end
$var reg 1 $1 design_1_i/system_ila_0/inst/net_slot_3_axi_wready $end
$var reg 1 %1 design_1_i/system_ila_0/inst/net_slot_3_axi_bvalid $end
$var reg 2 &1 design_1_i/system_ila_0/inst/net_slot_3_axi_b_ctrl [1:0] $end
$var reg 1 (1 design_1_i/system_ila_0/inst/net_slot_3_axi_bready $end
$var reg 1 )1 design_1_i/system_ila_0/inst/net_slot_3_axi_arvalid $end
$var reg 2 *1 design_1_i/system_ila_0/inst/net_slot_3_axi_ar_ctrl [1:0] $end
$var reg 1 ,1 design_1_i/system_ila_0/inst/net_slot_3_axi_arready $end
$var reg 2 -1 design_1_i/system_ila_0/inst/net_slot_3_axi_r_ctrl [1:0] $end
$var reg 1 /1 design_1_i/system_ila_0/inst/net_slot_3_axi_rvalid $end
$var reg 1 01 design_1_i/system_ila_0/inst/net_slot_3_axi_rready $end
$var reg 3 11 AR_Channel__i1_s1___dfx_controller_0_M_AXI_MEM_ [2:0] $end
$var reg 3 41 AR_Channel__i1_s2___axi_interconnect_0_M00_AXI_ [2:0] $end
$var reg 3 71 AR_Channel__i1_s3___aes_0_m00_axi_ [2:0] $end
$var reg 3 :1 AW_Channel__i1_s1___dfx_controller_0_M_AXI_MEM_ [2:0] $end
$var reg 3 =1 AW_Channel__i1_s2___axi_interconnect_0_M00_AXI_ [2:0] $end
$var reg 3 @1 AW_Channel__i1_s3___aes_0_m00_axi_ [2:0] $end
$var reg 3 C1 B_Channel__i1_s1___dfx_controller_0_M_AXI_MEM_ [2:0] $end
$var reg 3 F1 B_Channel__i1_s2___axi_interconnect_0_M00_AXI_ [2:0] $end
$var reg 3 I1 B_Channel__i1_s3___aes_0_m00_axi_ [2:0] $end
$var reg 3 L1 Interface__i1_s1___dfx_controller_0_M_AXI_MEM_ [2:0] $end
$var reg 3 O1 Interface__i1_s2___axi_interconnect_0_M00_AXI_ [2:0] $end
$var reg 3 R1 Interface__i1_s3___aes_0_m00_axi_ [2:0] $end
$var reg 3 U1 R_Channel__i1_s1___dfx_controller_0_M_AXI_MEM_ [2:0] $end
$var reg 3 X1 R_Channel__i1_s2___axi_interconnect_0_M00_AXI_ [2:0] $end
$var reg 3 [1 R_Channel__i1_s3___aes_0_m00_axi_ [2:0] $end
$var reg 3 ^1 W_Channel__i1_s1___dfx_controller_0_M_AXI_MEM_ [2:0] $end
$var reg 3 a1 W_Channel__i1_s2___axi_interconnect_0_M00_AXI_ [2:0] $end
$var reg 3 d1 W_Channel__i1_s3___aes_0_m00_axi_ [2:0] $end
$var reg 16 g1 ila_1___slot_1___dfx_controller_0_M_AXI_MEM___Read_Transactions_0 [15:0] $end
$var reg 16 w1 ila_1___slot_2___axi_interconnect_0_M00_AXI___Read_Transactions_0 [15:0] $end
$var reg 16 )2 ila_1___slot_3___aes_0_m00_axi___Read_Transactions_0 [15:0] $end
$var reg 1 92 _TRIGGER $end
$var reg 1 :2 _WINDOW $end
$var reg 1 ;2 _GAP $end
$upscope $end
$enddefinitions $end
#0
$dumpvars
0"
0#
1$
1%
b10 &
b11110001 (
1l#
0m#
0n#
0o#
0p#
1q#
b11110001 r#
1X&
b0 Y&
b0 {'
0?)
b0 @)
1b*
b0 c*
b11111111111111111111111110011011 %+
0E+
1F+
1G+
0H+
b0 I+
b0 K+
b0 k+
b11 m+
b0 q+
b0 y+
b0 |+
b0 !,
b0 %,
b0 ',
b1 G,
b11 I,
b0 M,
b0 U,
b10 X,
b0 [,
b0 ],
b0 _,
b0 !-
b0 #-
b0 C-
0E-
0F-
0G-
b0 H-
0K-
0L-
b0 M-
0O-
0P-
b10 Q-
0S-
1T-
0U-
b0 V-
0Y-
0Z-
b0 [-
b0 ]-
b0 }-
b0 ".
b0 $.
b0 D.
b0 G.
b0 I.
b0 K.
b0 k.
b0 m.
b0 //
01/
02/
b0 3/
05/
06/
07/
b0 8/
0:/
b0 ;/
0=/
0>/
b10 ?/
0A/
1B/
b0 C/
b0 E/
b0 e/
b0 h/
b0 j/
b0 ,0
b0 /0
b0 10
b0 30
b0 50
b0 U0
b0 W0
b0 w0
b10 {0
0}0
1~0
0!1
b0 "1
0$1
0%1
b0 &1
0(1
0)1
b10 *1
1,1
b0 -1
0/1
001
b0 11
b0 41
b0 71
b11 :1
b11 =1
b11 @1
b11 C1
b11 F1
b11 I1
b0 L1
b0 O1
b0 R1
b0 U1
b0 X1
b0 [1
b100 ^1
b100 a1
b100 d1
b0 g1
b0 w1
b0 )2
092
1:2
0;2
$end
#128
1#
192
#147
b1011100110011000100000 K+
b1 k+
b1110111 q+
b10 |+
b11 Q-
1S-
b10 11
b1 L1
#148
b1 I+
b0 K+
b0 k+
b0 q+
b0 |+
b1 ],
b10 Q-
0S-
b10 V-
1Y-
b1011100110011000100000 ]-
b0 11
b0 L1
#149
b1 ;/
1=/
b10 41
b1 O1
#150
b11 ;/
1>/
#151
b1 [-
b1011100110011000100100 ]-
b1 I.
b1 ;/
0>/
b0 41
b0 O1
#152
b1011100110100000000000 K+
b1 k+
b11111111 q+
b10 |+
b11 Q-
1S-
b10 11
b1 L1
#153
b10 I+
b0 K+
b0 k+
b0 q+
b0 |+
b10 ],
b0 Q-
0S-
0T-
b0 11
b0 L1
#154
b1011100110011000100000 E/
1)1
b11 *1
b10 71
b1 R1
#155
b11 ;/
1>/
b1 C/
b1 30
0)1
b10 *1
b10 41
b0 71
b1 O1
b0 R1
#156
b10 [-
b1011100110011000101000 ]-
b10 I.
b1 ;/
0>/
b0 41
b0 O1
#157
b1011100110110000000000 K+
b1 k+
b11111111 q+
b10 |+
b1 Q-
1S-
b11 ;/
1>/
b1011100110011000100100 E/
1)1
b11 *1
b10 11
b10 41
b10 71
b1 L1
b1 O1
b1 R1
b1 w1
#158
b11 [-
b1011100110011000101100 ]-
b11 I.
b1 ;/
0>/
b10 C/
b10 30
0)1
b10 *1
b0 41
b0 71
b0 O1
b0 R1
#159
b11 ;/
1>/
b10 41
b1 O1
#160
b0 [-
b1011100110011000110000 ]-
b0 I.
b1 ;/
0>/
b1011100110011000101000 E/
1)1
b11 *1
b0 41
b10 71
b0 O1
b1 R1
b1 )2
#161
b11 ;/
1>/
b11 C/
b11 30
0)1
b10 *1
b10 41
b0 71
b1 O1
b0 R1
#162
b1 [-
b1011100110011000110100 ]-
b1 I.
b1 ;/
0>/
b0 41
b0 O1
#163
b1011100110011000101100 E/
1)1
b11 *1
b10 71
b1 R1
#164
b0 C/
b0 30
0)1
b10 *1
b0 71
b0 R1
#166
b11 ;/
1>/
b1011100110011000110000 E/
1)1
b11 *1
b10 41
b10 71
b1 O1
b1 R1
#167
b10 [-
b1011100110011000111000 ]-
b10 I.
b1 ;/
0>/
b1 C/
b1 30
0)1
b10 *1
b0 41
b0 71
b0 O1
b0 R1
#168
b11 ;/
1>/
b10 41
b1 O1
#169
b11 [-
b1011100110011000111100 ]-
b11 I.
b1 ;/
0>/
b1011100110011000110100 E/
1)1
b11 *1
b0 41
b10 71
b0 O1
b1 R1
#170
b11 ;/
1>/
b10 C/
b10 30
0)1
b10 *1
b10 41
b0 71
b1 O1
b0 R1
#171
b0 [-
b1011100110011001000000 ]-
b0 I.
b1 ;/
0>/
b0 41
b0 O1
#172
b11 ;/
1>/
b1011100110011000111000 E/
1)1
b11 *1
b10 41
b10 71
b1 O1
b1 R1
#173
b1 [-
b1011100110011001000100 ]-
b1 I.
b1 ;/
0>/
b11 C/
b11 30
0)1
b10 *1
b0 41
b0 71
b0 O1
b0 R1
#175
b1011100110011000111100 E/
1)1
b11 *1
b10 71
b1 R1
#176
b0 C/
b0 30
0)1
b10 *1
b0 71
b0 R1
#177
b11 ;/
1>/
b10 41
b1 O1
#178
b10 [-
b1011100110011001001000 ]-
b10 I.
b1 ;/
0>/
b1011100110011001000000 E/
1)1
b11 *1
b0 41
b10 71
b0 O1
b1 R1
#179
b11 ;/
1>/
b1 C/
b1 30
0)1
b10 *1
b10 41
b0 71
b1 O1
b0 R1
#180
b11 [-
b1011100110011001001100 ]-
b11 I.
b1 ;/
0>/
b0 41
b0 O1
#181
b11 ;/
1>/
b1011100110011001000100 E/
1)1
b11 *1
b10 41
b10 71
b1 O1
b1 R1
#182
b0 [-
b1011100110011001010000 ]-
b0 I.
b1 ;/
0>/
b10 C/
b10 30
0)1
b10 *1
b0 41
b0 71
b0 O1
b0 R1
#183
b11 ;/
1>/
b10 41
b1 O1
#184
b1 [-
b1011100110011001010100 ]-
b1 I.
b1 ;/
0>/
b1011100110011001001000 E/
1)1
b11 *1
b0 41
b10 71
b0 O1
b1 R1
#185
b11 C/
b11 30
0)1
b10 *1
b0 71
b0 R1
#187
b1011100110011001001100 E/
1)1
b11 *1
b10 71
b1 R1
#188
b11 ;/
1>/
b0 C/
b0 30
0)1
b10 *1
b10 41
b0 71
b1 O1
b0 R1
#189
b10 [-
b1011100110011001011000 ]-
b10 I.
b1 ;/
0>/
b0 41
b0 O1
#190
b11 ;/
1>/
b1011100110011001010000 E/
1)1
b11 *1
b10 41
b10 71
b1 O1
b1 R1
#191
b11 [-
b1011100110011001011100 ]-
b11 I.
b1 ;/
0>/
b1 C/
b1 30
0)1
b10 *1
b0 41
b0 71
b0 O1
b0 R1
#192
b11 ;/
1>/
b10 41
b1 O1
#193
b0 [-
b1011100110011001100000 ]-
b0 I.
b1 ;/
0>/
b1011100110011001010100 E/
1)1
b11 *1
b0 41
b10 71
b0 O1
b1 R1
#194
b11 ;/
1>/
b10 C/
b10 30
0)1
b10 *1
b10 41
b0 71
b1 O1
b0 R1
#195
b1 [-
b1011100110011001100100 ]-
b1 I.
b1 ;/
0>/
b0 41
b0 O1
#196
b1011100110011001011000 E/
1)1
b11 *1
b10 71
b1 R1
#197
b11 C/
b11 30
0)1
b10 *1
b0 71
b0 R1
#199
b11 ;/
1>/
b1011100110011001011100 E/
b11001000111100000100100111100100 50
1)1
b11 *1
b1 -1
1/1
b10 41
b10 71
b1 O1
b1 R1
#200
b10 [-
b1011100110011001101000 ]-
b10 I.
b1 ;/
0>/
b0 C/
b0 30
0)1
b10 *1
b11 -1
101
b0 41
b0 71
b0 O1
b111 [1
#201
b11 ;/
1>/
b11 C/
b11 30
b1101100110011111100010111100101 50
b0 *1
0,1
b1 -1
001
b10 41
b1 O1
b0 R1
b0 [1
#202
b11 [-
b1011100110011001101100 ]-
b11 I.
b1 ;/
0>/
b1011100110011001100000 E/
1)1
b11 *1
1,1
b0 41
b10 71
b0 O1
b1 R1
#203
b11 ;/
1>/
b0 C/
b0 30
0)1
b10 *1
b11 -1
101
b10 41
b0 71
b1 O1
b111 [1
#204
b0 [-
b1011100110011001110000 ]-
b0 I.
b1 ;/
0>/
b11 C/
b11 30
b1101110011101010110111001010010 50
b0 *1
0,1
b1 -1
001
b0 41
b0 O1
b0 R1
b0 [1
#205
b11 ;/
1>/
b1011100110011001100100 E/
1)1
b11 *1
1,1
b10 41
b10 71
b1 O1
b1 R1
#206
b1 [-
b1011100110011001110100 ]-
b1 I.
b1 ;/
0>/
b0 C/
b0 30
0)1
b10 *1
b11 -1
101
b0 41
b0 71
b0 O1
b111 [1
#207
b11 C/
b11 30
b10011010010011000001100000101001 50
b0 *1
0,1
b1 -1
001
b0 R1
b0 [1
#208
b1011100110011001101000 E/
1)1
b11 *1
1,1
b10 71
b1 R1
#209
b0 C/
b0 30
0)1
b10 *1
b11 -1
101
b0 71
b111 [1
#210
b11 ;/
1>/
b11 C/
b11 30
b11001000111100000100100111100100 50
b0 *1
0,1
b1 -1
001
b10 41
b1 O1
b0 R1
b0 [1
#211
b10 [-
b1011100110011001111000 ]-
b10 I.
b1 ;/
0>/
b1011100110011001101100 E/
1)1
b11 *1
1,1
b0 41
b10 71
b0 O1
b1 R1
#212
b11 ;/
1>/
b0 C/
b0 30
0)1
b10 *1
b10 41
b0 71
b1 O1
b0 R1
#213
b11 [-
b1011100110011001111100 ]-
b11 I.
b1 ;/
0>/
b0 *1
0,1
b11 -1
101
b0 41
b0 O1
b1 R1
b111 [1
#214
1p#
b10011010010011000001100000101001011011100111010101101110010100100110110011001111110001011110010111001000111100000100100111100100 Y&
b11 ;/
1>/
b11 C/
b1011100110011001110000 E/
b11 30
b1101100110011111100010111100101 50
1)1
b1 *1
b1 -1
001
b10 41
b10 71
b1 O1
b0 [1
#215
0p#
0q#
b0 [-
b1011100110011010000000 ]-
b0 I.
b1 ;/
0>/
b11 *1
1,1
b0 41
b0 O1
#216
b10011010111100001100010101010010011011100100110001001001111001010110110001110101000110001110010011001000110011110110111000101001 {'
b11 ;/
1>/
b0 C/
b0 30
0)1
b10 *1
b11 -1
101
b10 41
b0 71
b1 O1
b111 [1
#217
b110111000101110000011101001000011011100100110001001001111001010110110001110101000110001110010011001000110011110110111000101001 {'
b1 [-
b1011100110011010000100 ]-
b1 I.
b1 ;/
0>/
b11 C/
b11 30
b1101110011101010110111001010010 50
b0 *1
0,1
b1 -1
001
b0 41
b0 O1
b0 R1
b0 [1
#218
b110111000101110000011101001000010001010101110110100100001010100110110001110101000110001110010011001000110011110110111000101001 {'
b1011100110011001110100 E/
1)1
b11 *1
1,1
b10 71
b1 R1
#219
b110111000101110000011101001000010001010101110110100100001010101011100000111111001101001010111011001000110011110110111000101001 {'
b0 C/
b0 30
0)1
b10 *1
b11 -1
101
b0 71
b111 [1
#220
b110111000101110000011101001000010001010101110110100100001010101011100000111111001101001010111010110001010111110100010101001100 {'
b11 C/
b11 30
b10011010010011000001100000101001 50
b0 *1
0,1
b1 -1
001
b0 R1
b0 [1
#221
b10001101101110011110100001111001100101100110101000110100000001010101111000111001011000110111111100010101101011100100000011101011 {'
b11 ;/
1>/
b1011100110011001111000 E/
1)1
b11 *1
1,1
b10 41
b10 71
b1 O1
b1 R1
#222
b10110100110110111100100010101111100101100110101000110100000001010101111000111001011000110111111100010101101011100100000011101011 {'
b10 [-
b1011100110011010001000 ]-
b10 I.
b1 ;/
0>/
b0 C/
b0 30
0)1
b10 *1
b11 -1
101
b0 41
b0 71
b0 O1
b111 [1
#223
b10110100110110111100100010101111001101010101100000101000001101100101111000111001011000110111111100010101101011100100000011101011 {'
b11 ;/
1>/
b11 C/
b11 30
b11001000111100000100100111100100 50
b0 *1
0,1
b1 -1
001
b10 41
b1 O1
b0 R1
b0 [1
#224
b10110100110110111100100010101111001101010101100000101000001101101001110101011011000000000110101100010101101011100100000011101011 {'
b11 [-
b1011100110011010001100 ]-
b11 I.
b1 ;/
0>/
b1011100110011001111100 E/
1)1
b11 *1
1,1
b0 41
b10 71
b0 O1
b1 R1
#225
b10110100110110111100100010101111001101010101100000101000001101101001110101011011000000000110101100101111101111100111001000111100 {'
b11 ;/
1>/
b0 C/
b0 30
0)1
b10 *1
b10 41
b0 71
b1 O1
b0 R1
#226
b11001001011111100010011001010101010111010111111011111100111011101111101011011101101001010101100100000100100111111010011000011010 {'
b0 [-
b1011100110011010010000 ]-
b0 I.
b0 ;/
0=/
0>/
b0 *1
0,1
b11 -1
101
b0 41
b0 O1
b1 R1
b111 [1
#227
b10010100010100010001111101101010111010111111011111100111011101111101011011101101001010101100100000100100111111010011000011010 {'
b11 C/
b1011100110011010000000 E/
b11 30
b1101100110011111100010111100101 50
1)1
b1 *1
b1 -1
001
b10 71
b0 [1
#228
b10010100010100010001111101101100011011000101001010101100110011111101011011101101001010101100100000100100111111010011000011010 {'
b11 *1
1,1
#229
b10010100010100010001111101101100011011000101001010101100110010001010011001001001010010001010100000100100111111010011000011010 {'
b0 C/
b0 30
0)1
b10 *1
b11 -1
101
b0 71
b111 [1
#230
b10010100010100010001111101101100011011000101001010101100110010001010011001001001010010001010100110000011011101100010101000011 {'
b11 C/
b11 30
b1101110011101010110111001010010 50
b0 *1
0,1
b1 -1
001
b0 R1
b0 [1
#231
b101101110101010000110100110100000001111001010001101001111000101110100110101010101100000101001100110111111001110101001001011111 {'
b1011100110011010000100 E/
1)1
b11 *1
1,1
b10 71
b1 R1
#232
b11111010101101011111001100101000000001111001010001101001111000101110100110101010101100000101001100110111111001110101001001011111 {'
b0 C/
b0 30
0)1
b10 *1
b11 -1
101
b0 71
b111 [1
#233
b11111010101101011111001100101000001110001110011111100100001110111110100110101010101100000101001100110111111001110101001001011111 {'
b11 C/
b11 30
b10011010010011000001100000101001 50
b0 *1
0,1
b1 -1
001
b0 R1
b0 [1
#234
b11111010101101011111001100101000001110001110011111100100001110111110101101100010111111000101000000110111111001110101001001011111 {'
b1011100110011010001000 E/
1)1
b11 *1
1,1
b10 71
b1 R1
#235
b11111010101101011111001100101000001110001110011111100100001110111110101101100010111111000101000010110010101100000100100010000100 {'
b0 C/
b0 30
0)1
b10 *1
b11 -1
101
b0 71
b111 [1
#236
b1000010001110101001001010000100011100011110011011101001101101010001010101100101000110100110010000001111010000111100111111100001 {'
b11 C/
b11 30
b11001000111100000100100111100100 50
b0 *1
0,1
b1 -1
001
b0 R1
b0 [1
#237
b11110110101000100111010001001111011100011110011011101001101101010001010101100101000110100110010000001111010000111100111111100001 {'
b1011100110011010001100 E/
1)1
b11 *1
1,1
b10 71
b1 R1
#238
b11110110101000100111010001001111001011001111010111101011110100100001010101100101000110100110010000001111010000111100111111100001 {'
b0 C/
b0 30
0)1
b10 *1
b0 71
b0 R1
#239
b11110110101000100111010001001111001011001111010111101011110100100010111110111100010000111000110000001111010000111100111111100001 {'
b0 *1
0,1
b11 -1
101
b1 R1
b111 [1
#240
b11110110101000100111010001001111001011001111010111101011110100100010111110111100010000111000110011111011011001000101111111100000 {'
b11 C/
b11 30
b1101100110011111100010111100101 50
b1 -1
001
b0 R1
b0 [1
#241
b1111100000100101001110000000111111100011001111000011001010010011111111101000100001000010010101100110000100101110001010001000 {'
b10 *1
1,1
#242
b11111011000100010101000000111010111111100011001111000011001010010011111111101000100001000010010101100110000100101110001010001000 {'
b11 -1
101
b1 R1
b111 [1
#243
b11111011000100010101000000111010000011000110011000110011010011000011111111101000100001000010010101100110000100101110001010001000 {'
b10 C/
b10 30
b1101110011101010110111001010010 50
b1 -1
001
b0 R1
b0 [1
#244
b11111011000100010101000000111010000011000110011000110011010011000010010111001000010011111100001001100110000100101110001010001000 {'
#245
b11111011000100010101000000111010000011000110011000110011010011000010010111001000010011111100001011010011001110010011101110010111 {'
b11 -1
101
b1 R1
b111 [1
#246
b101000011111111110111101011100001001110110010101100101010010001111110101000000000000001000110111111000101001011110010100001010 {'
b1 C/
b1 30
b10011010010011000001100000101001 50
b1 -1
001
b0 R1
b0 [1
#247
b11101110011010110110000110100111001001110110010101100101010010001111110101000000000000001000110111111000101001011110010100001010 {'
#248
b11101110011010110110000110100111001111011011110010111100110101001111110101000000000000001000110111111000101001011110010100001010 {'
b11 -1
101
b1 R1
b111 [1
#249
b11101110011010110110000110100111001111011011110010111100110101000010000101110010010100101011010011111000101001011110010100001010 {'
b0 C/
b0 30
b1000011111100010011110001111011 50
b1 -1
001
b0 R1
b0 [1
#250
b11101110011010110110000110100111001111011011110010111100110101000010000101110010010100101011010011100001001010010010101010100011 {'
#251
b1110111110111110000111000101010001000101110010111010010011001010110001111001000110110110010000011011010111010010010010111001110 {'
#252
b10111011111101011110010101001000101110010111010010011001010110001111001000110110110010000011011010111010010010010111001110 {'
b11 -1
101
b1 R1
b111 [1
#253
b10111011111101011110010101100101000010101001111111101111000110001111001000110110110010000011011010111010010010010111001110 {'
b11 C/
b11 30
b1110110101101000100010111100100 50
b1 -1
001
b0 R1
b0 [1
#254
b10111011111101011110010101100101000010101001111111101111000000000010110001100111110101010011011010111010010010010111001110 {'
#255
b10111011111101011110010101100101000010101001111111101111000000000010110001100111110101010001111010111010111100001011101100 {'
b11 -1
101
b1 R1
b111 [1
#256
b110000100000000111001011011101111100010010100111000001000100010011100110010011100000010010111000110010011110000000101001110100 {'
b10 C/
b10 30
b11011111101010011110100000110 50
b1 -1
001
b0 R1
b0 [1
#257
b1000001110100001111011001001111100010010100111000001000100010011100110010011100000010010111000110010011110000000101001110100 {'
#258
b1000001110100001111011001001001010110100110011011101111000110011100110010011100000010010111000110010011110000000101001110100 {'
b11 -1
101
b1 R1
b111 [1
