.Xil/Vivado-390276-luiscarlos-GL552VX/hw_ila_data_1/zip_work/waveform.vcd
$date
        2023-May-12 09:54:27
$end
$version
        Vivado v2021.2 (64-bit)
$end
$timescale
        1ps
$end
$scope module dut $end
$var reg 1 " design_1_i/system_ila_0/inst/probe0_1 $end
$var reg 1 # design_1_i/system_ila_0/inst/probe1_1 $end
$var reg 1 $ design_1_i/system_ila_0/inst/probe2_1 $end
$var reg 1 % design_1_i/system_ila_0/inst/probe3_1 $end
$var reg 1 & design_1_i/system_ila_0/inst/probe4_1 $end
$var reg 1 ' design_1_i/system_ila_0/inst/probe5_1 $end
$var reg 1 ( design_1_i/system_ila_0/inst/SLOT_0_ICAP_csib_1 $end
$var reg 32 ) design_1_i/system_ila_0/inst/SLOT_0_ICAP_i_1 [31:0] $end
$var reg 32 I design_1_i/system_ila_0/inst/SLOT_0_ICAP_o_1 [31:0] $end
$var reg 1 i design_1_i/system_ila_0/inst/SLOT_0_ICAP_rdwrb_1 $end
$var reg 1 j design_1_i/system_ila_0/inst/SLOT_0_ICAP_avail_1 $end
$var reg 1 k design_1_i/system_ila_0/inst/SLOT_0_ICAP_prdone_1 $end
$var reg 1 l design_1_i/system_ila_0/inst/SLOT_0_ICAP_prerror_1 $end
$var reg 2 m design_1_i/system_ila_0/inst/net_slot_1_axi_ar_cnt [1:0] $end
$var reg 32 o design_1_i/system_ila_0/inst/net_slot_1_axi_araddr [31:0] $end
$var reg 2 1" design_1_i/system_ila_0/inst/net_slot_1_axi_arburst [1:0] $end
$var reg 4 3" design_1_i/system_ila_0/inst/net_slot_1_axi_arcache [3:0] $end
$var reg 8 7" design_1_i/system_ila_0/inst/net_slot_1_axi_arlen [7:0] $end
$var reg 3 ?" design_1_i/system_ila_0/inst/net_slot_1_axi_arprot [2:0] $end
$var reg 3 B" design_1_i/system_ila_0/inst/net_slot_1_axi_arsize [2:0] $end
$var reg 4 E" design_1_i/system_ila_0/inst/net_slot_1_axi_aruser [3:0] $end
$var reg 2 I" design_1_i/system_ila_0/inst/net_slot_1_axi_aw_cnt [1:0] $end
$var reg 32 K" design_1_i/system_ila_0/inst/net_slot_1_axi_awaddr [31:0] $end
$var reg 2 k" design_1_i/system_ila_0/inst/net_slot_1_axi_awburst [1:0] $end
$var reg 4 m" design_1_i/system_ila_0/inst/net_slot_1_axi_awcache [3:0] $end
$var reg 8 q" design_1_i/system_ila_0/inst/net_slot_1_axi_awlen [7:0] $end
$var reg 3 y" design_1_i/system_ila_0/inst/net_slot_1_axi_awprot [2:0] $end
$var reg 3 |" design_1_i/system_ila_0/inst/net_slot_1_axi_awsize [2:0] $end
$var reg 2 !# design_1_i/system_ila_0/inst/net_slot_1_axi_b_cnt [1:0] $end
$var reg 2 ## design_1_i/system_ila_0/inst/net_slot_1_axi_r_cnt [1:0] $end
$var reg 32 %# design_1_i/system_ila_0/inst/net_slot_1_axi_rdata [31:0] $end
$var reg 2 E# design_1_i/system_ila_0/inst/net_slot_1_axi_rresp [1:0] $end
$var reg 32 G# design_1_i/system_ila_0/inst/net_slot_1_axi_wdata [31:0] $end
$var reg 1 g# design_1_i/system_ila_0/inst/net_slot_1_axi_awvalid $end
$var reg 2 h# design_1_i/system_ila_0/inst/net_slot_1_axi_aw_ctrl [1:0] $end
$var reg 1 j# design_1_i/system_ila_0/inst/net_slot_1_axi_awready $end
$var reg 3 k# design_1_i/system_ila_0/inst/net_slot_1_axi_w_ctrl [2:0] $end
$var reg 1 n# design_1_i/system_ila_0/inst/net_slot_1_axi_wvalid $end
$var reg 1 o# design_1_i/system_ila_0/inst/net_slot_1_axi_wready $end
$var reg 1 p# design_1_i/system_ila_0/inst/net_slot_1_axi_wlast $end
$var reg 1 q# design_1_i/system_ila_0/inst/net_slot_1_axi_bvalid $end
$var reg 2 r# design_1_i/system_ila_0/inst/net_slot_1_axi_b_ctrl [1:0] $end
$var reg 1 t# design_1_i/system_ila_0/inst/net_slot_1_axi_bready $end
$var reg 2 u# design_1_i/system_ila_0/inst/net_slot_1_axi_ar_ctrl [1:0] $end
$var reg 1 w# design_1_i/system_ila_0/inst/net_slot_1_axi_arvalid $end
$var reg 1 x# design_1_i/system_ila_0/inst/net_slot_1_axi_arready $end
$var reg 1 y# design_1_i/system_ila_0/inst/net_slot_1_axi_rvalid $end
$var reg 3 z# design_1_i/system_ila_0/inst/net_slot_1_axi_r_ctrl [2:0] $end
$var reg 1 }# design_1_i/system_ila_0/inst/net_slot_1_axi_rready $end
$var reg 1 ~# design_1_i/system_ila_0/inst/net_slot_1_axi_rlast $end
$var reg 2 !$ design_1_i/system_ila_0/inst/net_slot_2_axi_ar_cnt [1:0] $end
$var reg 32 #$ design_1_i/system_ila_0/inst/net_slot_2_axi_araddr [31:0] $end
$var reg 2 C$ design_1_i/system_ila_0/inst/net_slot_2_axi_arburst [1:0] $end
$var reg 4 E$ design_1_i/system_ila_0/inst/net_slot_2_axi_arcache [3:0] $end
$var reg 8 I$ design_1_i/system_ila_0/inst/net_slot_2_axi_arlen [7:0] $end
$var reg 1 Q$ design_1_i/system_ila_0/inst/net_slot_2_axi_arlock $end
$var reg 3 R$ design_1_i/system_ila_0/inst/net_slot_2_axi_arprot [2:0] $end
$var reg 4 U$ design_1_i/system_ila_0/inst/net_slot_2_axi_arqos [3:0] $end
$var reg 3 Y$ design_1_i/system_ila_0/inst/net_slot_2_axi_arsize [2:0] $end
$var reg 2 \$ design_1_i/system_ila_0/inst/net_slot_2_axi_aw_cnt [1:0] $end
$var reg 32 ^$ design_1_i/system_ila_0/inst/net_slot_2_axi_awaddr [31:0] $end
$var reg 2 ~$ design_1_i/system_ila_0/inst/net_slot_2_axi_awburst [1:0] $end
$var reg 4 "% design_1_i/system_ila_0/inst/net_slot_2_axi_awcache [3:0] $end
$var reg 8 &% design_1_i/system_ila_0/inst/net_slot_2_axi_awlen [7:0] $end
$var reg 1 .% design_1_i/system_ila_0/inst/net_slot_2_axi_awlock $end
$var reg 3 /% design_1_i/system_ila_0/inst/net_slot_2_axi_awprot [2:0] $end
$var reg 4 2% design_1_i/system_ila_0/inst/net_slot_2_axi_awqos [3:0] $end
$var reg 3 6% design_1_i/system_ila_0/inst/net_slot_2_axi_awsize [2:0] $end
$var reg 2 9% design_1_i/system_ila_0/inst/net_slot_2_axi_b_cnt [1:0] $end
$var reg 2 ;% design_1_i/system_ila_0/inst/net_slot_2_axi_bresp [1:0] $end
$var reg 2 =% design_1_i/system_ila_0/inst/net_slot_2_axi_r_cnt [1:0] $end
$var reg 32 ?% design_1_i/system_ila_0/inst/net_slot_2_axi_rdata [31:0] $end
$var reg 2 _% design_1_i/system_ila_0/inst/net_slot_2_axi_rresp [1:0] $end
$var reg 32 a% design_1_i/system_ila_0/inst/net_slot_2_axi_wdata [31:0] $end
$var reg 4 #& design_1_i/system_ila_0/inst/net_slot_2_axi_wstrb [3:0] $end
$var reg 2 '& design_1_i/system_ila_0/inst/net_slot_2_axi_aw_ctrl [1:0] $end
$var reg 1 )& design_1_i/system_ila_0/inst/net_slot_2_axi_awvalid $end
$var reg 1 *& design_1_i/system_ila_0/inst/net_slot_2_axi_awready $end
$var reg 1 +& design_1_i/system_ila_0/inst/net_slot_2_axi_wvalid $end
$var reg 3 ,& design_1_i/system_ila_0/inst/net_slot_2_axi_w_ctrl [2:0] $end
$var reg 1 /& design_1_i/system_ila_0/inst/net_slot_2_axi_wready $end
$var reg 1 0& design_1_i/system_ila_0/inst/net_slot_2_axi_wlast $end
$var reg 2 1& design_1_i/system_ila_0/inst/net_slot_2_axi_b_ctrl [1:0] $end
$var reg 1 3& design_1_i/system_ila_0/inst/net_slot_2_axi_bvalid $end
$var reg 1 4& design_1_i/system_ila_0/inst/net_slot_2_axi_bready $end
$var reg 1 5& design_1_i/system_ila_0/inst/net_slot_2_axi_arvalid $end
$var reg 2 6& design_1_i/system_ila_0/inst/net_slot_2_axi_ar_ctrl [1:0] $end
$var reg 1 8& design_1_i/system_ila_0/inst/net_slot_2_axi_arready $end
$var reg 1 9& design_1_i/system_ila_0/inst/net_slot_2_axi_rvalid $end
$var reg 3 :& design_1_i/system_ila_0/inst/net_slot_2_axi_r_ctrl [2:0] $end
$var reg 1 =& design_1_i/system_ila_0/inst/net_slot_2_axi_rready $end
$var reg 1 >& design_1_i/system_ila_0/inst/net_slot_2_axi_rlast $end
$var reg 32 ?& design_1_i/system_ila_0/inst/net_slot_3_axis_tdata [31:0] $end
$var reg 3 _& design_1_i/system_ila_0/inst/net_slot_3_axis_tid [2:0] $end
$var reg 4 b& design_1_i/system_ila_0/inst/net_slot_3_axis_tkeep [3:0] $end
$var reg 1 f& design_1_i/system_ila_0/inst/net_slot_3_axis_tvalid $end
$var reg 1 g& design_1_i/system_ila_0/inst/net_slot_3_axis_tready $end
$var reg 1 h& design_1_i/system_ila_0/inst/net_slot_3_axis_tlast $end
$var reg 3 i& AR_Channel__i1_s1___dfx_controller_0_M_AXI_MEM_ [2:0] $end
$var reg 3 l& AR_Channel__i1_s2___axi_mm2s_mapper_0_M_AXI_ [2:0] $end
$var reg 3 o& AW_Channel__i1_s1___dfx_controller_0_M_AXI_MEM_ [2:0] $end
$var reg 3 r& AW_Channel__i1_s2___axi_mm2s_mapper_0_M_AXI_ [2:0] $end
$var reg 3 u& B_Channel__i1_s1___dfx_controller_0_M_AXI_MEM_ [2:0] $end
$var reg 3 x& B_Channel__i1_s2___axi_mm2s_mapper_0_M_AXI_ [2:0] $end
$var reg 3 {& Interface__i1_s1___dfx_controller_0_M_AXI_MEM_ [2:0] $end
$var reg 3 ~& Interface__i1_s2___axi_mm2s_mapper_0_M_AXI_ [2:0] $end
$var reg 3 #' Interface__i1_s3___axi_mm2s_mapper_0_M_AXIS_ [2:0] $end
$var reg 3 &' R_Channel__i1_s1___dfx_controller_0_M_AXI_MEM_ [2:0] $end
$var reg 3 )' R_Channel__i1_s2___axi_mm2s_mapper_0_M_AXI_ [2:0] $end
$var reg 3 ,' T_Channel__i1_s3___axi_mm2s_mapper_0_M_AXIS_ [2:0] $end
$var reg 3 /' W_Channel__i1_s1___dfx_controller_0_M_AXI_MEM_ [2:0] $end
$var reg 3 2' W_Channel__i1_s2___axi_mm2s_mapper_0_M_AXI_ [2:0] $end
$var reg 16 5' ila_1___slot_1___dfx_controller_0_M_AXI_MEM___Read_Transactions_0 [15:0] $end
$var reg 16 E' ila_1___slot_2___axi_mm2s_mapper_0_M_AXI___Read_Transactions_0 [15:0] $end
$var reg 1 U' _TRIGGER $end
$var reg 1 V' _WINDOW $end
$var reg 1 W' _GAP $end
$upscope $end
$enddefinitions $end
#0
$dumpvars
0"
0#
1$
0%
0&
0'
1(
b100000000000000000000000000 )
b11111111111111111111111110011011 I
0i
1j
1k
0l
b0 m
b0 o
b0 1"
b11 3"
b0 7"
b0 ?"
b0 B"
b0 E"
b0 I"
b0 K"
b1 k"
b11 m"
b0 q"
b0 y"
b10 |"
b0 !#
b0 ##
b100000000000000000000000000000 %#
b0 E#
b0 G#
0g#
b10 h#
1j#
b0 k#
0n#
0o#
0p#
0q#
b0 r#
0t#
b10 u#
0w#
1x#
0y#
b0 z#
0}#
0~#
b0 !$
b1000111111000000000000 #$
b1 C$
b11 E$
b11111111 I$
0Q$
b0 R$
b0 U$
b10 Y$
b0 \$
b0 ^$
b0 ~$
b0 "%
b0 &%
0.%
b0 /%
b0 2%
b0 6%
b0 9%
b0 ;%
b0 =%
b0 ?%
b0 _%
b0 a%
b0 #&
b10 '&
0)&
1*&
0+&
b0 ,&
0/&
00&
b10 1&
03&
14&
05&
b10 6&
18&
09&
b10 :&
1=&
0>&
b0 ?&
b11 _&
b1111 b&
0f&
0g&
0h&
b0 i&
b0 l&
b11 o&
b11 r&
b11 u&
b11 x&
b0 {&
b0 ~&
b0 #'
b0 &'
b0 )'
b0 ,'
b100 /'
b100 2'
b0 5'
b0 E'
0U'
1V'
0W'
$end
#2048
1#
1U'
#2067
b10011111000001111100000 o
b1 1"
b111 7"
b10 B"
b11 u#
1w#
b10 i&
b1 {&
#2068
b1 m
b0 o
b0 1"
b0 7"
b0 B"
b1 ##
b0 u#
0w#
0x#
b10 z#
1}#
b0 i&
b0 {&
#2069
b10011111000001111100000 ?&
b10 _&
1f&
1g&
b1 #'
b1 ,'
#2070
b10 u#
1x#
b111001101010000 ?&
1h&
b10 ,'
#2071
b100 ,&
10&
b0 ?&
0f&
0g&
0h&
b0 #'
b0 ,'
#2072
b10011111000010000000000 o
b1 1"
b11111111 7"
b10 B"
b11 u#
1w#
b10011111000001111100000 #$
b111 I$
b0 ,&
00&
15&
b11 6&
b10 i&
b10 l&
b1 {&
b1 ~&
#2073
b10 m
b0 o
b0 1"
b0 7"
b0 B"
b10 ##
b0 u#
0w#
0x#
b1 !$
b1000111111010000000000 #$
b11111111 I$
b1 =%
05&
b10 6&
b10011111000010000000000 ?&
b0 i&
b0 l&
b0 {&
b0 ~&
#2074
1f&
1g&
b1 #'
b1 ,'
#2075
b10 u#
1x#
b11111111001101010000 ?&
1h&
b10 ,'
#2076
b100 ,&
10&
b0 ?&
0f&
0g&
0h&
b0 #'
b0 ,'
#2077
b10011111000100000000000 o
b1 1"
b11111111 7"
b10 B"
b11 u#
1w#
b10011111000010000000000 #$
b0 ,&
00&
15&
b11 6&
b10 i&
b10 l&
b1 {&
b1 ~&
b1 5'
#2078
b11 m
b0 o
b0 1"
b0 7"
b0 B"
b11 ##
b0 u#
0w#
0x#
b10 !$
b1000111111100000000000 #$
b10 =%
05&
b10 6&
b10011111000100000000000 ?&
b0 i&
b0 l&
b0 {&
b0 ~&
#2079
1f&
1g&
b1 #'
b1 ,'
#2080
b10 u#
1x#
b11111111001101010000 ?&
1h&
b10 ,'
#2081
b100 ,&
10&
b0 ?&
0f&
0g&
0h&
b0 #'
b0 ,'
#2082
b10011111000110000000000 o
b1 1"
b11111111 7"
b10 B"
b11 u#
1w#
b10011111000100000000000 #$
b0 ,&
00&
15&
b11 6&
b10 i&
b10 l&
b1 {&
b1 ~&
b1 E'
#2083
b0 m
b0 o
b0 1"
b0 7"
b0 B"
b0 ##
b0 u#
0w#
0x#
b11 !$
b1000111111110000000000 #$
b11 =%
05&
b10 6&
b10011111000110000000000 ?&
b0 i&
b0 l&
b0 {&
b0 ~&
#2084
1f&
1g&
b1 #'
b1 ,'
#2085
b10 u#
1x#
b11111111001101010000 ?&
1h&
b10 ,'
#2086
b100 ,&
10&
b0 ?&
0f&
0g&
0h&
b0 #'
b0 ,'
#2087
b10011111001000000000000 o
b1 1"
b11111111 7"
b10 B"
b11 u#
1w#
b10011111000110000000000 #$
b0 ,&
00&
15&
b11 6&
b10 i&
b10 l&
b1 {&
b1 ~&
#2088
b1 m
b0 o
b0 1"
b0 7"
b0 B"
b1 ##
b0 u#
0w#
0x#
b0 !$
b1001000000000000000000 #$
b0 =%
05&
b10 6&
b10011111001000000000000 ?&
b0 i&
b0 l&
b0 {&
b0 ~&
#2089
1f&
1g&
b1 #'
b1 ,'
#2090
b10 u#
1x#
b11111111001101010000 ?&
1h&
b10 ,'
#2091
b100 ,&
10&
b0 ?&
0f&
0g&
0h&
b0 #'
b0 ,'
#2092
b10011111001000000000000 #$
b0 ,&
00&
15&
b11 6&
b10 l&
b1 ~&
#2093
b1 !$
b1001000000010000000000 #$
b1 =%
05&
b10 6&
b0 l&
b0 ~&
#2137
b11111111111111111111111111111111 ?%
19&
b11 :&
b1 ~&
b1 )'
#2138
b1 :&
0=&
b0 ~&
b0 )'
#2139
b11111111111111111111111111111111 ?&
b11 _&
1f&
1g&
b1 #'
b1 ,'
#2140
b11 E#
b110 z#
1~#
b1111 #&
b100 ,&
10&
b11 :&
1=&
b0 ?&
b1 b&
1h&
b1 ~&
b1 )'
b10 ,'
#2141
b11111111111111111111111111111111 %#
b0 E#
1y#
b11 z#
0~#
b0 #&
b0 ,&
00&
b1 :&
0=&
b11111111111111111111111111111111 ?&
b1111 b&
0f&
0g&
0h&
b1 {&
b0 ~&
b0 #'
b1 &'
b0 )'
b0 ,'
#2142
0y#
b10 z#
b1111 #&
b100 ,&
10&
1f&
1g&
b0 {&
b1 #'
b0 &'
b1 ,'
#2143
b11 E#
b110 z#
1~#
b11 :&
1=&
b0 ?&
b1 b&
1h&
b1 ~&
b1 )'
b10 ,'
#2144
b0 E#
1y#
b11 z#
0~#
b0 #&
b0 ,&
00&
b1 :&
0=&
b11111111111111111111111111111111 ?&
b1111 b&
0f&
0g&
0h&
b1 {&
b0 ~&
b0 #'
b1 &'
b0 )'
b0 ,'
#2145
0y#
b10 z#
b1111 #&
b100 ,&
10&
1f&
1g&
b0 {&
b1 #'
b0 &'
b1 ,'
#2146
b11 E#
b110 z#
1~#
b11 :&
1=&
b0 ?&
b1 b&
1h&
b1 ~&
b1 )'
b10 ,'
#2147
b0 E#
1y#
b11 z#
0~#
b0 #&
b0 ,&
00&
b1 :&
0=&
b11111111111111111111111111111111 ?&
b1111 b&
0f&
0g&
0h&
b1 {&
b0 ~&
b0 #'
b1 &'
b0 )'
b0 ,'
#2148
0y#
b10 z#
b1111 #&
b100 ,&
10&
1f&
1g&
b0 {&
b1 #'
b0 &'
b1 ,'
#2149
b11 E#
b110 z#
1~#
b11 :&
1=&
b0 ?&
b1 b&
1h&
b1 ~&
b1 )'
b10 ,'
#2150
b0 E#
1y#
b11 z#
0~#
b0 #&
b0 ,&
00&
b1 :&
0=&
b11111111111111111111111111111111 ?&
b1111 b&
0f&
0g&
0h&
b1 {&
b0 ~&
b0 #'
b1 &'
b0 )'
b0 ,'
#2151
0y#
b10 z#
b1111 #&
b100 ,&
10&
1f&
1g&
b0 {&
b1 #'
b0 &'
b1 ,'
#2152
b11 E#
b110 z#
1~#
b11 :&
1=&
b0 ?&
b1 b&
1h&
b1 ~&
b1 )'
b10 ,'
#2153
b0 E#
1y#
b11 z#
0~#
b0 #&
b0 ,&
00&
b1 :&
0=&
b11111111111111111111111111111111 ?&
b1111 b&
0f&
0g&
0h&
b1 {&
b0 ~&
b0 #'
b1 &'
b0 )'
b0 ,'
#2154
0(
b11111111111111111111111111111111 )
0y#
b10 z#
b1111 #&
b100 ,&
10&
1f&
1g&
b0 {&
b1 #'
b0 &'
b1 ,'
#2155
1(
b11 E#
b110 z#
1~#
b11 :&
1=&
b0 ?&
b1 b&
1h&
b1 ~&
b1 )'
b10 ,'
#2156
0(
b0 E#
1y#
b11 z#
0~#
b0 #&
b0 ,&
00&
b101 :&
0=&
1>&
b11111111111111111111111111111111 ?&
b1111 b&
0f&
0g&
0h&
b1 {&
b0 ~&
b0 #'
b1 &'
b0 )'
b0 ,'
#2157
1(
0y#
b10 z#
b1111 #&
b100 ,&
10&
1f&
1g&
b0 {&
b1 #'
b0 &'
b1 ,'
#2158
b11 E#
b110 z#
1~#
b111 :&
1=&
b0 ?&
b1 b&
1h&
b1 ~&
b111 )'
b10 ,'
#2159
0(
b0 E#
1y#
b11 z#
0~#
b0 !$
b0 =%
b0 #&
b0 ,&
00&
b1 :&
0=&
0>&
b11111111111111111111111111111111 ?&
b1111 b&
0f&
0g&
0h&
b1 {&
b0 ~&
b0 #'
b1 &'
b0 )'
b0 ,'
#2160
1(
0y#
b10 z#
b1111 #&
b100 ,&
10&
1f&
1g&
b0 {&
b1 #'
b0 &'
b1 ,'
#2161
b11 E#
b110 z#
1~#
b11 :&
1=&
b100 ?&
b1 b&
1h&
b1 ~&
b1 )'
b10 ,'
#2162
0(
b0 E#
1y#
b111 z#
b100 #&
b0 ,&
00&
b1 :&
0=&
b11111111111111111111111111111111 ?&
b1111 b&
0f&
0g&
0h&
b1 {&
b0 ~&
b0 #'
b111 &'
b0 )'
b0 ,'
#2163
1(
b0 m
b0 ##
0y#
b110 z#
b1111 #&
b100 ,&
10&
1f&
1g&
b0 {&
b1 #'
b0 &'
b1 ,'
#2164
b11 E#
b11 :&
1=&
b0 ?&
b1 b&
1h&
b1 ~&
b1 )'
b10 ,'
#2165
0(
b0 E#
1y#
b11 z#
0~#
b0 #&
b0 ,&
00&
b1 :&
0=&
b11111111111111111111111111111111 ?&
b1111 b&
0f&
0g&
0h&
b1 {&
b0 ~&
b0 #'
b1 &'
b0 )'
b0 ,'
#2166
1(
0y#
b10 z#
b1111 #&
b100 ,&
10&
1f&
1g&
b0 {&
b1 #'
b0 &'
b1 ,'
#2167
b11 E#
b110 z#
1~#
b11 :&
1=&
b0 ?&
b1 b&
1h&
b1 ~&
b1 )'
b10 ,'
#2168
0(
b0 E#
1y#
b11 z#
0~#
b0 #&
b0 ,&
00&
b1 :&
0=&
b11111111111111111111111111111111 ?&
b1111 b&
0f&
0g&
0h&
b1 {&
b0 ~&
b0 #'
b1 &'
b0 )'
b0 ,'
#2169
1(
0y#
b10 z#
b1111 #&
b100 ,&
10&
1f&
1g&
b0 {&
b1 #'
b0 &'
b1 ,'
#2170
b10011111001010000000000 o
b1 1"
b11111111 7"
b10 B"
b11 E#
b11 u#
1w#
b110 z#
1~#
b11 :&
1=&
b0 ?&
b1 b&
1h&
b10 i&
b1 {&
b1 ~&
b1 )'
b10 ,'
#2171
0(
b1 m
b0 o
b0 1"
b0 7"
b0 B"
b1 ##
b0 E#
b0 u#
0w#
0x#
1y#
b11 z#
0~#
b0 #&
b0 ,&
00&
b1 :&
0=&
b11111111111111111111111111111111 ?&
b1111 b&
0f&
0g&
0h&
b0 i&
b0 ~&
b0 #'
b1 &'
b0 )'
b0 ,'
#2172
1(
0y#
b10 z#
b1111 #&
b100 ,&
10&
b10011111001010000000000 ?&
b10 _&
1f&
1g&
b0 {&
b1 #'
b0 &'
b1 ,'
#2173
b10 u#
1x#
b0 #&
b0 ,&
00&
b11111111001101010000 ?&
1h&
b10 ,'
#2174
0(
b100 ,&
10&
b11111111111111111111111111111111 ?&
b11 _&
0h&
b1 ,'
#2175
1(
b11 E#
b110 z#
1~#
b10011111001010000000000 #$
b1111 #&
15&
b11 6&
b11 :&
1=&
b0 ?&
b1 b&
1h&
b10 l&
b1 ~&
b1 )'
b10 ,'
#2176
b0 E#
1y#
b11 z#
0~#
b1 !$
b1001000000100000000000 #$
b1 =%
b0 #&
b0 ,&
00&
05&
b10 6&
b1 :&
0=&
b11111111111111111111111111111111 ?&
b1111 b&
0f&
0g&
0h&
b0 l&
b1 {&
b0 ~&
b0 #'
b1 &'
b0 )'
b0 ,'
#2177
0(
0y#
b10 z#
b1111 #&
b100 ,&
10&
1f&
1g&
b0 {&
b1 #'
b0 &'
b1 ,'
#2178
1(
b11 E#
b110 z#
1~#
b11 :&
1=&
b0 ?&
b1 b&
1h&
b1 ~&
b1 )'
b10 ,'
#2179
b0 E#
1y#
b11 z#
0~#
b0 #&
b0 ,&
00&
b1 :&
0=&
b11111111111111111111111111111111 ?&
b1111 b&
0f&
0g&
0h&
b1 {&
b0 ~&
b0 #'
b1 &'
b0 )'
b0 ,'
#2180
0(
0y#
b10 z#
b1111 #&
b100 ,&
10&
1f&
1g&
b0 {&
b1 #'
b0 &'
b1 ,'
#2181
1(
b11 E#
b110 z#
1~#
b11 :&
1=&
b0 ?&
b1 b&
1h&
b1 ~&
b1 )'
b10 ,'
#2182
b0 E#
1y#
b11 z#
0~#
b0 #&
b0 ,&
00&
b1 :&
0=&
b11111111111111111111111111111111 ?&
b1111 b&
0f&
0g&
0h&
b1 {&
b0 ~&
b0 #'
b1 &'
b0 )'
b0 ,'
#2183
0(
0y#
b10 z#
b1111 #&
b100 ,&
10&
1f&
1g&
b0 {&
b1 #'
b0 &'
b1 ,'
#2184
1(
b11 E#
b110 z#
1~#
b11 :&
1=&
b0 ?&
b1 b&
1h&
b1 ~&
b1 )'
b10 ,'
#2185
b0 E#
1y#
b11 z#
0~#
b10111011 ?%
b0 #&
b0 ,&
00&
b1 :&
0=&
b11111111111111111111111111111111 ?&
b1111 b&
0f&
0g&
0h&
b1 {&
b0 ~&
b0 #'
b1 &'
b0 )'
b0 ,'
#2186
0y#
b10 z#
b1111 #&
b100 ,&
10&
1f&
1g&
b0 {&
b1 #'
b0 &'
b1 ,'
#2187
b11 E#
b110 z#
1~#
b11 :&
1=&
b0 ?&
b1 b&
1h&
b1 ~&
b1 )'
b10 ,'
#2188
0(
b0 E#
1y#
b11 z#
0~#
b10001001000100000000001000100 ?%
b0 #&
b0 ,&
00&
b1 :&
0=&
b10111011 ?&
b1111 b&
0f&
0g&
0h&
b1 {&
b0 ~&
b0 #'
b1 &'
b0 )'
b0 ,'
#2189
1(
0y#
b10 z#
b1011 #&
b100 ,&
10&
1f&
1g&
b0 {&
b1 #'
b0 &'
b1 ,'
#2190
b11 E#
b11 :&
1=&
b0 ?&
b1 b&
1h&
b1 ~&
b1 )'
b10 ,'
#2191
0(
b10111011 %#
b0 E#
1y#
b11 z#
b11111111111111111111111111111111 ?%
b0 #&
b0 ,&
00&
b1 :&
0=&
b10001001000100000000001000100 ?&
b1111 b&
0f&
0g&
0h&
b1 {&
b0 ~&
b0 #'
b1 &'
b0 )'
b0 ,'
#2192
1(
0y#
b10 z#
b100 #&
1f&
1g&
b0 {&
b1 #'
b0 &'
b1 ,'
#2193
b110 z#
1~#
b11 :&
1=&
b0 ?&
b1 b&
1h&
b1 ~&
b1 )'
b10 ,'
#2194
0(
b10001001000100000000001000100 %#
1y#
b11 z#
0~#
b0 #&
b1 :&
0=&
b11111111111111111111111111111111 ?&
b1111 b&
0f&
0g&
0h&
b1 {&
b0 ~&
b0 #'
b1 &'
b0 )'
b0 ,'
#2195
1(
0y#
b10 z#
b1111 #&
b100 ,&
10&
1f&
1g&
b0 {&
b1 #'
b0 &'
b1 ,'
#2196
b11 E#
b110 z#
1~#
b11 :&
1=&
b0 ?&
b1 b&
1h&
b1 ~&
b1 )'
b10 ,'
#2197
0(
b11111111111111111111111111111111 %#
b0 E#
1y#
b11 z#
0~#
b10101010100110010101010101100110 ?%
b0 #&
b0 ,&
00&
b1 :&
0=&
b11111111111111111111111111111111 ?&
b1111 b&
0f&
0g&
0h&
b1 {&
b0 ~&
b0 #'
b1 &'
b0 )'
b0 ,'
#2198
1(
0y#
b10 z#
b1111 #&
b100 ,&
10&
1f&
1g&
b0 {&
b1 #'
b0 &'
b1 ,'
#2199
b11 E#
b110 z#
1~#
b11 :&
1=&
b0 ?&
b1 b&
1h&
b1 ~&
b1 )'
b10 ,'
#2200
0(
b0 E#
1y#
b11 z#
0~#
b100000000000000000000000000000 ?%
b0 #&
b0 ,&
00&
b1 :&
0=&
b10101010100110010101010101100110 ?&
b1111 b&
0f&
0g&
0h&
b1 {&
b0 ~&
b0 #'
b1 &'
b0 )'
b0 ,'
#2201
1(
b11011101 )
0y#
b10 z#
b110 #&
1f&
1g&
b0 {&
b1 #'
b0 &'
b1 ,'
#2202
b10 E#
b110 z#
1~#
b11 :&
1=&
b0 ?&
b1 b&
1h&
b1 ~&
b1 )'
b10 ,'
#2203
0(
b10101010100110010101010101100110 %#
b0 E#
1y#
b11 z#
0~#
b0 #&
b1 :&
0=&
b100000000000000000000000000000 ?&
b1111 b&
0f&
0g&
0h&
b1 {&
b0 ~&
b0 #'
b1 &'
b0 )'
b0 ,'
#2204
1(
b10001000010001000000000000100010 )
0y#
b10 z#
1f&
1g&
b0 {&
b1 #'
b0 &'
b1 ,'
#2205
b11 :&
1=&
b0 ?&
b1 b&
1h&
b1 ~&
b1 )'
b10 ,'
#2206
0(
b100000000000000000000000000000 %#
1y#
b11 z#
b1 :&
0=&
b100000000000000000000000000000 ?&
b1111 b&
0f&
0g&
0h&
b1 {&
b0 ~&
b0 #'
b1 &'
b0 )'
b0 ,'
#2207
1(
b11111111111111111111111111111111 )
0y#
b10 z#
1f&
1g&
b0 {&
b1 #'
b0 &'
b1 ,'
#2208
b11 :&
1=&
b0 ?&
b1 b&
1h&
b1 ~&
b1 )'
b10 ,'
#2209
0(
1y#
b11 z#
b1 :&
0=&
b100000000000000000000000000000 ?&
b1111 b&
0f&
0g&
0h&
b1 {&
b0 ~&
b0 #'
b1 &'
b0 )'
b0 ,'
#2210
1(
0y#
b10 z#
1f&
1g&
b0 {&
b1 #'
b0 &'
b1 ,'
#2211
b11 :&
1=&
b0 ?&
b1 b&
1h&
b1 ~&
b1 )'
b10 ,'
#2212
0(
1y#
b11 z#
b1 :&
0=&
b100000000000000000000000000000 ?&
b1111 b&
0f&
0g&
0h&
b1 {&
b0 ~&
b0 #'
b1 &'
b0 )'
b0 ,'
#2213
1(
b1010101100110011010101001100110 )
0y#
b10 z#
1f&
1g&
b0 {&
b1 #'
b0 &'
b1 ,'
#2214
b11 :&
1=&
b0 ?&
b1 b&
1h&
b1 ~&
b1 )'
b10 ,'
#2215
0(
1y#
b11 z#
b1 :&
0=&
b100000000000000000000000000000 ?&
b1111 b&
0f&
0g&
0h&
b1 {&
b0 ~&
b0 #'
b1 &'
b0 )'
b0 ,'
#2216
1(
b100000000000000000000000000 )
0y#
b10 z#
1f&
1g&
b0 {&
b1 #'
b0 &'
b1 ,'
#2217
b11111111111111111111111111011011 I
b11 :&
1=&
b0 ?&
b1 b&
1h&
b1 ~&
b1 )'
b10 ,'
#2218
0(
1y#
b11 z#
b1 :&
0=&
b100000000000000000000000000000 ?&
b1111 b&
0f&
0g&
0h&
b1 {&
b0 ~&
b0 #'
b1 &'
b0 )'
b0 ,'
#2219
1(
0y#
b10 z#
1f&
1g&
b0 {&
b1 #'
b0 &'
b1 ,'
#2220
b11 :&
1=&
b0 ?&
b1 b&
1h&
b1 ~&
b1 )'
b10 ,'
#2221
0(
1y#
b11 z#
b1 :&
0=&
b100000000000000000000000000000 ?&
b1111 b&
0f&
0g&
0h&
b1 {&
b0 ~&
b0 #'
b1 &'
b0 )'
b0 ,'
