.Xil/Vivado-11015-luiscarlos-GL552VX/hw_ila_data_1/zip_work/waveform.vcd
$date
        2023-May-17 15:44:13
$end
$version
        Vivado v2021.2 (64-bit)
$end
$timescale
        1ps
$end
$scope module dut $end
$var reg 1 " design_1_i/system_ila_0/inst/probe0_1 $end
$var reg 1 # design_1_i/system_ila_0/inst/probe1_1 $end
$var reg 1 $ design_1_i/system_ila_0/inst/probe2_1 $end
$var reg 1 % design_1_i/system_ila_0/inst/probe3_1 $end
$var reg 1 & design_1_i/system_ila_0/inst/probe4_1 $end
$var reg 1 ' design_1_i/system_ila_0/inst/probe5_1 $end
$var reg 1 ( design_1_i/system_ila_0/inst/SLOT_0_ICAP_csib_1 $end
$var reg 32 ) design_1_i/system_ila_0/inst/SLOT_0_ICAP_i_1 [31:0] $end
$var reg 32 I design_1_i/system_ila_0/inst/SLOT_0_ICAP_o_1 [31:0] $end
$var reg 1 i design_1_i/system_ila_0/inst/SLOT_0_ICAP_rdwrb_1 $end
$var reg 1 j design_1_i/system_ila_0/inst/SLOT_0_ICAP_avail_1 $end
$var reg 1 k design_1_i/system_ila_0/inst/SLOT_0_ICAP_prdone_1 $end
$var reg 1 l design_1_i/system_ila_0/inst/SLOT_0_ICAP_prerror_1 $end
$var reg 2 m design_1_i/system_ila_0/inst/net_slot_1_axi_ar_cnt [1:0] $end
$var reg 32 o design_1_i/system_ila_0/inst/net_slot_1_axi_araddr [31:0] $end
$var reg 2 1" design_1_i/system_ila_0/inst/net_slot_1_axi_arburst [1:0] $end
$var reg 4 3" design_1_i/system_ila_0/inst/net_slot_1_axi_arcache [3:0] $end
$var reg 8 7" design_1_i/system_ila_0/inst/net_slot_1_axi_arlen [7:0] $end
$var reg 3 ?" design_1_i/system_ila_0/inst/net_slot_1_axi_arprot [2:0] $end
$var reg 3 B" design_1_i/system_ila_0/inst/net_slot_1_axi_arsize [2:0] $end
$var reg 4 E" design_1_i/system_ila_0/inst/net_slot_1_axi_aruser [3:0] $end
$var reg 2 I" design_1_i/system_ila_0/inst/net_slot_1_axi_aw_cnt [1:0] $end
$var reg 32 K" design_1_i/system_ila_0/inst/net_slot_1_axi_awaddr [31:0] $end
$var reg 2 k" design_1_i/system_ila_0/inst/net_slot_1_axi_awburst [1:0] $end
$var reg 4 m" design_1_i/system_ila_0/inst/net_slot_1_axi_awcache [3:0] $end
$var reg 8 q" design_1_i/system_ila_0/inst/net_slot_1_axi_awlen [7:0] $end
$var reg 3 y" design_1_i/system_ila_0/inst/net_slot_1_axi_awprot [2:0] $end
$var reg 3 |" design_1_i/system_ila_0/inst/net_slot_1_axi_awsize [2:0] $end
$var reg 2 !# design_1_i/system_ila_0/inst/net_slot_1_axi_b_cnt [1:0] $end
$var reg 2 ## design_1_i/system_ila_0/inst/net_slot_1_axi_r_cnt [1:0] $end
$var reg 32 %# design_1_i/system_ila_0/inst/net_slot_1_axi_rdata [31:0] $end
$var reg 2 E# design_1_i/system_ila_0/inst/net_slot_1_axi_rresp [1:0] $end
$var reg 32 G# design_1_i/system_ila_0/inst/net_slot_1_axi_wdata [31:0] $end
$var reg 1 g# design_1_i/system_ila_0/inst/net_slot_1_axi_awvalid $end
$var reg 2 h# design_1_i/system_ila_0/inst/net_slot_1_axi_aw_ctrl [1:0] $end
$var reg 1 j# design_1_i/system_ila_0/inst/net_slot_1_axi_awready $end
$var reg 3 k# design_1_i/system_ila_0/inst/net_slot_1_axi_w_ctrl [2:0] $end
$var reg 1 n# design_1_i/system_ila_0/inst/net_slot_1_axi_wvalid $end
$var reg 1 o# design_1_i/system_ila_0/inst/net_slot_1_axi_wready $end
$var reg 1 p# design_1_i/system_ila_0/inst/net_slot_1_axi_wlast $end
$var reg 1 q# design_1_i/system_ila_0/inst/net_slot_1_axi_bvalid $end
$var reg 2 r# design_1_i/system_ila_0/inst/net_slot_1_axi_b_ctrl [1:0] $end
$var reg 1 t# design_1_i/system_ila_0/inst/net_slot_1_axi_bready $end
$var reg 2 u# design_1_i/system_ila_0/inst/net_slot_1_axi_ar_ctrl [1:0] $end
$var reg 1 w# design_1_i/system_ila_0/inst/net_slot_1_axi_arvalid $end
$var reg 1 x# design_1_i/system_ila_0/inst/net_slot_1_axi_arready $end
$var reg 3 y# design_1_i/system_ila_0/inst/net_slot_1_axi_r_ctrl [2:0] $end
$var reg 1 |# design_1_i/system_ila_0/inst/net_slot_1_axi_rvalid $end
$var reg 1 }# design_1_i/system_ila_0/inst/net_slot_1_axi_rready $end
$var reg 1 ~# design_1_i/system_ila_0/inst/net_slot_1_axi_rlast $end
$var reg 2 !$ design_1_i/system_ila_0/inst/net_slot_2_axi_ar_cnt [1:0] $end
$var reg 32 #$ design_1_i/system_ila_0/inst/net_slot_2_axi_araddr [31:0] $end
$var reg 2 C$ design_1_i/system_ila_0/inst/net_slot_2_axi_arburst [1:0] $end
$var reg 4 E$ design_1_i/system_ila_0/inst/net_slot_2_axi_arcache [3:0] $end
$var reg 8 I$ design_1_i/system_ila_0/inst/net_slot_2_axi_arlen [7:0] $end
$var reg 1 Q$ design_1_i/system_ila_0/inst/net_slot_2_axi_arlock $end
$var reg 3 R$ design_1_i/system_ila_0/inst/net_slot_2_axi_arprot [2:0] $end
$var reg 4 U$ design_1_i/system_ila_0/inst/net_slot_2_axi_arqos [3:0] $end
$var reg 3 Y$ design_1_i/system_ila_0/inst/net_slot_2_axi_arsize [2:0] $end
$var reg 2 \$ design_1_i/system_ila_0/inst/net_slot_2_axi_aw_cnt [1:0] $end
$var reg 32 ^$ design_1_i/system_ila_0/inst/net_slot_2_axi_awaddr [31:0] $end
$var reg 2 ~$ design_1_i/system_ila_0/inst/net_slot_2_axi_awburst [1:0] $end
$var reg 4 "% design_1_i/system_ila_0/inst/net_slot_2_axi_awcache [3:0] $end
$var reg 8 &% design_1_i/system_ila_0/inst/net_slot_2_axi_awlen [7:0] $end
$var reg 1 .% design_1_i/system_ila_0/inst/net_slot_2_axi_awlock $end
$var reg 3 /% design_1_i/system_ila_0/inst/net_slot_2_axi_awprot [2:0] $end
$var reg 4 2% design_1_i/system_ila_0/inst/net_slot_2_axi_awqos [3:0] $end
$var reg 3 6% design_1_i/system_ila_0/inst/net_slot_2_axi_awsize [2:0] $end
$var reg 2 9% design_1_i/system_ila_0/inst/net_slot_2_axi_b_cnt [1:0] $end
$var reg 2 ;% design_1_i/system_ila_0/inst/net_slot_2_axi_bresp [1:0] $end
$var reg 2 =% design_1_i/system_ila_0/inst/net_slot_2_axi_r_cnt [1:0] $end
$var reg 32 ?% design_1_i/system_ila_0/inst/net_slot_2_axi_rdata [31:0] $end
$var reg 2 _% design_1_i/system_ila_0/inst/net_slot_2_axi_rresp [1:0] $end
$var reg 32 a% design_1_i/system_ila_0/inst/net_slot_2_axi_wdata [31:0] $end
$var reg 4 #& design_1_i/system_ila_0/inst/net_slot_2_axi_wstrb [3:0] $end
$var reg 1 '& design_1_i/system_ila_0/inst/net_slot_2_axi_awvalid $end
$var reg 2 (& design_1_i/system_ila_0/inst/net_slot_2_axi_aw_ctrl [1:0] $end
$var reg 1 *& design_1_i/system_ila_0/inst/net_slot_2_axi_awready $end
$var reg 3 +& design_1_i/system_ila_0/inst/net_slot_2_axi_w_ctrl [2:0] $end
$var reg 1 .& design_1_i/system_ila_0/inst/net_slot_2_axi_wvalid $end
$var reg 1 /& design_1_i/system_ila_0/inst/net_slot_2_axi_wready $end
$var reg 1 0& design_1_i/system_ila_0/inst/net_slot_2_axi_wlast $end
$var reg 1 1& design_1_i/system_ila_0/inst/net_slot_2_axi_bvalid $end
$var reg 2 2& design_1_i/system_ila_0/inst/net_slot_2_axi_b_ctrl [1:0] $end
$var reg 1 4& design_1_i/system_ila_0/inst/net_slot_2_axi_bready $end
$var reg 2 5& design_1_i/system_ila_0/inst/net_slot_2_axi_ar_ctrl [1:0] $end
$var reg 1 7& design_1_i/system_ila_0/inst/net_slot_2_axi_arvalid $end
$var reg 1 8& design_1_i/system_ila_0/inst/net_slot_2_axi_arready $end
$var reg 3 9& design_1_i/system_ila_0/inst/net_slot_2_axi_r_ctrl [2:0] $end
$var reg 1 <& design_1_i/system_ila_0/inst/net_slot_2_axi_rvalid $end
$var reg 1 =& design_1_i/system_ila_0/inst/net_slot_2_axi_rready $end
$var reg 1 >& design_1_i/system_ila_0/inst/net_slot_2_axi_rlast $end
$var reg 128 ?& design_1_i/system_ila_0/inst/net_slot_3_axis_tdata [127:0] $end
$var reg 3 a' design_1_i/system_ila_0/inst/net_slot_3_axis_tid [2:0] $end
$var reg 16 d' design_1_i/system_ila_0/inst/net_slot_3_axis_tkeep [15:0] $end
$var reg 1 t' design_1_i/system_ila_0/inst/net_slot_3_axis_tvalid $end
$var reg 1 u' design_1_i/system_ila_0/inst/net_slot_3_axis_tready $end
$var reg 1 v' design_1_i/system_ila_0/inst/net_slot_3_axis_tlast $end
$var reg 128 w' design_1_i/system_ila_0/inst/net_slot_4_axis_tdata [127:0] $end
$var reg 3 ;) design_1_i/system_ila_0/inst/net_slot_4_axis_tid [2:0] $end
$var reg 16 >) design_1_i/system_ila_0/inst/net_slot_4_axis_tkeep [15:0] $end
$var reg 1 N) design_1_i/system_ila_0/inst/net_slot_4_axis_tvalid $end
$var reg 1 O) design_1_i/system_ila_0/inst/net_slot_4_axis_tready $end
$var reg 1 P) design_1_i/system_ila_0/inst/net_slot_4_axis_tlast $end
$var reg 3 Q) AR_Channel__i1_s1___dfx_controller_0_M_AXI_MEM_ [2:0] $end
$var reg 3 T) AR_Channel__i1_s2___axi_mm2s_mapper_0_M_AXI_ [2:0] $end
$var reg 3 W) AW_Channel__i1_s1___dfx_controller_0_M_AXI_MEM_ [2:0] $end
$var reg 3 Z) AW_Channel__i1_s2___axi_mm2s_mapper_0_M_AXI_ [2:0] $end
$var reg 3 ]) B_Channel__i1_s1___dfx_controller_0_M_AXI_MEM_ [2:0] $end
$var reg 3 `) B_Channel__i1_s2___axi_mm2s_mapper_0_M_AXI_ [2:0] $end
$var reg 3 c) Interface__i1_s1___dfx_controller_0_M_AXI_MEM_ [2:0] $end
$var reg 3 f) Interface__i1_s2___axi_mm2s_mapper_0_M_AXI_ [2:0] $end
$var reg 3 i) Interface__i1_s3___axi_mm2s_mapper_0_M_AXIS_ [2:0] $end
$var reg 3 l) Interface__i1_s4___aes_0_M_AXIS_ [2:0] $end
$var reg 3 o) R_Channel__i1_s1___dfx_controller_0_M_AXI_MEM_ [2:0] $end
$var reg 3 r) R_Channel__i1_s2___axi_mm2s_mapper_0_M_AXI_ [2:0] $end
$var reg 3 u) T_Channel__i1_s3___axi_mm2s_mapper_0_M_AXIS_ [2:0] $end
$var reg 3 x) T_Channel__i1_s4___aes_0_M_AXIS_ [2:0] $end
$var reg 3 {) W_Channel__i1_s1___dfx_controller_0_M_AXI_MEM_ [2:0] $end
$var reg 3 ~) W_Channel__i1_s2___axi_mm2s_mapper_0_M_AXI_ [2:0] $end
$var reg 16 #* ila_1___slot_1___dfx_controller_0_M_AXI_MEM___Read_Transactions_0 [15:0] $end
$var reg 16 3* ila_1___slot_2___axi_mm2s_mapper_0_M_AXI___Read_Transactions_0 [15:0] $end
$var reg 1 C* _TRIGGER $end
$var reg 1 D* _WINDOW $end
$var reg 1 E* _GAP $end
$upscope $end
$enddefinitions $end
#0
$dumpvars
0"
0#
1$
0%
0&
0'
1(
b0 )
b11111111111111111111111110011011 I
0i
1j
1k
0l
b0 m
b0 o
b0 1"
b11 3"
b0 7"
b0 ?"
b0 B"
b0 E"
b0 I"
b0 K"
b1 k"
b11 m"
b0 q"
b0 y"
b10 |"
b0 !#
b0 ##
b0 %#
b0 E#
b0 G#
0g#
b0 h#
0j#
b0 k#
0n#
0o#
0p#
0q#
b0 r#
0t#
b0 u#
0w#
0x#
b0 y#
0|#
0}#
0~#
b0 !$
b0 #$
b0 C$
b0 E$
b0 I$
0Q$
b0 R$
b0 U$
b0 Y$
b0 \$
b0 ^$
b0 ~$
b0 "%
b0 &%
0.%
b0 /%
b0 2%
b0 6%
b0 9%
b0 ;%
b0 =%
b0 ?%
b0 _%
b0 a%
b0 #&
0'&
b10 (&
1*&
b0 +&
0.&
0/&
00&
01&
b10 2&
14&
b10 5&
07&
18&
b0 9&
0<&
0=&
0>&
b0 ?&
b0 a'
b1 d'
0t'
0u'
1v'
b0 w'
b0 ;)
b1 >)
0N)
0O)
1P)
b0 Q)
b0 T)
b11 W)
b11 Z)
b11 ])
b11 `)
b0 c)
b0 f)
b0 i)
b0 l)
b0 o)
b0 r)
b0 u)
b0 x)
b100 {)
b100 ~)
b0 #*
b0 3*
0C*
1D*
0E*
$end
#1024
1#
1C*
#1044
b10011111000001111100000 o
b1 1"
b111 7"
b10 B"
b1 u#
1w#
b10 Q)
b1 c)
#1045
b10 y#
1}#
b11100110101000000000000010011111000001111100000 ?&
b10 a'
b11111111 d'
1t'
b10 ;)
b11111111 >)
#1046
b10011111000001111100000 %#
b10011111000001111100000 a%
b100 +&
10&
b11100110101000000000000010011111000001111100000 w'
1N)
1O)
b1 l)
b10 x)
#1047
b11 u#
1x#
b10011111000001111100000 #$
b1 C$
b11 E$
b111 I$
b10 Y$
b11 5&
17&
1u'
b10 T)
b1 f)
b1 i)
b10 u)
b1 x)
#1048
b1 m
b0 o
b0 1"
b0 7"
b0 B"
b1 ##
b0 u#
0w#
0x#
b1 !$
b1 =%
b110000000000000000000000000000000000000000 ?&
0t'
b0 Q)
b0 c)
b0 i)
b0 u)
#1049
b10011111000010000000000 o
b1 1"
b11111111 7"
b10 B"
b0 %#
b1 u#
1w#
b10 !$
b10 =%
b0 a%
b0 +&
00&
b1111111100110101000000000000010011111000010000000000 ?&
b110000000000000000000000000000000000000000 w'
0N)
0O)
b10 Q)
b1 c)
b0 l)
b0 x)
b1 3*
#1050
b10011111000010000000000 %#
b11 !$
b0 #$
b0 C$
b0 E$
b0 I$
b0 Y$
b11 =%
b10011111000010000000000 a%
b100 +&
10&
b10 5&
07&
1t'
0u'
b1111111100110101000000000000010011111000010000000000 w'
b0 T)
b0 f)
#1051
1N)
1O)
b1 l)
b10 x)
#1052
b11 u#
1x#
b10011111000010000000000 #$
b1 C$
b11 E$
b11111111 I$
b10 Y$
b11 5&
17&
1u'
b10 T)
b1 f)
b1 i)
b10 u)
b1 x)
#1053
b10 m
b0 o
b0 1"
b0 7"
b0 B"
b10 ##
b0 u#
0w#
0x#
b0 !$
b0 =%
b110000000000000000000000000000000000000000 ?&
0t'
b0 Q)
b0 c)
b0 i)
b0 u)
#1054
b10011111000100000000000 o
b1 1"
b11111111 7"
b10 B"
b0 %#
b1 u#
1w#
b1 !$
b1 =%
b0 a%
b0 +&
00&
b1111111100110101000000000000010011111000100000000000 ?&
b110000000000000000000000000000000000000000 w'
0N)
0O)
b10 Q)
b1 c)
b0 l)
b0 x)
#1055
b10011111000100000000000 %#
b10 !$
b0 #$
b0 C$
b0 E$
b0 I$
b0 Y$
b10 =%
b10011111000100000000000 a%
b100 +&
10&
b10 5&
07&
1t'
0u'
b1111111100110101000000000000010011111000100000000000 w'
b0 T)
b0 f)
#1056
1N)
1O)
b1 l)
b10 x)
#1057
b11 u#
1x#
b10011111000100000000000 #$
b1 C$
b11 E$
b11111111 I$
b10 Y$
b11 5&
17&
1u'
b10 T)
b1 f)
b1 i)
b10 u)
b1 x)
b1 #*
#1058
b11 m
b0 o
b0 1"
b0 7"
b0 B"
b11 ##
b0 u#
0w#
0x#
b11 !$
b11 =%
b110000000000000000000000000000000000000000 ?&
0t'
b0 Q)
b0 c)
b0 i)
b0 u)
#1059
b10011111000110000000000 o
b1 1"
b11111111 7"
b10 B"
b0 %#
b1 u#
1w#
b0 !$
b0 =%
b0 a%
b0 +&
00&
b1111111100110101000000000000010011111000110000000000 ?&
b110000000000000000000000000000000000000000 w'
0N)
0O)
b10 Q)
b1 c)
b0 l)
b0 x)
#1060
b10011111000110000000000 %#
b1 !$
b0 #$
b0 C$
b0 E$
b0 I$
b0 Y$
b1 =%
b10011111000110000000000 a%
b100 +&
10&
b10 5&
07&
1t'
0u'
b1111111100110101000000000000010011111000110000000000 w'
b0 T)
b0 f)
#1061
1N)
1O)
b1 l)
b10 x)
#1062
b11 u#
1x#
b10011111000110000000000 #$
b1 C$
b11 E$
b11111111 I$
b10 Y$
b11 5&
17&
1u'
b10 T)
b1 f)
b1 i)
b10 u)
b1 x)
#1063
b0 m
b0 o
b0 1"
b0 7"
b0 B"
b0 ##
b0 u#
0w#
0x#
b10 !$
b10 =%
b110000000000000000000000000000000000000000 ?&
0t'
b0 Q)
b0 c)
b0 i)
b0 u)
#1064
b10011111001000000000000 o
b1 1"
b11111111 7"
b10 B"
b0 %#
b1 u#
1w#
b11 !$
b11 =%
b0 a%
b0 +&
00&
b1111111100110101000000000000010011111001000000000000 ?&
b110000000000000000000000000000000000000000 w'
0N)
0O)
b10 Q)
b1 c)
b0 l)
b0 x)
#1065
b10011111001000000000000 %#
b0 !$
b0 #$
b0 C$
b0 E$
b0 I$
b0 Y$
b0 =%
b10011111001000000000000 a%
b100 +&
10&
b10 5&
07&
1t'
0u'
b1111111100110101000000000000010011111001000000000000 w'
b0 T)
b0 f)
#1066
1N)
1O)
b1 l)
b10 x)
#1067
b11 u#
1x#
b10011111001000000000000 #$
b1 C$
b11 E$
b11111111 I$
b10 Y$
b11 5&
17&
1u'
b10 T)
b1 f)
b1 i)
b10 u)
b1 x)
#1068
b1 m
b0 o
b0 1"
b0 7"
b0 B"
b1 ##
b0 u#
0w#
0x#
b1 !$
b1 =%
b110000000000000000000000000000000000000000 ?&
0t'
b0 Q)
b0 c)
b0 i)
b0 u)
#1069
b0 %#
b10 !$
b10 =%
b0 a%
b0 +&
00&
b110000000000000000000000000000000000000000 w'
0N)
0O)
b0 l)
b0 x)
#1070
b11 !$
b0 #$
b0 C$
b0 E$
b0 I$
b0 Y$
b11 =%
b10 5&
07&
0u'
b0 T)
b0 f)
#1091
b11001000111100000100100111100100 ?%
b1 9&
1<&
#1092
b11001000111100000100100111100100 ?&
b11 a'
b11111 d'
1t'
b11 ;)
b11111 >)
#1093
b0 w'
#1115
b1 %#
b1 a%
b1 w'
#1120
b0 %#
b0 a%
b0 w'
#1130
b1 %#
b1 a%
b1 w'
#1140
b0 %#
b0 a%
b0 w'
#1160
b1 %#
b1 a%
b1 w'
#1167
b11 y#
1|#
b11 9&
1=&
1u'
1N)
1O)
b1 c)
b1 f)
b1 i)
b1 l)
b1 o)
b1 r)
b10 u)
b10 x)
#1168
b1101100110011111100010111100101 ?%
b1 9&
0=&
b1101100110011111100010111100101 ?&
0t'
b0 f)
b0 i)
b0 r)
b0 u)
b1 x)
#1169
b10 y#
0|#
1t'
0u'
0N)
0O)
b0 c)
b0 l)
b0 o)
b0 x)
#1170
b0 %#
b0 a%
b0 w'
#1180
0(
b10000000 )
b1 %#
b1 a%
b1 w'
#1182
1(
b0 )
#1184
b0 %#
b0 a%
b0 w'
#1185
b1 %#
b1 a%
b1 w'
#1189
b0 %#
b0 a%
b0 w'
#1190
b1 %#
b1 a%
b1 w'
#1194
b0 %#
b0 a%
b0 w'
#1195
b1 %#
b1 a%
b1 w'
#1200
b0 %#
b0 a%
b0 w'
#1205
b1 %#
b1 a%
b1 w'
#1209
b0 %#
b0 a%
b0 w'
#1214
b1 %#
b1 a%
b1 w'
#1219
b0 %#
b0 a%
b0 w'
#1220
b1 %#
b1 a%
b1 w'
#1225
b0 %#
b0 a%
b0 w'
#1229
b1 %#
b1 a%
b1 w'
#1230
b0 %#
b0 a%
b0 w'
#1234
b1 %#
b1 a%
b1 w'
#1235
b0 %#
b0 a%
b0 w'
#1241
b11 y#
1|#
b11 9&
1=&
1u'
1N)
1O)
b1 c)
b1 f)
b1 i)
b1 l)
b1 o)
b1 r)
b10 u)
b10 x)
#1242
b1101110011101010110111001010010 ?%
b1 9&
0=&
b1101110011101010110111001010010 ?&
0t'
b0 f)
b0 i)
b0 r)
b0 u)
b1 x)
#1243
b10 y#
0|#
1t'
0u'
0N)
0O)
b0 c)
b0 l)
b0 o)
b0 x)
#1244
b1 %#
b1 a%
b1 w'
#1248
b0 %#
b0 a%
b0 w'
#1249
b1 %#
b1 a%
b1 w'
#1253
0(
b0 %#
b0 a%
b0 w'
#1254
b1 %#
b1 a%
b1 w'
#1255
1(
#1258
b0 %#
b0 a%
b0 w'
#1268
b1 %#
b1 a%
b1 w'
#1269
b0 %#
b0 a%
b0 w'
#1273
b1 %#
b1 a%
b1 w'
#1274
b0 %#
b0 a%
b0 w'
#1279
b1 %#
b1 a%
b1 w'
#1283
b0 %#
b0 a%
b0 w'
#1284
b1 %#
b1 a%
b1 w'
#1288
b0 %#
b0 a%
b0 w'
#1299
b1 %#
b1 a%
b1 w'
#1309
b0 %#
b0 a%
b0 w'
#1313
b1 %#
b1 a%
b1 w'
#1315
b11 y#
1|#
b11 9&
1=&
1u'
1N)
1O)
b1 c)
b1 f)
b1 i)
b1 l)
b1 o)
b1 r)
b10 u)
b10 x)
#1316
b10011010010011000001100000101001 ?%
b1 9&
0=&
b10011010010011000001100000101001 ?&
0t'
b0 f)
b0 i)
b0 r)
b0 u)
b1 x)
#1317
b10 y#
0|#
1t'
0u'
0N)
0O)
b0 c)
b0 l)
b0 o)
b0 x)
#1318
b10000000 )
#1322
b0 %#
b0 a%
b0 w'
#1323
b1 %#
b1 a%
b1 w'
#1327
0(
b0 %#
b0 a%
b0 w'
#1328
b1 %#
b1 a%
b1 w'
#1329
1(
b0 )
#1332
b0 %#
b0 a%
b0 w'
#1342
b1 %#
b1 a%
b1 w'
#1343
b0 %#
b0 a%
b0 w'
#1347
b1 %#
b1 a%
b1 w'
#1348
b0 %#
b0 a%
b0 w'
#1353
b1 %#
b1 a%
b1 w'
#1357
b0 %#
b0 a%
b0 w'
#1358
b1 %#
b1 a%
b1 w'
#1362
b0 %#
b0 a%
b0 w'
#1373
b1 %#
b1 a%
b1 w'
#1383
b0 %#
b0 a%
b0 w'
#1387
b1 %#
b1 a%
b1 w'
#1389
b11 y#
1|#
b11 9&
1=&
1u'
1N)
1O)
b1 c)
b1 f)
b1 i)
b1 l)
b1 o)
b1 r)
b10 u)
b10 x)
#1390
b11001000111100000100100111100100 ?%
b1 9&
0=&
b11001000111100000100100111100100 ?&
0t'
b0 f)
b0 i)
b0 r)
b0 u)
b1 x)
#1391
b10 y#
0|#
1t'
0u'
0N)
0O)
b0 c)
b0 l)
b0 o)
b0 x)
#1392
b10000000 )
#1396
b0 %#
b0 a%
b0 w'
#1397
b1 %#
b1 a%
b1 w'
#1398
b10011111001010000000000 o
b1 1"
b11111111 7"
b10 B"
b1 u#
1w#
b10 Q)
b1 c)
#1401
0(
b0 %#
b0 a%
b0 w'
#1402
b1 %#
b1 a%
b1 w'
#1403
1(
b0 )
#1406
b0 %#
b0 a%
b0 w'
#1416
b1 %#
b1 a%
b1 w'
#1417
b0 %#
b0 a%
b0 w'
#1421
b1 %#
b1 a%
b1 w'
#1422
b0 %#
b0 a%
b0 w'
#1427
b1 %#
b1 a%
b1 w'
#1431
b0 %#
b0 a%
b0 w'
#1432
b1 %#
b1 a%
b1 w'
#1436
b0 %#
b0 a%
b0 w'
#1447
b1 %#
b1 a%
b1 w'
#1457
b0 %#
b0 a%
b0 w'
#1461
b1 %#
b1 a%
b1 w'
#1463
b11 y#
1|#
b11 9&
1=&
1u'
1N)
1O)
b1 f)
b1 i)
b1 l)
b1 o)
b1 r)
b10 u)
b10 x)
#1464
b11 u#
1x#
b10 y#
0|#
b1101100110011111100010111100101 ?%
b1 9&
0=&
b1111111100110101000000000000010011111001010000000000 ?&
b10 a'
b11111111 d'
b10 ;)
b11111111 >)
b0 f)
b0 o)
b0 r)
b1 u)
b1 x)
#1465
b10 m
b0 o
b0 1"
b0 7"
b0 B"
b10 ##
b10011111001010000000000 %#
b0 u#
0w#
0x#
b11 y#
1|#
b1 #$
b10011111001010000000000 a%
b100 +&
10&
b11 5&
17&
b11 9&
1=&
b1101100110011111100010111100101 ?&
b11 a'
b11111 d'
b1111111100110101000000000000010011111001010000000000 w'
b11 ;)
b11111 >)
b0 Q)
b10 T)
b1 f)
b1 o)
b1 r)
#1466
b10000000 )
b1 %#
b10 y#
0|#
b0 !$
b10011111000001111100000 #$
b1 C$
b11 E$
b111 I$
b10 Y$
b0 =%
b1101110011101010110111001010010 ?%
b1 a%
b0 +&
00&
b0 5&
07&
08&
b1 9&
0=&
b1101110011101010110111001010010 ?&
0t'
0u'
b1 w'
0N)
0O)
b0 T)
b0 c)
b0 f)
b0 i)
b0 l)
b0 o)
b0 r)
b0 u)
b0 x)
#1467
1t'
#1470
b0 %#
b0 a%
b0 w'
#1471
b1 %#
b1 a%
b1 w'
#1475
0(
b0 %#
b0 a%
b0 w'
#1476
1(
b111100100010100100000000 )
b1 %#
b1 a%
b1 w'
#1477
0(
#1478
1(
b0 )
#1480
b0 %#
b0 a%
b0 w'
#1490
b1 %#
b1 a%
b1 w'
#1491
b0 %#
b0 a%
b0 w'
#1495
b1 %#
b1 a%
b1 w'
#1496
b0 %#
b0 a%
b0 w'
#1501
b1 %#
b1 a%
b1 w'
#1505
b0 %#
b0 a%
b0 w'
#1506
b1 %#
b1 a%
b1 w'
#1510
b0 %#
b0 a%
b0 w'
#1521
b1 %#
b1 a%
b1 w'
#1531
b0 %#
b0 a%
b0 w'
#1535
b1 %#
b1 a%
b1 w'
#1537
b11 y#
1|#
b11 9&
1=&
1u'
1N)
1O)
b1 c)
b1 f)
b1 i)
b1 l)
b1 o)
b1 r)
b10 u)
b10 x)
#1538
b10011010010011000001100000101001 ?%
b101 9&
0=&
1>&
b10010011010010011000001100000101001 ?&
0t'
b0 f)
b0 i)
b0 r)
b0 u)
b1 x)
#1539
b10 y#
0|#
1t'
0u'
0N)
0O)
b0 c)
b0 l)
b0 o)
b0 x)
#1540
b10000000 )
#1544
b0 %#
b0 a%
b0 w'
#1545
b1 %#
b1 a%
b1 w'
#1549
0(
b0 %#
b0 a%
b0 w'
#1550
b1 %#
b1 a%
b1 w'
#1551
1(
b0 )
#1554
b0 %#
b0 a%
b0 w'
#1564
b1 %#
b1 a%
b1 w'
#1565
b0 %#
b0 a%
b0 w'
#1569
b1 %#
b1 a%
b1 w'
#1570
b0 %#
b0 a%
b0 w'
#1575
b1 %#
b1 a%
b1 w'
#1579
b0 %#
b0 a%
b0 w'
#1580
b1 %#
b1 a%
b1 w'
#1584
b0 %#
b0 a%
b0 w'
#1595
b1 %#
b1 a%
b1 w'
#1605
b0 %#
b0 a%
b0 w'
#1609
b1 %#
b1 a%
b1 w'
#1611
b11 y#
1|#
b111 9&
1=&
1u'
1N)
1O)
b1 c)
b1 f)
b1 i)
b1 l)
b1 o)
b111 r)
b10 u)
b10 x)
#1612
b11 !$
b11 =%
b11001000111100000100100111100100 ?%
b1 9&
0=&
0>&
b11001000111100000100100111100100 ?&
0t'
b0 f)
b0 i)
b0 r)
b0 u)
b1 x)
#1613
b10 y#
0|#
1t'
0u'
0N)
0O)
b0 c)
b0 l)
b0 o)
b0 x)
#1614
b10000000 )
#1618
b0 %#
b0 a%
b0 w'
#1619
b1 %#
b1 a%
b1 w'
#1623
0(
b0 %#
b0 a%
b0 w'
#1624
b1 %#
b1 a%
b1 w'
#1625
1(
b0 )
#1628
b0 %#
b0 a%
b0 w'
#1638
b1 %#
b1 a%
b1 w'
#1639
b0 %#
b0 a%
b0 w'
#1643
b1 %#
b1 a%
b1 w'
#1644
b0 %#
b0 a%
b0 w'
#1649
b1 %#
b1 a%
b1 w'
#1653
b0 %#
b0 a%
b0 w'
#1654
b1 %#
b1 a%
b1 w'
#1658
b0 %#
b0 a%
b0 w'
#1669
b1 %#
b1 a%
b1 w'
#1679
b0 %#
b0 a%
b0 w'
#1683
b1 %#
b1 a%
b1 w'
#1685
b11 y#
1|#
b11 9&
1=&
1u'
1N)
1O)
b1 c)
b1 f)
b1 i)
b1 l)
b1 o)
b1 r)
b10 u)
b10 x)
#1686
b1101100110011111100010111100101 ?%
b1 9&
0=&
b1101100110011111100010111100101 ?&
0t'
b0 f)
b0 i)
b0 r)
b0 u)
b1 x)
#1687
b10 y#
0|#
1t'
0u'
0N)
0O)
b0 c)
b0 l)
b0 o)
b0 x)
#1688
b10000000 )
#1692
b0 %#
b0 a%
b0 w'
#1693
b1 %#
b1 a%
b1 w'
#1697
0(
b0 %#
b0 a%
b0 w'
#1698
b1 %#
b1 a%
b1 w'
#1699
1(
b0 )
#1702
b0 %#
b0 a%
b0 w'
#1712
b1 %#
b1 a%
b1 w'
#1713
b0 %#
b0 a%
b0 w'
#1717
b1 %#
b1 a%
b1 w'
#1718
b0 %#
b0 a%
b0 w'
#1723
b1 %#
b1 a%
b1 w'
#1727
b0 %#
b0 a%
b0 w'
#1728
b1 %#
b1 a%
b1 w'
#1732
b0 %#
b0 a%
b0 w'
#1743
b1 %#
b1 a%
b1 w'
#1753
b0 %#
b0 a%
b0 w'
#1757
b1 %#
b1 a%
b1 w'
#1759
b11 y#
1|#
b11 9&
1=&
1u'
1N)
1O)
b1 c)
b1 f)
b1 i)
b1 l)
b1 o)
b1 r)
b10 u)
b10 x)
#1760
b1101110011101010110111001010010 ?%
b1 9&
0=&
b1101110011101010110111001010010 ?&
0t'
b0 f)
b0 i)
b0 r)
b0 u)
b1 x)
#1761
b10 y#
0|#
1t'
0u'
0N)
0O)
b0 c)
b0 l)
b0 o)
b0 x)
#1762
b10000000 )
#1766
b0 %#
b0 a%
b0 w'
#1767
b1 %#
b1 a%
b1 w'
#1771
0(
b0 %#
b0 a%
b0 w'
#1772
b1 %#
b1 a%
b1 w'
#1773
1(
b0 )
#1776
b0 %#
b0 a%
b0 w'
