.Xil/Vivado-320376-luiscarlos-GL552VX/my_hw_ila_data_file/zip_work/my_hw_ila_data_file.vcd
$date
        2023-May-26 22:10:26
$end
$version
        Vivado v2021.2 (64-bit)
$end
$timescale
        1ps
$end
$scope module dut $end
$var reg 1 " design_1_i/system_ila_0/inst/probe0_1 $end
$var reg 1 # design_1_i/system_ila_0/inst/probe1_1 $end
$var reg 1 $ design_1_i/system_ila_0/inst/probe2_1 $end
$var reg 1 % design_1_i/system_ila_0/inst/probe3_1 $end
$var reg 1 & design_1_i/system_ila_0/inst/probe4_1 $end
$var reg 1 ' design_1_i/system_ila_0/inst/probe5_1 $end
$var reg 1 ( design_1_i/system_ila_0/inst/SLOT_0_ICAP_csib_1 $end
$var reg 32 ) design_1_i/system_ila_0/inst/SLOT_0_ICAP_i_1 [31:0] $end
$var reg 32 I design_1_i/system_ila_0/inst/SLOT_0_ICAP_o_1 [31:0] $end
$var reg 1 i design_1_i/system_ila_0/inst/SLOT_0_ICAP_rdwrb_1 $end
$var reg 1 j design_1_i/system_ila_0/inst/SLOT_0_ICAP_avail_1 $end
$var reg 1 k design_1_i/system_ila_0/inst/SLOT_0_ICAP_prdone_1 $end
$var reg 1 l design_1_i/system_ila_0/inst/SLOT_0_ICAP_prerror_1 $end
$var reg 2 m design_1_i/system_ila_0/inst/net_slot_1_axi_ar_cnt [1:0] $end
$var reg 32 o design_1_i/system_ila_0/inst/net_slot_1_axi_araddr [31:0] $end
$var reg 2 1" design_1_i/system_ila_0/inst/net_slot_1_axi_arburst [1:0] $end
$var reg 4 3" design_1_i/system_ila_0/inst/net_slot_1_axi_arcache [3:0] $end
$var reg 8 7" design_1_i/system_ila_0/inst/net_slot_1_axi_arlen [7:0] $end
$var reg 3 ?" design_1_i/system_ila_0/inst/net_slot_1_axi_arprot [2:0] $end
$var reg 3 B" design_1_i/system_ila_0/inst/net_slot_1_axi_arsize [2:0] $end
$var reg 4 E" design_1_i/system_ila_0/inst/net_slot_1_axi_aruser [3:0] $end
$var reg 2 I" design_1_i/system_ila_0/inst/net_slot_1_axi_aw_cnt [1:0] $end
$var reg 32 K" design_1_i/system_ila_0/inst/net_slot_1_axi_awaddr [31:0] $end
$var reg 2 k" design_1_i/system_ila_0/inst/net_slot_1_axi_awburst [1:0] $end
$var reg 4 m" design_1_i/system_ila_0/inst/net_slot_1_axi_awcache [3:0] $end
$var reg 8 q" design_1_i/system_ila_0/inst/net_slot_1_axi_awlen [7:0] $end
$var reg 3 y" design_1_i/system_ila_0/inst/net_slot_1_axi_awprot [2:0] $end
$var reg 3 |" design_1_i/system_ila_0/inst/net_slot_1_axi_awsize [2:0] $end
$var reg 2 !# design_1_i/system_ila_0/inst/net_slot_1_axi_b_cnt [1:0] $end
$var reg 2 ## design_1_i/system_ila_0/inst/net_slot_1_axi_r_cnt [1:0] $end
$var reg 32 %# design_1_i/system_ila_0/inst/net_slot_1_axi_rdata [31:0] $end
$var reg 2 E# design_1_i/system_ila_0/inst/net_slot_1_axi_rresp [1:0] $end
$var reg 32 G# design_1_i/system_ila_0/inst/net_slot_1_axi_wdata [31:0] $end
$var reg 1 g# design_1_i/system_ila_0/inst/net_slot_1_axi_awvalid $end
$var reg 2 h# design_1_i/system_ila_0/inst/net_slot_1_axi_aw_ctrl [1:0] $end
$var reg 1 j# design_1_i/system_ila_0/inst/net_slot_1_axi_awready $end
$var reg 3 k# design_1_i/system_ila_0/inst/net_slot_1_axi_w_ctrl [2:0] $end
$var reg 1 n# design_1_i/system_ila_0/inst/net_slot_1_axi_wvalid $end
$var reg 1 o# design_1_i/system_ila_0/inst/net_slot_1_axi_wready $end
$var reg 1 p# design_1_i/system_ila_0/inst/net_slot_1_axi_wlast $end
$var reg 1 q# design_1_i/system_ila_0/inst/net_slot_1_axi_bvalid $end
$var reg 2 r# design_1_i/system_ila_0/inst/net_slot_1_axi_b_ctrl [1:0] $end
$var reg 1 t# design_1_i/system_ila_0/inst/net_slot_1_axi_bready $end
$var reg 2 u# design_1_i/system_ila_0/inst/net_slot_1_axi_ar_ctrl [1:0] $end
$var reg 1 w# design_1_i/system_ila_0/inst/net_slot_1_axi_arvalid $end
$var reg 1 x# design_1_i/system_ila_0/inst/net_slot_1_axi_arready $end
$var reg 3 y# design_1_i/system_ila_0/inst/net_slot_1_axi_r_ctrl [2:0] $end
$var reg 1 |# design_1_i/system_ila_0/inst/net_slot_1_axi_rvalid $end
$var reg 1 }# design_1_i/system_ila_0/inst/net_slot_1_axi_rready $end
$var reg 1 ~# design_1_i/system_ila_0/inst/net_slot_1_axi_rlast $end
$var reg 2 !$ design_1_i/system_ila_0/inst/net_slot_2_axi_ar_cnt [1:0] $end
$var reg 32 #$ design_1_i/system_ila_0/inst/net_slot_2_axi_araddr [31:0] $end
$var reg 2 C$ design_1_i/system_ila_0/inst/net_slot_2_axi_arburst [1:0] $end
$var reg 4 E$ design_1_i/system_ila_0/inst/net_slot_2_axi_arcache [3:0] $end
$var reg 8 I$ design_1_i/system_ila_0/inst/net_slot_2_axi_arlen [7:0] $end
$var reg 1 Q$ design_1_i/system_ila_0/inst/net_slot_2_axi_arlock $end
$var reg 3 R$ design_1_i/system_ila_0/inst/net_slot_2_axi_arprot [2:0] $end
$var reg 4 U$ design_1_i/system_ila_0/inst/net_slot_2_axi_arqos [3:0] $end
$var reg 3 Y$ design_1_i/system_ila_0/inst/net_slot_2_axi_arsize [2:0] $end
$var reg 2 \$ design_1_i/system_ila_0/inst/net_slot_2_axi_aw_cnt [1:0] $end
$var reg 32 ^$ design_1_i/system_ila_0/inst/net_slot_2_axi_awaddr [31:0] $end
$var reg 2 ~$ design_1_i/system_ila_0/inst/net_slot_2_axi_awburst [1:0] $end
$var reg 4 "% design_1_i/system_ila_0/inst/net_slot_2_axi_awcache [3:0] $end
$var reg 8 &% design_1_i/system_ila_0/inst/net_slot_2_axi_awlen [7:0] $end
$var reg 1 .% design_1_i/system_ila_0/inst/net_slot_2_axi_awlock $end
$var reg 3 /% design_1_i/system_ila_0/inst/net_slot_2_axi_awprot [2:0] $end
$var reg 4 2% design_1_i/system_ila_0/inst/net_slot_2_axi_awqos [3:0] $end
$var reg 3 6% design_1_i/system_ila_0/inst/net_slot_2_axi_awsize [2:0] $end
$var reg 2 9% design_1_i/system_ila_0/inst/net_slot_2_axi_b_cnt [1:0] $end
$var reg 2 ;% design_1_i/system_ila_0/inst/net_slot_2_axi_bresp [1:0] $end
$var reg 2 =% design_1_i/system_ila_0/inst/net_slot_2_axi_r_cnt [1:0] $end
$var reg 32 ?% design_1_i/system_ila_0/inst/net_slot_2_axi_rdata [31:0] $end
$var reg 2 _% design_1_i/system_ila_0/inst/net_slot_2_axi_rresp [1:0] $end
$var reg 32 a% design_1_i/system_ila_0/inst/net_slot_2_axi_wdata [31:0] $end
$var reg 4 #& design_1_i/system_ila_0/inst/net_slot_2_axi_wstrb [3:0] $end
$var reg 1 '& design_1_i/system_ila_0/inst/net_slot_2_axi_awvalid $end
$var reg 2 (& design_1_i/system_ila_0/inst/net_slot_2_axi_aw_ctrl [1:0] $end
$var reg 1 *& design_1_i/system_ila_0/inst/net_slot_2_axi_awready $end
$var reg 3 +& design_1_i/system_ila_0/inst/net_slot_2_axi_w_ctrl [2:0] $end
$var reg 1 .& design_1_i/system_ila_0/inst/net_slot_2_axi_wvalid $end
$var reg 1 /& design_1_i/system_ila_0/inst/net_slot_2_axi_wready $end
$var reg 1 0& design_1_i/system_ila_0/inst/net_slot_2_axi_wlast $end
$var reg 1 1& design_1_i/system_ila_0/inst/net_slot_2_axi_bvalid $end
$var reg 2 2& design_1_i/system_ila_0/inst/net_slot_2_axi_b_ctrl [1:0] $end
$var reg 1 4& design_1_i/system_ila_0/inst/net_slot_2_axi_bready $end
$var reg 2 5& design_1_i/system_ila_0/inst/net_slot_2_axi_ar_ctrl [1:0] $end
$var reg 1 7& design_1_i/system_ila_0/inst/net_slot_2_axi_arvalid $end
$var reg 1 8& design_1_i/system_ila_0/inst/net_slot_2_axi_arready $end
$var reg 3 9& design_1_i/system_ila_0/inst/net_slot_2_axi_r_ctrl [2:0] $end
$var reg 1 <& design_1_i/system_ila_0/inst/net_slot_2_axi_rvalid $end
$var reg 1 =& design_1_i/system_ila_0/inst/net_slot_2_axi_rready $end
$var reg 1 >& design_1_i/system_ila_0/inst/net_slot_2_axi_rlast $end
$var reg 32 ?& design_1_i/system_ila_0/inst/net_slot_3_axis_tdata [31:0] $end
$var reg 3 _& design_1_i/system_ila_0/inst/net_slot_3_axis_tid [2:0] $end
$var reg 4 b& design_1_i/system_ila_0/inst/net_slot_3_axis_tkeep [3:0] $end
$var reg 1 f& design_1_i/system_ila_0/inst/net_slot_3_axis_tvalid $end
$var reg 1 g& design_1_i/system_ila_0/inst/net_slot_3_axis_tready $end
$var reg 1 h& design_1_i/system_ila_0/inst/net_slot_3_axis_tlast $end
$var reg 32 i& design_1_i/system_ila_0/inst/net_slot_4_axis_tdata [31:0] $end
$var reg 3 +' design_1_i/system_ila_0/inst/net_slot_4_axis_tid [2:0] $end
$var reg 4 .' design_1_i/system_ila_0/inst/net_slot_4_axis_tkeep [3:0] $end
$var reg 1 2' design_1_i/system_ila_0/inst/net_slot_4_axis_tvalid $end
$var reg 1 3' design_1_i/system_ila_0/inst/net_slot_4_axis_tready $end
$var reg 1 4' design_1_i/system_ila_0/inst/net_slot_4_axis_tlast $end
$var reg 2 5' design_1_i/system_ila_0/inst/net_slot_5_axi_ar_cnt [1:0] $end
$var reg 49 7' design_1_i/system_ila_0/inst/net_slot_5_axi_araddr [48:0] $end
$var reg 2 h' design_1_i/system_ila_0/inst/net_slot_5_axi_arburst [1:0] $end
$var reg 4 j' design_1_i/system_ila_0/inst/net_slot_5_axi_arcache [3:0] $end
$var reg 8 n' design_1_i/system_ila_0/inst/net_slot_5_axi_arlen [7:0] $end
$var reg 1 v' design_1_i/system_ila_0/inst/net_slot_5_axi_arlock $end
$var reg 3 w' design_1_i/system_ila_0/inst/net_slot_5_axi_arprot [2:0] $end
$var reg 4 z' design_1_i/system_ila_0/inst/net_slot_5_axi_arqos [3:0] $end
$var reg 3 ~' design_1_i/system_ila_0/inst/net_slot_5_axi_arsize [2:0] $end
$var reg 2 #( design_1_i/system_ila_0/inst/net_slot_5_axi_aw_cnt [1:0] $end
$var reg 49 %( design_1_i/system_ila_0/inst/net_slot_5_axi_awaddr [48:0] $end
$var reg 2 V( design_1_i/system_ila_0/inst/net_slot_5_axi_awburst [1:0] $end
$var reg 4 X( design_1_i/system_ila_0/inst/net_slot_5_axi_awcache [3:0] $end
$var reg 8 \( design_1_i/system_ila_0/inst/net_slot_5_axi_awlen [7:0] $end
$var reg 1 d( design_1_i/system_ila_0/inst/net_slot_5_axi_awlock $end
$var reg 3 e( design_1_i/system_ila_0/inst/net_slot_5_axi_awprot [2:0] $end
$var reg 4 h( design_1_i/system_ila_0/inst/net_slot_5_axi_awqos [3:0] $end
$var reg 3 l( design_1_i/system_ila_0/inst/net_slot_5_axi_awsize [2:0] $end
$var reg 2 o( design_1_i/system_ila_0/inst/net_slot_5_axi_b_cnt [1:0] $end
$var reg 2 q( design_1_i/system_ila_0/inst/net_slot_5_axi_bresp [1:0] $end
$var reg 2 s( design_1_i/system_ila_0/inst/net_slot_5_axi_r_cnt [1:0] $end
$var reg 128 u( design_1_i/system_ila_0/inst/net_slot_5_axi_rdata [127:0] $end
$var reg 2 9* design_1_i/system_ila_0/inst/net_slot_5_axi_rresp [1:0] $end
$var reg 128 ;* design_1_i/system_ila_0/inst/net_slot_5_axi_wdata [127:0] $end
$var reg 16 ]+ design_1_i/system_ila_0/inst/net_slot_5_axi_wstrb [15:0] $end
$var reg 2 m+ design_1_i/system_ila_0/inst/net_slot_5_axi_aw_ctrl [1:0] $end
$var reg 1 o+ design_1_i/system_ila_0/inst/net_slot_5_axi_awvalid $end
$var reg 1 p+ design_1_i/system_ila_0/inst/net_slot_5_axi_awready $end
$var reg 3 q+ design_1_i/system_ila_0/inst/net_slot_5_axi_w_ctrl [2:0] $end
$var reg 1 t+ design_1_i/system_ila_0/inst/net_slot_5_axi_wvalid $end
$var reg 1 u+ design_1_i/system_ila_0/inst/net_slot_5_axi_wready $end
$var reg 1 v+ design_1_i/system_ila_0/inst/net_slot_5_axi_wlast $end
$var reg 1 w+ design_1_i/system_ila_0/inst/net_slot_5_axi_bvalid $end
$var reg 2 x+ design_1_i/system_ila_0/inst/net_slot_5_axi_b_ctrl [1:0] $end
$var reg 1 z+ design_1_i/system_ila_0/inst/net_slot_5_axi_bready $end
$var reg 1 {+ design_1_i/system_ila_0/inst/net_slot_5_axi_arvalid $end
$var reg 2 |+ design_1_i/system_ila_0/inst/net_slot_5_axi_ar_ctrl [1:0] $end
$var reg 1 ~+ design_1_i/system_ila_0/inst/net_slot_5_axi_arready $end
$var reg 3 !, design_1_i/system_ila_0/inst/net_slot_5_axi_r_ctrl [2:0] $end
$var reg 1 $, design_1_i/system_ila_0/inst/net_slot_5_axi_rvalid $end
$var reg 1 %, design_1_i/system_ila_0/inst/net_slot_5_axi_rready $end
$var reg 1 &, design_1_i/system_ila_0/inst/net_slot_5_axi_rlast $end
$var reg 3 ', AR_Channel__i1_s1___dfx_controller_0_M_AXI_MEM_ [2:0] $end
$var reg 3 *, AR_Channel__i1_s2___axi_mm2s_mapper_0_M_AXI_ [2:0] $end
$var reg 3 -, AR_Channel__i1_s5___axi_smc_M00_AXI_ [2:0] $end
$var reg 3 0, AW_Channel__i1_s1___dfx_controller_0_M_AXI_MEM_ [2:0] $end
$var reg 3 3, AW_Channel__i1_s2___axi_mm2s_mapper_0_M_AXI_ [2:0] $end
$var reg 3 6, AW_Channel__i1_s5___axi_smc_M00_AXI_ [2:0] $end
$var reg 3 9, B_Channel__i1_s1___dfx_controller_0_M_AXI_MEM_ [2:0] $end
$var reg 3 <, B_Channel__i1_s2___axi_mm2s_mapper_0_M_AXI_ [2:0] $end
$var reg 3 ?, B_Channel__i1_s5___axi_smc_M00_AXI_ [2:0] $end
$var reg 3 B, Interface__i1_s1___dfx_controller_0_M_AXI_MEM_ [2:0] $end
$var reg 3 E, Interface__i1_s2___axi_mm2s_mapper_0_M_AXI_ [2:0] $end
$var reg 3 H, Interface__i1_s3___aes_0_M_AXIS_ [2:0] $end
$var reg 3 K, Interface__i1_s4___axi_mm2s_mapper_0_M_AXIS_ [2:0] $end
$var reg 3 N, Interface__i1_s5___axi_smc_M00_AXI_ [2:0] $end
$var reg 3 Q, R_Channel__i1_s1___dfx_controller_0_M_AXI_MEM_ [2:0] $end
$var reg 3 T, R_Channel__i1_s2___axi_mm2s_mapper_0_M_AXI_ [2:0] $end
$var reg 3 W, R_Channel__i1_s5___axi_smc_M00_AXI_ [2:0] $end
$var reg 3 Z, T_Channel__i1_s3___aes_0_M_AXIS_ [2:0] $end
$var reg 3 ], T_Channel__i1_s4___axi_mm2s_mapper_0_M_AXIS_ [2:0] $end
$var reg 3 `, W_Channel__i1_s1___dfx_controller_0_M_AXI_MEM_ [2:0] $end
$var reg 3 c, W_Channel__i1_s2___axi_mm2s_mapper_0_M_AXI_ [2:0] $end
$var reg 3 f, W_Channel__i1_s5___axi_smc_M00_AXI_ [2:0] $end
$var reg 16 i, ila_1___slot_1___dfx_controller_0_M_AXI_MEM___Read_Transactions_0 [15:0] $end
$var reg 16 y, ila_1___slot_2___axi_mm2s_mapper_0_M_AXI___Read_Transactions_0 [15:0] $end
$var reg 16 +- ila_1___slot_5___axi_smc_M00_AXI___Read_Transactions_0 [15:0] $end
$var reg 1 ;- _TRIGGER $end
$var reg 1 <- _WINDOW $end
$var reg 1 =- _GAP $end
$upscope $end
$enddefinitions $end
#0
$dumpvars
0"
0#
1$
0%
0&
0'
1(
b0 )
b11111111111111111111111110011011 I
0i
1j
1k
0l
b0 m
b0 o
b0 1"
b11 3"
b0 7"
b0 ?"
b0 B"
b0 E"
b0 I"
b0 K"
b1 k"
b11 m"
b0 q"
b0 y"
b10 |"
b0 !#
b0 ##
b0 %#
b0 E#
b0 G#
0g#
b10 h#
1j#
b0 k#
0n#
0o#
0p#
0q#
b0 r#
0t#
b10 u#
0w#
1x#
b0 y#
0|#
0}#
0~#
b0 !$
b0 #$
b0 C$
b0 E$
b0 I$
0Q$
b0 R$
b0 U$
b0 Y$
b0 \$
b0 ^$
b0 ~$
b0 "%
b0 &%
0.%
b0 /%
b0 2%
b0 6%
b0 9%
b0 ;%
b0 =%
b0 ?%
b0 _%
b0 a%
b0 #&
0'&
b10 (&
1*&
b0 +&
0.&
0/&
00&
01&
b10 2&
14&
b10 5&
07&
18&
b10 9&
0<&
1=&
0>&
b0 ?&
b0 _&
b0 b&
0f&
0g&
0h&
b0 i&
b0 +'
b1 .'
02'
13'
14'
b0 5'
b0 7'
b1 h'
b0 j'
b0 n'
0v'
b0 w'
b0 z'
b0 ~'
b0 #(
b0 %(
b1 V(
b0 X(
b0 \(
0d(
b0 e(
b0 h(
b0 l(
b0 o(
b0 q(
b0 s(
b100000100000010000000000001000000000000000001010000000001000000000000000001100000000000000100000000000000000101000000 u(
b0 9*
b0 ;*
b0 ]+
b10 m+
0o+
1p+
b10 q+
0t+
1u+
0v+
0w+
b10 x+
1z+
0{+
b10 |+
1~+
b10 !,
0$,
1%,
0&,
b0 ',
b0 *,
b0 -,
b11 0,
b11 3,
b11 6,
b11 9,
b11 <,
b11 ?,
b0 B,
b0 E,
b0 H,
b0 K,
b0 N,
b0 Q,
b0 T,
b0 W,
b0 Z,
b0 ],
b100 `,
b100 c,
b100 f,
b0 i,
b0 y,
b0 +-
0;-
1<-
0=-
$end
#100
1#
1;-
#121
b1011100110011000100000 o
b1 1"
b1110111 7"
b10 B"
b11 u#
1w#
b10 ',
b1 B,
#122
b1 m
b0 o
b0 1"
b0 7"
b0 B"
b1 ##
b0 u#
0w#
0x#
b10 y#
1}#
b0 ',
b0 B,
#123
b1011100110011000100000 i&
b10 +'
b1111 .'
12'
04'
b1 K,
b1 ],
#124
b10 u#
1x#
b1110111001101010000 i&
14'
b10 ],
#125
b0 i&
02'
04'
b0 K,
b0 ],
#126
b1011100110100000000000 o
b1 1"
b11111111 7"
b10 B"
b11 u#
1w#
b10 ',
b1 B,
#127
b10 m
b0 o
b0 1"
b0 7"
b0 B"
b10 ##
b0 u#
0w#
0x#
b1011100110011000100000 ?&
b10 _&
b1111 b&
1f&
1g&
b1011100110100000000000 i&
b0 ',
b0 B,
b1 H,
b1 Z,
#128
0f&
0g&
12'
b0 H,
b1 K,
b0 Z,
b1 ],
#129
b10 u#
1x#
b11111111001101010000 i&
14'
b10 ],
#130
b1110111001101010000 ?&
1f&
1g&
1h&
b0 i&
02'
04'
b1 H,
b0 K,
b10 Z,
b0 ],
#131
b1011100110110000000000 o
b1 1"
b11111111 7"
b10 B"
b11 u#
1w#
b100 +&
10&
0f&
0g&
b10 ',
b1 B,
b0 H,
b0 Z,
b1 i,
#132
b11 m
b0 o
b0 1"
b0 7"
b0 B"
b11 ##
b0 u#
0w#
0x#
b1011100110011000100000 #$
b1 C$
b11 E$
b1110111 I$
b10 Y$
b11 5&
17&
b1011100110110000000000 i&
b0 ',
b10 *,
b0 B,
b1 E,
#133
b1 !$
b0 #$
b0 C$
b0 E$
b0 I$
b0 Y$
b1 =%
b10 5&
07&
b1011100110100000000000 ?&
1f&
1g&
0h&
12'
b0 *,
b0 E,
b1 H,
b1 K,
b1 Z,
b1 ],
#134
b10 u#
1x#
b0 +&
00&
0f&
0g&
b11111111001101010000 i&
14'
b0 H,
b0 Z,
b10 ],
#135
b0 i&
02'
04'
b0 K,
b0 ],
#136
b1011100111000000000000 o
b1 1"
b11111111 7"
b10 B"
b11 u#
1w#
b11111111001101010000 ?&
1f&
1g&
1h&
b1011100110011000100000 7'
b11 j'
b11101 n'
b100 ~'
1{+
b11 |+
b10 ',
b10 -,
b1 B,
b1 H,
b1 N,
b10 Z,
#137
b0 m
b0 o
b0 1"
b0 7"
b0 B"
b0 ##
b0 u#
0w#
0x#
b100 +&
10&
0f&
0g&
b1011100111000000000000 i&
b1 5'
b1 s(
0{+
b10 |+
b0 ',
b0 -,
b0 B,
b0 H,
b0 N,
b0 Z,
#138
b1011100110100000000000 #$
b1 C$
b11 E$
b11111111 I$
b10 Y$
b11 5&
17&
12'
b10 *,
b1 E,
b1 K,
b1 ],
#139
b10 u#
1x#
b10 !$
b0 #$
b0 C$
b0 E$
b0 I$
b0 Y$
b10 =%
b10 5&
07&
b1011100110110000000000 ?&
1f&
1g&
0h&
b11111111001101010000 i&
14'
b0 *,
b0 E,
b1 H,
b1 Z,
b10 ],
#140
b0 +&
00&
0f&
0g&
b0 i&
02'
04'
b0 H,
b0 K,
b0 Z,
b0 ],
#141
b1011100111010000000000 o
b1 1"
b11111111 7"
b10 B"
b11 u#
1w#
b10 ',
b1 B,
#142
b1 m
b0 o
b0 1"
b0 7"
b0 B"
b1 ##
b0 u#
0w#
0x#
b11111111001101010000 ?&
1f&
1g&
1h&
b1011100111010000000000 i&
b1011100110100000000000 7'
b111111 n'
1{+
b11 |+
b0 ',
b10 -,
b0 B,
b1 H,
b1 N,
b10 Z,
#143
b100 +&
10&
0f&
0g&
12'
b10 5'
b10 s(
0{+
b10 |+
b0 -,
b0 H,
b1 K,
b0 N,
b0 Z,
b1 ],
#144
b10 u#
1x#
b1011100110110000000000 #$
b1 C$
b11 E$
b11111111 I$
b10 Y$
b11 5&
17&
b11111111001101010000 i&
14'
b10 *,
b1 E,
b10 ],
b1 y,
#145
b11 !$
b0 #$
b0 C$
b0 E$
b0 I$
b0 Y$
b11 =%
b10 5&
07&
b1011100111000000000000 ?&
1f&
1g&
0h&
b0 i&
02'
04'
b0 *,
b0 E,
b1 H,
b0 K,
b1 Z,
b0 ],
#146
b0 +&
00&
0f&
0g&
b0 H,
b0 Z,
#148
b11111111001101010000 ?&
1f&
1g&
1h&
b1011100110110000000000 7'
1{+
b11 |+
b10 -,
b1 H,
b1 N,
b10 Z,
b1 +-
#149
b100 +&
10&
0f&
0g&
b11 5'
b11 s(
0{+
b10 |+
b0 -,
b0 H,
b0 N,
b0 Z,
#150
b1011100111000000000000 #$
b1 C$
b11 E$
b11111111 I$
b10 Y$
b11 5&
17&
b10 *,
b1 E,
#151
b0 !$
b0 #$
b0 C$
b0 E$
b0 I$
b0 Y$
b0 =%
b10 5&
07&
b1011100111010000000000 ?&
1f&
1g&
0h&
b0 *,
b0 E,
b1 H,
b1 Z,
#152
b0 +&
00&
0f&
0g&
b0 H,
b0 Z,
#154
b11111111001101010000 ?&
1f&
1g&
1h&
b1011100111000000000000 7'
1{+
b11 |+
b10 -,
b1 H,
b1 N,
b10 Z,
#155
b100 +&
10&
0f&
0g&
b0 5'
b0 s(
0{+
b10 |+
b0 -,
b0 H,
b0 N,
b0 Z,
#156
b1011100111010000000000 #$
b1 C$
b11 E$
b11111111 I$
b10 Y$
b11 5&
17&
b10 *,
b1 E,
#157
b1 !$
b0 #$
b0 C$
b0 E$
b0 I$
b0 Y$
b1 =%
b10 5&
07&
b0 *,
b0 E,
#160
b1011100111010000000000 7'
1{+
b11 |+
b10 -,
b1 N,
#161
b1 5'
b1 s(
0{+
b10 |+
b0 -,
b0 N,
#174
b11111111111111111111111111111111111111111111111111111111111111111111111111111111111111111111111111111111111111111111111111111111 u(
b11 !,
1$,
b1 N,
b1 W,
#178
b11111111111111111111111111111111 ?%
b11 9&
1<&
b11111111111111111111111111111111111111111111111111111111111111110001000100100010000000000100010000000000000000000000000010111011 u(
b1 E,
b1 T,
#179
b1 9&
0=&
b100000000000000000000000000000001000000000000000000000000000000010000000000000000000000000000010101010100110010101010101100110 u(
b0 E,
b0 T,
#180
b11111111111111111111111111111111 i&
b11 +'
12'
b100000000000000000000000000000001000000000000000000000000000000010000000000000000000000000000000100000000000000000000000000000 u(
b1 K,
b1 ],
#181
b11 9&
1=&
b0 i&
b1 .'
14'
b1 E,
b1 T,
b10 ],
#182
b1 9&
0=&
b11111111111111111111111111111111 i&
b1111 .'
02'
04'
b0 E,
b0 K,
b0 T,
b0 ],
#183
12'
b1 K,
b1 ],
#184
b11 9&
1=&
b11111111111111111111111111111111 ?&
b11 _&
1f&
1g&
0h&
b0 i&
b1 .'
14'
b1 E,
b1 H,
b1 T,
b1 Z,
b10 ],
#185
b11 E#
b110 y#
1~#
b1111 #&
b1 9&
0=&
0f&
0g&
b11111111111111111111111111111111 i&
b1111 .'
02'
04'
b0 E,
b0 H,
b0 K,
b0 T,
b0 Z,
b0 ],
#186
b11111111111111111111111111111111 %#
12'
b1 K,
b1 ],
#187
b11 9&
1=&
b0 ?&
b1 b&
1f&
1g&
1h&
b0 i&
b1 .'
14'
b1 E,
b1 H,
b1 T,
b10 Z,
b10 ],
#188
b0 E#
b11 y#
1|#
0~#
b0 #&
b0 +&
00&
b1 9&
0=&
0f&
0g&
b11111111111111111111111111111111 i&
b1111 .'
02'
04'
b1 B,
b0 E,
b0 H,
b0 K,
b1 Q,
b0 T,
b0 Z,
b0 ],
#189
b10 y#
0|#
12'
b0 B,
b1 K,
b0 Q,
b1 ],
#190
b11 9&
1=&
b11111111111111111111111111111111 ?&
b1111 b&
1f&
1g&
0h&
b0 i&
b1 .'
14'
b1 E,
b1 H,
b1 T,
b1 Z,
b10 ],
#191
b11 E#
b110 y#
1~#
b1111 #&
b100 +&
10&
b1 9&
0=&
0f&
0g&
b11111111111111111111111111111111 i&
b1111 .'
02'
04'
b0 E,
b0 H,
b0 K,
b0 T,
b0 Z,
b0 ],
#192
12'
b1 K,
b1 ],
#193
b11 9&
1=&
b0 ?&
b1 b&
1f&
1g&
1h&
b0 i&
b1 .'
14'
b1 E,
b1 H,
b1 T,
b10 Z,
b10 ],
#194
b0 E#
b11 y#
1|#
0~#
b0 #&
b0 +&
00&
b1 9&
0=&
0f&
0g&
b11111111111111111111111111111111 i&
b1111 .'
02'
04'
b1 B,
b0 E,
b0 H,
b0 K,
b1 Q,
b0 T,
b0 Z,
b0 ],
#195
b10 y#
0|#
12'
b0 B,
b1 K,
b0 Q,
b1 ],
#196
b11 9&
1=&
b11111111111111111111111111111111 ?&
b1111 b&
1f&
1g&
0h&
b0 i&
b1 .'
14'
b1 E,
b1 H,
b1 T,
b1 Z,
b10 ],
#197
b11 E#
b110 y#
1~#
b1111 #&
b100 +&
10&
b1 9&
0=&
0f&
0g&
b11111111111111111111111111111111 i&
b1111 .'
02'
04'
b0 E,
b0 H,
b0 K,
b0 T,
b0 Z,
b0 ],
#198
12'
b1 K,
b1 ],
#199
b11 9&
1=&
b0 ?&
b1 b&
1f&
1g&
1h&
b0 i&
b1 .'
14'
b1 E,
b1 H,
b1 T,
b10 Z,
b10 ],
#200
b0 E#
b11 y#
1|#
0~#
b0 #&
b0 +&
00&
b1 9&
0=&
0f&
0g&
b11111111111111111111111111111111 i&
b1111 .'
02'
04'
b1 B,
b0 E,
b0 H,
b0 K,
b1 Q,
b0 T,
b0 Z,
b0 ],
#201
0(
b11111111111111111111111111111111 )
b10 y#
0|#
12'
b0 B,
b1 K,
b0 Q,
b1 ],
#202
1(
b11 9&
1=&
b11111111111111111111111111111111 ?&
b1111 b&
1f&
1g&
0h&
b0 i&
b1 .'
14'
b1 E,
b1 H,
b1 T,
b1 Z,
b10 ],
#203
b11 E#
b110 y#
1~#
b1111 #&
b100 +&
10&
b1 9&
0=&
0f&
0g&
b11111111111111111111111111111111 i&
b1111 .'
02'
04'
b111 !,
1&,
b0 E,
b0 H,
b0 K,
b0 T,
b111 W,
b0 Z,
b0 ],
#204
12'
b0 5'
b0 s(
b11 !,
0&,
b1 K,
b1 W,
b1 ],
#205
b11 9&
1=&
b0 ?&
b1 b&
1f&
1g&
1h&
b0 i&
b1 .'
14'
b1 E,
b1 H,
b1 T,
b10 Z,
b10 ],
#206
0(
b0 E#
b11 y#
1|#
0~#
b0 #&
b0 +&
00&
b1 9&
0=&
0f&
0g&
b11111111111111111111111111111111 i&
b1111 .'
02'
04'
b1 B,
b0 E,
b0 H,
b0 K,
b1 Q,
b0 T,
b0 Z,
b0 ],
#207
1(
b10 y#
0|#
12'
b0 B,
b1 K,
b0 Q,
b1 ],
#208
b11 9&
1=&
b11111111111111111111111111111111 ?&
b1111 b&
1f&
1g&
0h&
b0 i&
b1 .'
14'
b1 E,
b1 H,
b1 T,
b1 Z,
b10 ],
#209
b11 E#
b110 y#
1~#
b1111 #&
b100 +&
10&
b1 9&
0=&
0f&
0g&
b11111111111111111111111111111111 i&
b1111 .'
02'
04'
b0 E,
b0 H,
b0 K,
b0 T,
b0 Z,
b0 ],
#210
12'
b1 K,
b1 ],
#211
b11 9&
1=&
b0 ?&
b1 b&
1f&
1g&
1h&
b0 i&
b1 .'
14'
b1 E,
b1 H,
b1 T,
b10 Z,
b10 ],
#212
0(
b0 E#
b11 y#
1|#
0~#
b0 #&
b0 +&
00&
b1 9&
0=&
0f&
0g&
b11111111111111111111111111111111 i&
b1111 .'
02'
04'
b100000000000000000000000000000000000000000000000000000000001110011000000000000100000000000000100100000000000000000000000000000 u(
b1 B,
b0 E,
b0 H,
b0 K,
b1 Q,
b0 T,
b0 Z,
b0 ],
#213
1(
b10 y#
0|#
12'
b110000000000001000000000000001000001001010010000100000100100110011000000000001100000000000000100100000000000000000000000000000 u(
b0 B,
b1 K,
b0 Q,
b1 ],
#214
b11 9&
1=&
b11111111111111111111111111111111 ?&
b1111 b&
1f&
1g&
0h&
b0 i&
b1 .'
14'
b110000000000001010000000000001000000000000000000000101000000000011000000000000110000000000000100000000000000000000000000000000 u(
b1 E,
b1 H,
b1 T,
b1 Z,
b10 ],
