.Xil/Vivado-92472-luiscarlos-GL552VX/hw_ila_data_1/zip_work/waveform.vcd
$date
        2023-May-24 23:56:43
$end
$version
        Vivado v2021.2 (64-bit)
$end
$timescale
        1ps
$end
$scope module dut $end
$var reg 1 " design_1_i/system_ila_0/inst/probe0_1 $end
$var reg 1 # design_1_i/system_ila_0/inst/probe1_1 $end
$var reg 1 $ design_1_i/system_ila_0/inst/probe2_1 $end
$var reg 1 % design_1_i/system_ila_0/inst/probe3_1 $end
$var reg 1 & design_1_i/system_ila_0/inst/probe4_1 $end
$var reg 1 ' design_1_i/system_ila_0/inst/probe5_1 $end
$var reg 1 ( design_1_i/system_ila_0/inst/SLOT_0_ICAP_csib_1 $end
$var reg 32 ) design_1_i/system_ila_0/inst/SLOT_0_ICAP_i_1 [31:0] $end
$var reg 32 I design_1_i/system_ila_0/inst/SLOT_0_ICAP_o_1 [31:0] $end
$var reg 1 i design_1_i/system_ila_0/inst/SLOT_0_ICAP_rdwrb_1 $end
$var reg 1 j design_1_i/system_ila_0/inst/SLOT_0_ICAP_avail_1 $end
$var reg 1 k design_1_i/system_ila_0/inst/SLOT_0_ICAP_prdone_1 $end
$var reg 1 l design_1_i/system_ila_0/inst/SLOT_0_ICAP_prerror_1 $end
$var reg 2 m design_1_i/system_ila_0/inst/net_slot_1_axi_ar_cnt [1:0] $end
$var reg 32 o design_1_i/system_ila_0/inst/net_slot_1_axi_araddr [31:0] $end
$var reg 2 1" design_1_i/system_ila_0/inst/net_slot_1_axi_arburst [1:0] $end
$var reg 4 3" design_1_i/system_ila_0/inst/net_slot_1_axi_arcache [3:0] $end
$var reg 8 7" design_1_i/system_ila_0/inst/net_slot_1_axi_arlen [7:0] $end
$var reg 3 ?" design_1_i/system_ila_0/inst/net_slot_1_axi_arprot [2:0] $end
$var reg 3 B" design_1_i/system_ila_0/inst/net_slot_1_axi_arsize [2:0] $end
$var reg 4 E" design_1_i/system_ila_0/inst/net_slot_1_axi_aruser [3:0] $end
$var reg 2 I" design_1_i/system_ila_0/inst/net_slot_1_axi_aw_cnt [1:0] $end
$var reg 32 K" design_1_i/system_ila_0/inst/net_slot_1_axi_awaddr [31:0] $end
$var reg 2 k" design_1_i/system_ila_0/inst/net_slot_1_axi_awburst [1:0] $end
$var reg 4 m" design_1_i/system_ila_0/inst/net_slot_1_axi_awcache [3:0] $end
$var reg 8 q" design_1_i/system_ila_0/inst/net_slot_1_axi_awlen [7:0] $end
$var reg 3 y" design_1_i/system_ila_0/inst/net_slot_1_axi_awprot [2:0] $end
$var reg 3 |" design_1_i/system_ila_0/inst/net_slot_1_axi_awsize [2:0] $end
$var reg 2 !# design_1_i/system_ila_0/inst/net_slot_1_axi_b_cnt [1:0] $end
$var reg 2 ## design_1_i/system_ila_0/inst/net_slot_1_axi_r_cnt [1:0] $end
$var reg 32 %# design_1_i/system_ila_0/inst/net_slot_1_axi_rdata [31:0] $end
$var reg 2 E# design_1_i/system_ila_0/inst/net_slot_1_axi_rresp [1:0] $end
$var reg 32 G# design_1_i/system_ila_0/inst/net_slot_1_axi_wdata [31:0] $end
$var reg 1 g# design_1_i/system_ila_0/inst/net_slot_1_axi_awvalid $end
$var reg 2 h# design_1_i/system_ila_0/inst/net_slot_1_axi_aw_ctrl [1:0] $end
$var reg 1 j# design_1_i/system_ila_0/inst/net_slot_1_axi_awready $end
$var reg 3 k# design_1_i/system_ila_0/inst/net_slot_1_axi_w_ctrl [2:0] $end
$var reg 1 n# design_1_i/system_ila_0/inst/net_slot_1_axi_wvalid $end
$var reg 1 o# design_1_i/system_ila_0/inst/net_slot_1_axi_wready $end
$var reg 1 p# design_1_i/system_ila_0/inst/net_slot_1_axi_wlast $end
$var reg 1 q# design_1_i/system_ila_0/inst/net_slot_1_axi_bvalid $end
$var reg 2 r# design_1_i/system_ila_0/inst/net_slot_1_axi_b_ctrl [1:0] $end
$var reg 1 t# design_1_i/system_ila_0/inst/net_slot_1_axi_bready $end
$var reg 2 u# design_1_i/system_ila_0/inst/net_slot_1_axi_ar_ctrl [1:0] $end
$var reg 1 w# design_1_i/system_ila_0/inst/net_slot_1_axi_arvalid $end
$var reg 1 x# design_1_i/system_ila_0/inst/net_slot_1_axi_arready $end
$var reg 3 y# design_1_i/system_ila_0/inst/net_slot_1_axi_r_ctrl [2:0] $end
$var reg 1 |# design_1_i/system_ila_0/inst/net_slot_1_axi_rvalid $end
$var reg 1 }# design_1_i/system_ila_0/inst/net_slot_1_axi_rready $end
$var reg 1 ~# design_1_i/system_ila_0/inst/net_slot_1_axi_rlast $end
$var reg 2 !$ design_1_i/system_ila_0/inst/net_slot_2_axi_ar_cnt [1:0] $end
$var reg 32 #$ design_1_i/system_ila_0/inst/net_slot_2_axi_araddr [31:0] $end
$var reg 2 C$ design_1_i/system_ila_0/inst/net_slot_2_axi_arburst [1:0] $end
$var reg 4 E$ design_1_i/system_ila_0/inst/net_slot_2_axi_arcache [3:0] $end
$var reg 8 I$ design_1_i/system_ila_0/inst/net_slot_2_axi_arlen [7:0] $end
$var reg 1 Q$ design_1_i/system_ila_0/inst/net_slot_2_axi_arlock $end
$var reg 3 R$ design_1_i/system_ila_0/inst/net_slot_2_axi_arprot [2:0] $end
$var reg 4 U$ design_1_i/system_ila_0/inst/net_slot_2_axi_arqos [3:0] $end
$var reg 3 Y$ design_1_i/system_ila_0/inst/net_slot_2_axi_arsize [2:0] $end
$var reg 2 \$ design_1_i/system_ila_0/inst/net_slot_2_axi_aw_cnt [1:0] $end
$var reg 32 ^$ design_1_i/system_ila_0/inst/net_slot_2_axi_awaddr [31:0] $end
$var reg 2 ~$ design_1_i/system_ila_0/inst/net_slot_2_axi_awburst [1:0] $end
$var reg 4 "% design_1_i/system_ila_0/inst/net_slot_2_axi_awcache [3:0] $end
$var reg 8 &% design_1_i/system_ila_0/inst/net_slot_2_axi_awlen [7:0] $end
$var reg 1 .% design_1_i/system_ila_0/inst/net_slot_2_axi_awlock $end
$var reg 3 /% design_1_i/system_ila_0/inst/net_slot_2_axi_awprot [2:0] $end
$var reg 4 2% design_1_i/system_ila_0/inst/net_slot_2_axi_awqos [3:0] $end
$var reg 3 6% design_1_i/system_ila_0/inst/net_slot_2_axi_awsize [2:0] $end
$var reg 2 9% design_1_i/system_ila_0/inst/net_slot_2_axi_b_cnt [1:0] $end
$var reg 2 ;% design_1_i/system_ila_0/inst/net_slot_2_axi_bresp [1:0] $end
$var reg 2 =% design_1_i/system_ila_0/inst/net_slot_2_axi_r_cnt [1:0] $end
$var reg 32 ?% design_1_i/system_ila_0/inst/net_slot_2_axi_rdata [31:0] $end
$var reg 2 _% design_1_i/system_ila_0/inst/net_slot_2_axi_rresp [1:0] $end
$var reg 32 a% design_1_i/system_ila_0/inst/net_slot_2_axi_wdata [31:0] $end
$var reg 4 #& design_1_i/system_ila_0/inst/net_slot_2_axi_wstrb [3:0] $end
$var reg 1 '& design_1_i/system_ila_0/inst/net_slot_2_axi_awvalid $end
$var reg 2 (& design_1_i/system_ila_0/inst/net_slot_2_axi_aw_ctrl [1:0] $end
$var reg 1 *& design_1_i/system_ila_0/inst/net_slot_2_axi_awready $end
$var reg 3 +& design_1_i/system_ila_0/inst/net_slot_2_axi_w_ctrl [2:0] $end
$var reg 1 .& design_1_i/system_ila_0/inst/net_slot_2_axi_wvalid $end
$var reg 1 /& design_1_i/system_ila_0/inst/net_slot_2_axi_wready $end
$var reg 1 0& design_1_i/system_ila_0/inst/net_slot_2_axi_wlast $end
$var reg 1 1& design_1_i/system_ila_0/inst/net_slot_2_axi_bvalid $end
$var reg 2 2& design_1_i/system_ila_0/inst/net_slot_2_axi_b_ctrl [1:0] $end
$var reg 1 4& design_1_i/system_ila_0/inst/net_slot_2_axi_bready $end
$var reg 2 5& design_1_i/system_ila_0/inst/net_slot_2_axi_ar_ctrl [1:0] $end
$var reg 1 7& design_1_i/system_ila_0/inst/net_slot_2_axi_arvalid $end
$var reg 1 8& design_1_i/system_ila_0/inst/net_slot_2_axi_arready $end
$var reg 3 9& design_1_i/system_ila_0/inst/net_slot_2_axi_r_ctrl [2:0] $end
$var reg 1 <& design_1_i/system_ila_0/inst/net_slot_2_axi_rvalid $end
$var reg 1 =& design_1_i/system_ila_0/inst/net_slot_2_axi_rready $end
$var reg 1 >& design_1_i/system_ila_0/inst/net_slot_2_axi_rlast $end
$var reg 128 ?& design_1_i/system_ila_0/inst/net_slot_3_axis_tdata [127:0] $end
$var reg 3 a' design_1_i/system_ila_0/inst/net_slot_3_axis_tid [2:0] $end
$var reg 16 d' design_1_i/system_ila_0/inst/net_slot_3_axis_tkeep [15:0] $end
$var reg 1 t' design_1_i/system_ila_0/inst/net_slot_3_axis_tvalid $end
$var reg 1 u' design_1_i/system_ila_0/inst/net_slot_3_axis_tready $end
$var reg 1 v' design_1_i/system_ila_0/inst/net_slot_3_axis_tlast $end
$var reg 128 w' design_1_i/system_ila_0/inst/net_slot_4_axis_tdata [127:0] $end
$var reg 3 ;) design_1_i/system_ila_0/inst/net_slot_4_axis_tid [2:0] $end
$var reg 16 >) design_1_i/system_ila_0/inst/net_slot_4_axis_tkeep [15:0] $end
$var reg 1 N) design_1_i/system_ila_0/inst/net_slot_4_axis_tvalid $end
$var reg 1 O) design_1_i/system_ila_0/inst/net_slot_4_axis_tready $end
$var reg 1 P) design_1_i/system_ila_0/inst/net_slot_4_axis_tlast $end
$var reg 3 Q) AR_Channel__i1_s1___dfx_controller_0_M_AXI_MEM_ [2:0] $end
$var reg 3 T) AR_Channel__i1_s2___axi_mm2s_mapper_0_M_AXI_ [2:0] $end
$var reg 3 W) AW_Channel__i1_s1___dfx_controller_0_M_AXI_MEM_ [2:0] $end
$var reg 3 Z) AW_Channel__i1_s2___axi_mm2s_mapper_0_M_AXI_ [2:0] $end
$var reg 3 ]) B_Channel__i1_s1___dfx_controller_0_M_AXI_MEM_ [2:0] $end
$var reg 3 `) B_Channel__i1_s2___axi_mm2s_mapper_0_M_AXI_ [2:0] $end
$var reg 3 c) Interface__i1_s1___dfx_controller_0_M_AXI_MEM_ [2:0] $end
$var reg 3 f) Interface__i1_s2___axi_mm2s_mapper_0_M_AXI_ [2:0] $end
$var reg 3 i) Interface__i1_s3___axi_mm2s_mapper_0_M_AXIS_ [2:0] $end
$var reg 3 l) Interface__i1_s4___aes_0_M_AXIS_ [2:0] $end
$var reg 3 o) R_Channel__i1_s1___dfx_controller_0_M_AXI_MEM_ [2:0] $end
$var reg 3 r) R_Channel__i1_s2___axi_mm2s_mapper_0_M_AXI_ [2:0] $end
$var reg 3 u) T_Channel__i1_s3___axi_mm2s_mapper_0_M_AXIS_ [2:0] $end
$var reg 3 x) T_Channel__i1_s4___aes_0_M_AXIS_ [2:0] $end
$var reg 3 {) W_Channel__i1_s1___dfx_controller_0_M_AXI_MEM_ [2:0] $end
$var reg 3 ~) W_Channel__i1_s2___axi_mm2s_mapper_0_M_AXI_ [2:0] $end
$var reg 16 #* ila_1___slot_1___dfx_controller_0_M_AXI_MEM___Read_Transactions_0 [15:0] $end
$var reg 1 3* _TRIGGER $end
$var reg 1 4* _WINDOW $end
$var reg 1 5* _GAP $end
$upscope $end
$enddefinitions $end
#0
$dumpvars
0"
0#
1$
0%
0&
0'
1(
b0 )
b11111111111111111111111110011011 I
0i
1j
1k
0l
b0 m
b0 o
b0 1"
b11 3"
b0 7"
b0 ?"
b0 B"
b0 E"
b0 I"
b0 K"
b1 k"
b11 m"
b0 q"
b0 y"
b10 |"
b0 !#
b0 ##
b0 %#
b0 E#
b0 G#
0g#
b0 h#
0j#
b0 k#
0n#
0o#
0p#
0q#
b0 r#
0t#
b0 u#
0w#
0x#
b0 y#
0|#
0}#
0~#
b0 !$
b0 #$
b0 C$
b0 E$
b0 I$
0Q$
b0 R$
b0 U$
b0 Y$
b0 \$
b0 ^$
b0 ~$
b0 "%
b0 &%
0.%
b0 /%
b0 2%
b0 6%
b0 9%
b0 ;%
b0 =%
b0 ?%
b0 _%
b0 a%
b0 #&
0'&
b10 (&
1*&
b0 +&
0.&
0/&
00&
01&
b10 2&
14&
b10 5&
07&
18&
b0 9&
0<&
0=&
0>&
b0 ?&
b0 a'
b1 d'
0t'
1u'
1v'
b0 w'
b0 ;)
b0 >)
0N)
0O)
0P)
b0 Q)
b11 T)
b11 W)
b11 Z)
b11 ])
b11 `)
b0 c)
b11 f)
b0 i)
b11 l)
b100 o)
b100 r)
b0 u)
b11 x)
b100 {)
b100 ~)
b0 #*
03*
14*
05*
$end
#1024
1#
13*
#1045
b1011100110011000100000 o
b1 1"
b1110111 7"
b10 B"
b1 u#
1w#
b10 Q)
b1 c)
#1046
b11 u#
1x#
b10 y#
1}#
b111011100110101000000000000001011100110011000100000 ?&
b10 a'
b11111111 d'
1t'
b1 i)
b10 u)
#1047
b1 m
b0 o
b0 1"
b0 7"
b0 B"
b1 ##
b0 u#
0w#
0x#
b110000000000000000000000000000000000000000 ?&
0t'
b0 Q)
b0 c)
b0 i)
b0 u)
#1050
b1011100110100000000000 o
b1 1"
b11111111 7"
b10 B"
b1 u#
1w#
b1111111100110101000000000000001011100110100000000000 ?&
b10 Q)
b1 c)
#1051
b11 u#
1x#
1t'
b1 i)
b10 u)
#1052
b10 m
b0 o
b0 1"
b0 7"
b0 B"
b10 ##
b0 u#
0w#
0x#
b110000000000000000000000000000000000000000 ?&
0t'
b0 Q)
b0 c)
b0 i)
b0 u)
#1055
b1011100110110000000000 o
b1 1"
b11111111 7"
b10 B"
b1 u#
1w#
b1111111100110101000000000000001011100110110000000000 ?&
b10 Q)
b1 c)
#1056
b11 u#
1x#
1t'
b1 i)
b10 u)
b1 #*
#1057
b11 m
b0 o
b0 1"
b0 7"
b0 B"
b11 ##
b0 u#
0w#
0x#
b110000000000000000000000000000000000000000 ?&
0t'
b0 Q)
b0 c)
b0 i)
b0 u)
#1060
b1011100111000000000000 o
b1 1"
b11111111 7"
b10 B"
b1 u#
1w#
b1111111100110101000000000000001011100111000000000000 ?&
b10 Q)
b1 c)
#1061
b11 u#
1x#
1t'
b1 i)
b10 u)
#1062
b0 m
b0 o
b0 1"
b0 7"
b0 B"
b0 ##
b0 u#
0w#
0x#
b110000000000000000000000000000000000000000 ?&
0t'
b0 Q)
b0 c)
b0 i)
b0 u)
#1065
b1011100111010000000000 o
b1 1"
b11111111 7"
b10 B"
b1 u#
1w#
b1111111100110101000000000000001011100111010000000000 ?&
b10 Q)
b1 c)
#1066
b11 u#
1x#
1t'
b1 i)
b10 u)
#1067
b1 m
b0 o
b0 1"
b0 7"
b0 B"
b1 ##
b0 u#
0w#
0x#
b110000000000000000000000000000000000000000 ?&
0t'
b0 Q)
b0 c)
b0 i)
b0 u)
