.Xil/Vivado-3760-luiscarlos-GL552VX/hw_ila_data_1/zip_work/waveform.vcd
$date
        2023-Jun-16 23:01:43
$end
$version
        Vivado v2021.2 (64-bit)
$end
$timescale
        1ps
$end
$scope module dut $end
$var reg 1 " design_1_i/system_ila_0/inst/probe0_1 $end
$var reg 1 # design_1_i/system_ila_0/inst/probe1_1 $end
$var reg 1 $ design_1_i/system_ila_0/inst/probe2_1 $end
$var reg 1 % design_1_i/system_ila_0/inst/probe3_1 $end
$var reg 1 & design_1_i/system_ila_0/inst/probe4_1 $end
$var reg 256 ' design_1_i/system_ila_0/inst/probe5_1 [255:0] $end
$var reg 1 k# design_1_i/system_ila_0/inst/probe6_1 $end
$var reg 1 l# design_1_i/system_ila_0/inst/probe7_1 $end
$var reg 1 m# design_1_i/system_ila_0/inst/probe8_1 $end
$var reg 1 n# design_1_i/system_ila_0/inst/probe9_1 $end
$var reg 1 o# design_1_i/system_ila_0/inst/probe10_1 $end
$var reg 1 p# design_1_i/system_ila_0/inst/probe11_1 $end
$var reg 256 q# design_1_i/system_ila_0/inst/probe12_1 [255:0] $end
$var reg 1 W& design_1_i/system_ila_0/inst/probe13_1 $end
$var reg 128 X& design_1_i/system_ila_0/inst/probe14_1 [127:0] $end
$var reg 128 z' design_1_i/system_ila_0/inst/probe15_1 [127:0] $end
$var reg 1 >) design_1_i/system_ila_0/inst/probe16_1 $end
$var reg 128 ?) design_1_i/system_ila_0/inst/probe17_1 [127:0] $end
$var reg 2 a* design_1_i/system_ila_0/inst/probe18_1 [1:0] $end
$var reg 1 c* design_1_i/system_ila_0/inst/probe19_1 $end
$var reg 4 d* design_1_i/system_ila_0/inst/probe20_1 [3:0] $end
$var reg 4 h* design_1_i/system_ila_0/inst/probe21_1 [3:0] $end
$var reg 1 l* design_1_i/system_ila_0/inst/probe22_1 $end
$var reg 1 m* design_1_i/system_ila_0/inst/probe23_1 $end
$var reg 4 n* design_1_i/system_ila_0/inst/probe24_1 [3:0] $end
$var reg 4 r* design_1_i/system_ila_0/inst/probe25_1 [3:0] $end
$var reg 128 v* design_1_i/system_ila_0/inst/probe26_1 [127:0] $end
$var reg 1 :, design_1_i/system_ila_0/inst/probe27_1 $end
$var reg 1 ;, design_1_i/system_ila_0/inst/probe28_1 $end
$var reg 128 <, design_1_i/system_ila_0/inst/probe29_1 [127:0] $end
$var reg 2 ^- design_1_i/system_ila_0/inst/probe30_1 [1:0] $end
$var reg 1 `- design_1_i/system_ila_0/inst/SLOT_0_ICAP_csib_1 $end
$var reg 32 a- design_1_i/system_ila_0/inst/SLOT_0_ICAP_i_1 [31:0] $end
$var reg 32 #. design_1_i/system_ila_0/inst/SLOT_0_ICAP_o_1 [31:0] $end
$var reg 1 C. design_1_i/system_ila_0/inst/SLOT_0_ICAP_rdwrb_1 $end
$var reg 1 D. design_1_i/system_ila_0/inst/SLOT_0_ICAP_avail_1 $end
$var reg 1 E. design_1_i/system_ila_0/inst/SLOT_0_ICAP_prdone_1 $end
$var reg 1 F. design_1_i/system_ila_0/inst/SLOT_0_ICAP_prerror_1 $end
$var reg 2 G. design_1_i/system_ila_0/inst/net_slot_1_axi_ar_cnt [1:0] $end
$var reg 32 I. design_1_i/system_ila_0/inst/net_slot_1_axi_araddr [31:0] $end
$var reg 2 i. design_1_i/system_ila_0/inst/net_slot_1_axi_arburst [1:0] $end
$var reg 4 k. design_1_i/system_ila_0/inst/net_slot_1_axi_arcache [3:0] $end
$var reg 8 o. design_1_i/system_ila_0/inst/net_slot_1_axi_arlen [7:0] $end
$var reg 3 w. design_1_i/system_ila_0/inst/net_slot_1_axi_arprot [2:0] $end
$var reg 3 z. design_1_i/system_ila_0/inst/net_slot_1_axi_arsize [2:0] $end
$var reg 4 }. design_1_i/system_ila_0/inst/net_slot_1_axi_aruser [3:0] $end
$var reg 2 #/ design_1_i/system_ila_0/inst/net_slot_1_axi_aw_cnt [1:0] $end
$var reg 32 %/ design_1_i/system_ila_0/inst/net_slot_1_axi_awaddr [31:0] $end
$var reg 2 E/ design_1_i/system_ila_0/inst/net_slot_1_axi_awburst [1:0] $end
$var reg 4 G/ design_1_i/system_ila_0/inst/net_slot_1_axi_awcache [3:0] $end
$var reg 8 K/ design_1_i/system_ila_0/inst/net_slot_1_axi_awlen [7:0] $end
$var reg 3 S/ design_1_i/system_ila_0/inst/net_slot_1_axi_awprot [2:0] $end
$var reg 3 V/ design_1_i/system_ila_0/inst/net_slot_1_axi_awsize [2:0] $end
$var reg 2 Y/ design_1_i/system_ila_0/inst/net_slot_1_axi_b_cnt [1:0] $end
$var reg 2 [/ design_1_i/system_ila_0/inst/net_slot_1_axi_r_cnt [1:0] $end
$var reg 32 ]/ design_1_i/system_ila_0/inst/net_slot_1_axi_rdata [31:0] $end
$var reg 2 }/ design_1_i/system_ila_0/inst/net_slot_1_axi_rresp [1:0] $end
$var reg 32 !0 design_1_i/system_ila_0/inst/net_slot_1_axi_wdata [31:0] $end
$var reg 1 A0 design_1_i/system_ila_0/inst/net_slot_1_axi_awvalid $end
$var reg 2 B0 design_1_i/system_ila_0/inst/net_slot_1_axi_aw_ctrl [1:0] $end
$var reg 1 D0 design_1_i/system_ila_0/inst/net_slot_1_axi_awready $end
$var reg 1 E0 design_1_i/system_ila_0/inst/net_slot_1_axi_wvalid $end
$var reg 3 F0 design_1_i/system_ila_0/inst/net_slot_1_axi_w_ctrl [2:0] $end
$var reg 1 I0 design_1_i/system_ila_0/inst/net_slot_1_axi_wready $end
$var reg 1 J0 design_1_i/system_ila_0/inst/net_slot_1_axi_wlast $end
$var reg 1 K0 design_1_i/system_ila_0/inst/net_slot_1_axi_bvalid $end
$var reg 2 L0 design_1_i/system_ila_0/inst/net_slot_1_axi_b_ctrl [1:0] $end
$var reg 1 N0 design_1_i/system_ila_0/inst/net_slot_1_axi_bready $end
$var reg 1 O0 design_1_i/system_ila_0/inst/net_slot_1_axi_arvalid $end
$var reg 2 P0 design_1_i/system_ila_0/inst/net_slot_1_axi_ar_ctrl [1:0] $end
$var reg 1 R0 design_1_i/system_ila_0/inst/net_slot_1_axi_arready $end
$var reg 3 S0 design_1_i/system_ila_0/inst/net_slot_1_axi_r_ctrl [2:0] $end
$var reg 1 V0 design_1_i/system_ila_0/inst/net_slot_1_axi_rvalid $end
$var reg 1 W0 design_1_i/system_ila_0/inst/net_slot_1_axi_rready $end
$var reg 1 X0 design_1_i/system_ila_0/inst/net_slot_1_axi_rlast $end
$var reg 2 Y0 design_1_i/system_ila_0/inst/net_slot_2_axi_ar_cnt [1:0] $end
$var reg 32 [0 design_1_i/system_ila_0/inst/net_slot_2_axi_araddr [31:0] $end
$var reg 3 {0 design_1_i/system_ila_0/inst/net_slot_2_axi_arprot [2:0] $end
$var reg 2 ~0 design_1_i/system_ila_0/inst/net_slot_2_axi_aw_cnt [1:0] $end
$var reg 32 "1 design_1_i/system_ila_0/inst/net_slot_2_axi_awaddr [31:0] $end
$var reg 3 B1 design_1_i/system_ila_0/inst/net_slot_2_axi_awprot [2:0] $end
$var reg 2 E1 design_1_i/system_ila_0/inst/net_slot_2_axi_b_cnt [1:0] $end
$var reg 2 G1 design_1_i/system_ila_0/inst/net_slot_2_axi_r_cnt [1:0] $end
$var reg 32 I1 design_1_i/system_ila_0/inst/net_slot_2_axi_rdata [31:0] $end
$var reg 2 i1 design_1_i/system_ila_0/inst/net_slot_2_axi_rresp [1:0] $end
$var reg 32 k1 design_1_i/system_ila_0/inst/net_slot_2_axi_wdata [31:0] $end
$var reg 2 -2 design_1_i/system_ila_0/inst/net_slot_2_axi_aw_ctrl [1:0] $end
$var reg 1 /2 design_1_i/system_ila_0/inst/net_slot_2_axi_awvalid $end
$var reg 1 02 design_1_i/system_ila_0/inst/net_slot_2_axi_awready $end
$var reg 1 12 design_1_i/system_ila_0/inst/net_slot_2_axi_wvalid $end
$var reg 2 22 design_1_i/system_ila_0/inst/net_slot_2_axi_w_ctrl [1:0] $end
$var reg 1 42 design_1_i/system_ila_0/inst/net_slot_2_axi_wready $end
$var reg 2 52 design_1_i/system_ila_0/inst/net_slot_2_axi_b_ctrl [1:0] $end
$var reg 1 72 design_1_i/system_ila_0/inst/net_slot_2_axi_bvalid $end
$var reg 1 82 design_1_i/system_ila_0/inst/net_slot_2_axi_bready $end
$var reg 2 92 design_1_i/system_ila_0/inst/net_slot_2_axi_ar_ctrl [1:0] $end
$var reg 1 ;2 design_1_i/system_ila_0/inst/net_slot_2_axi_arvalid $end
$var reg 1 <2 design_1_i/system_ila_0/inst/net_slot_2_axi_arready $end
$var reg 2 =2 design_1_i/system_ila_0/inst/net_slot_2_axi_r_ctrl [1:0] $end
$var reg 1 ?2 design_1_i/system_ila_0/inst/net_slot_2_axi_rvalid $end
$var reg 1 @2 design_1_i/system_ila_0/inst/net_slot_2_axi_rready $end
$var reg 2 A2 design_1_i/system_ila_0/inst/net_slot_3_axi_ar_cnt [1:0] $end
$var reg 32 C2 design_1_i/system_ila_0/inst/net_slot_3_axi_araddr [31:0] $end
$var reg 3 c2 design_1_i/system_ila_0/inst/net_slot_3_axi_arprot [2:0] $end
$var reg 2 f2 design_1_i/system_ila_0/inst/net_slot_3_axi_aw_cnt [1:0] $end
$var reg 32 h2 design_1_i/system_ila_0/inst/net_slot_3_axi_awaddr [31:0] $end
$var reg 3 *3 design_1_i/system_ila_0/inst/net_slot_3_axi_awprot [2:0] $end
$var reg 2 -3 design_1_i/system_ila_0/inst/net_slot_3_axi_b_cnt [1:0] $end
$var reg 2 /3 design_1_i/system_ila_0/inst/net_slot_3_axi_bresp [1:0] $end
$var reg 2 13 design_1_i/system_ila_0/inst/net_slot_3_axi_r_cnt [1:0] $end
$var reg 32 33 design_1_i/system_ila_0/inst/net_slot_3_axi_rdata [31:0] $end
$var reg 2 S3 design_1_i/system_ila_0/inst/net_slot_3_axi_rresp [1:0] $end
$var reg 32 U3 design_1_i/system_ila_0/inst/net_slot_3_axi_wdata [31:0] $end
$var reg 4 u3 design_1_i/system_ila_0/inst/net_slot_3_axi_wstrb [3:0] $end
$var reg 1 y3 design_1_i/system_ila_0/inst/net_slot_3_axi_awvalid $end
$var reg 2 z3 design_1_i/system_ila_0/inst/net_slot_3_axi_aw_ctrl [1:0] $end
$var reg 1 |3 design_1_i/system_ila_0/inst/net_slot_3_axi_awready $end
$var reg 1 }3 design_1_i/system_ila_0/inst/net_slot_3_axi_wvalid $end
$var reg 2 ~3 design_1_i/system_ila_0/inst/net_slot_3_axi_w_ctrl [1:0] $end
$var reg 1 "4 design_1_i/system_ila_0/inst/net_slot_3_axi_wready $end
$var reg 2 #4 design_1_i/system_ila_0/inst/net_slot_3_axi_b_ctrl [1:0] $end
$var reg 1 %4 design_1_i/system_ila_0/inst/net_slot_3_axi_bvalid $end
$var reg 1 &4 design_1_i/system_ila_0/inst/net_slot_3_axi_bready $end
$var reg 2 '4 design_1_i/system_ila_0/inst/net_slot_3_axi_ar_ctrl [1:0] $end
$var reg 1 )4 design_1_i/system_ila_0/inst/net_slot_3_axi_arvalid $end
$var reg 1 *4 design_1_i/system_ila_0/inst/net_slot_3_axi_arready $end
$var reg 1 +4 design_1_i/system_ila_0/inst/net_slot_3_axi_rvalid $end
$var reg 2 ,4 design_1_i/system_ila_0/inst/net_slot_3_axi_r_ctrl [1:0] $end
$var reg 1 .4 design_1_i/system_ila_0/inst/net_slot_3_axi_rready $end
$var reg 3 /4 AR_Channel__i1_s1___dfx_controller_0_M_AXI_MEM_ [2:0] $end
$var reg 3 24 AR_Channel__i1_s2___axi_interconnect_0_M00_AXI_ [2:0] $end
$var reg 3 54 AR_Channel__i1_s3___aes_0_m00_axi_ [2:0] $end
$var reg 3 84 AW_Channel__i1_s1___dfx_controller_0_M_AXI_MEM_ [2:0] $end
$var reg 3 ;4 AW_Channel__i1_s2___axi_interconnect_0_M00_AXI_ [2:0] $end
$var reg 3 >4 AW_Channel__i1_s3___aes_0_m00_axi_ [2:0] $end
$var reg 3 A4 B_Channel__i1_s1___dfx_controller_0_M_AXI_MEM_ [2:0] $end
$var reg 3 D4 B_Channel__i1_s2___axi_interconnect_0_M00_AXI_ [2:0] $end
$var reg 3 G4 B_Channel__i1_s3___aes_0_m00_axi_ [2:0] $end
$var reg 3 J4 Interface__i1_s1___dfx_controller_0_M_AXI_MEM_ [2:0] $end
$var reg 3 M4 Interface__i1_s2___axi_interconnect_0_M00_AXI_ [2:0] $end
$var reg 3 P4 Interface__i1_s3___aes_0_m00_axi_ [2:0] $end
$var reg 3 S4 R_Channel__i1_s1___dfx_controller_0_M_AXI_MEM_ [2:0] $end
$var reg 3 V4 R_Channel__i1_s2___axi_interconnect_0_M00_AXI_ [2:0] $end
$var reg 3 Y4 R_Channel__i1_s3___aes_0_m00_axi_ [2:0] $end
$var reg 3 \4 W_Channel__i1_s1___dfx_controller_0_M_AXI_MEM_ [2:0] $end
$var reg 3 _4 W_Channel__i1_s2___axi_interconnect_0_M00_AXI_ [2:0] $end
$var reg 3 b4 W_Channel__i1_s3___aes_0_m00_axi_ [2:0] $end
$var reg 16 e4 ila_1___slot_1___dfx_controller_0_M_AXI_MEM___Read_Transactions_0 [15:0] $end
$var reg 16 u4 ila_1___slot_2___axi_interconnect_0_M00_AXI___Read_Transactions_0 [15:0] $end
$var reg 16 '5 ila_1___slot_3___aes_0_m00_axi___Read_Transactions_0 [15:0] $end
$var reg 1 75 _TRIGGER $end
$var reg 1 85 _WINDOW $end
$var reg 1 95 _GAP $end
$upscope $end
$enddefinitions $end
#0
$dumpvars
0"
0#
1$
1%
0&
b11110001 '
1k#
0l#
0m#
0n#
0o#
1p#
b11110001 q#
1W&
b1101001011100001000011001000100001011110011011110101010110101100001011111101011010000010100011000001011101010000110110110110000 X&
b1011101010100001010101010001101011010100100011010111110011011101011110110001001110011010100010000001011111011111011110110110000 z'
1>)
b100000000000000000000000000000001000000000000000000000000000000010000000000000000000000000000000100000 ?)
b11 a*
1c*
b1 d*
b1 h*
0l*
0m*
b1 n*
b1 r*
b1101001011100001000011001000100001011110011011110101010110101100001011111101011010000010100011000001011101010000110110110110000 v*
0:,
0;,
b110100001000000010110011001001010001010111000100010100101110001010101001100010100011000000001000000000010001111101000000000000 <,
b10 ^-
1`-
b100000000000000000000000000 a-
b11111111111111111111111110011011 #.
0C.
1D.
1E.
0F.
b0 G.
b0 I.
b0 i.
b11 k.
b0 o.
b0 w.
b0 z.
b0 }.
b0 #/
b0 %/
b1 E/
b11 G/
b0 K/
b0 S/
b10 V/
b0 Y/
b0 [/
b0 ]/
b0 }/
b0 !0
0A0
b0 B0
0D0
0E0
b0 F0
0I0
0J0
0K0
b0 L0
0N0
0O0
b10 P0
1R0
b0 S0
0V0
0W0
0X0
b0 Y0
b0 [0
b0 {0
b0 ~0
b0 "1
b0 B1
b0 E1
b0 G1
b100000000000000000000000000000 I1
b0 i1
b0 k1
b0 -2
0/2
002
012
b0 22
042
b0 52
072
082
b0 92
0;2
0<2
b10 =2
0?2
1@2
b0 A2
b1110000010000011001100 C2
b0 c2
b0 f2
b0 h2
b0 *3
b0 -3
b0 /3
b0 13
b1000100100001100111000001101001 33
b0 S3
b0 U3
b0 u3
0y3
b10 z3
1|3
0}3
b0 ~3
0"4
b0 #4
0%4
0&4
b10 '4
0)4
1*4
0+4
b0 ,4
0.4
b0 /4
b0 24
b0 54
b11 84
b11 ;4
b11 >4
b11 A4
b11 D4
b11 G4
b0 J4
b0 M4
b0 P4
b0 S4
b0 V4
b0 Y4
b100 \4
b100 _4
b100 b4
b0 e4
b0 u4
b0 '5
075
185
095
$end
#128
1#
175
#149
b10011111000001111100000 I.
b1 i.
b111 o.
b10 z.
1O0
b11 P0
b10 /4
b1 J4
#150
b1 G.
b0 I.
b0 i.
b0 o.
b0 z.
b1 [/
0O0
b10 P0
b10 S0
1W0
b10011111000000011010000 [0
b0 /4
b0 J4
#151
b10011111000001111100000 [0
b1 92
1;2
b10 24
b1 M4
#152
b11 92
1<2
#153
b1 Y0
b10011111000001111100100 [0
b1 G1
b1 92
0<2
b0 24
b0 M4
#154
b10011111000010000000000 I.
b1 i.
b11111111 o.
b10 z.
1O0
b11 P0
b10 /4
b1 J4
#155
b10 G.
b0 I.
b0 i.
b0 o.
b0 z.
b10 [/
0O0
b0 P0
0R0
b0 /4
b0 J4
#156
b10011111000001111100000 C2
b11 '4
1)4
b10 54
b1 P4
#157
b11 92
1<2
b1 A2
b1 13
b10 '4
0)4
b10 24
b0 54
b1 M4
b0 P4
#158
b10 Y0
b10011111000001111101000 [0
b10 G1
b1 92
0<2
b0 24
b0 M4
#159
b10011111000100000000000 I.
b1 i.
b11111111 o.
b10 z.
1O0
b1 P0
b11 92
1<2
b10011111000001111100100 C2
b11 '4
1)4
b10 /4
b10 24
b10 54
b1 J4
b1 M4
b1 P4
b1 u4
#160
b11 Y0
b10011111000001111101100 [0
b11 G1
b1 92
0<2
b10 A2
b10 13
b10 '4
0)4
b0 24
b0 54
b0 M4
b0 P4
#161
b11 92
1<2
b10 24
b1 M4
#162
b0 Y0
b10011111000001111110000 [0
b0 G1
b1 92
0<2
b10011111000001111101000 C2
b11 '4
1)4
b0 24
b10 54
b0 M4
b1 P4
b1 '5
#163
b11 92
1<2
b11 A2
b11 13
b10 '4
0)4
b10 24
b0 54
b1 M4
b0 P4
#164
b1 Y0
b10011111000001111110100 [0
b1 G1
b1 92
0<2
b0 24
b0 M4
#165
b10011111000001111101100 C2
b11 '4
1)4
b10 54
b1 P4
#166
b0 A2
b0 13
b10 '4
0)4
b0 54
b0 P4
#168
b11 92
1<2
b10011111000001111110000 C2
b11 '4
1)4
b10 24
b10 54
b1 M4
b1 P4
#169
b10 Y0
b10011111000001111111000 [0
b10 G1
b1 92
0<2
b1 A2
b1 13
b10 '4
0)4
b0 24
b0 54
b0 M4
b0 P4
#170
b11 92
1<2
b10 24
b1 M4
#171
b11 Y0
b10011111000001111111100 [0
b11 G1
b1 92
0<2
b10011111000001111110100 C2
b11 '4
1)4
b0 24
b10 54
b0 M4
b1 P4
#172
b11 92
1<2
b10 A2
b10 13
b10 '4
0)4
b10 24
b0 54
b1 M4
b0 P4
#173
b0 Y0
b10011111000010000000000 [0
b0 G1
b0 92
0;2
0<2
b0 24
b0 M4
#174
b11 P0
1R0
b10011111000001111111000 C2
b11 '4
1)4
b10 54
b1 P4
b1 e4
#175
b11 G.
b0 I.
b0 i.
b0 o.
b0 z.
b11 [/
0O0
b0 P0
0R0
b1 92
1;2
b11 A2
b11 13
b10 '4
0)4
b0 /4
b10 24
b0 54
b0 J4
b1 M4
b0 P4
#176
b10011111000110000000000 I.
b1 i.
b11111111 o.
b10 z.
1O0
b1 P0
b11 92
1<2
#177
b1 Y0
b10011111000010000000100 [0
b1 G1
b1 92
0<2
b10011111000001111111100 C2
b11 '4
1)4
b0 24
b10 54
b0 M4
b1 P4
#178
b0 A2
b0 13
b10 '4
0)4
b0 54
b0 P4
#180
b10011111000010000000000 C2
b11 '4
1)4
b10 54
b1 P4
#181
b11 92
1<2
b1 A2
b1 13
b10 '4
0)4
b10 24
b0 54
b1 M4
b0 P4
#182
b10 Y0
b10011111000010000001000 [0
b10 G1
b1 92
0<2
b0 24
b0 M4
#183
b11 92
1<2
b10011111000010000000100 C2
b11 '4
1)4
b10 24
b10 54
b1 M4
b1 P4
#184
b11 Y0
b10011111000010000001100 [0
b11 G1
b1 92
0<2
b10 A2
b10 13
b10 '4
0)4
b0 24
b0 54
b0 M4
b0 P4
#185
b11 92
1<2
b10 24
b1 M4
#186
b0 Y0
b10011111000010000010000 [0
b0 G1
b1 92
0<2
b10011111000010000001000 C2
b11 '4
1)4
b0 24
b10 54
b0 M4
b1 P4
#187
b11 92
1<2
b11 A2
b11 13
b10 '4
0)4
b10 24
b0 54
b1 M4
b0 P4
#188
b1 Y0
b10011111000010000010100 [0
b1 G1
b1 92
0<2
b0 24
b0 M4
#189
b10011111000010000001100 C2
b11 '4
1)4
b10 54
b1 P4
#190
b0 A2
b0 13
b10 '4
0)4
b0 54
b0 P4
#192
b11 92
1<2
b10011111000010000010000 C2
b11 '4
1)4
b10 24
b10 54
b1 M4
b1 P4
#193
b10 Y0
b10011111000010000011000 [0
b10 G1
b1 92
0<2
b1 A2
b1 13
b11100111000101001010011110010011 33
b10 '4
0)4
1+4
b1 ,4
b0 24
b0 54
b0 M4
b0 P4
#194
b11 92
1<2
b11 ,4
1.4
b10 24
b1 M4
b1 P4
b111 Y4
#195
b11 Y0
b10011111000010000011100 [0
b11 G1
b1 92
0<2
b0 A2
b10011111000010000010100 C2
b0 13
b1101011010100011111100110110001 33
b11 '4
1)4
b1 ,4
0.4
b0 24
b10 54
b0 M4
b0 Y4
#196
b11 92
1<2
b1 A2
b1 13
b10 '4
0)4
b10 24
b0 54
b1 M4
b0 P4
#197
b0 Y0
b10011111000010000100000 [0
b0 G1
b1 92
0<2
b11 ,4
1.4
b0 24
b0 M4
b1 P4
b111 Y4
#198
b11 92
1<2
b0 A2
b10011111000010000011000 C2
b0 13
b1001011101101110001000000011101 33
b11 '4
1)4
b1 ,4
0.4
b10 24
b10 54
b1 M4
b0 Y4
#199
b1 Y0
b10011111000010000100100 [0
b1 G1
b1 92
0<2
b1 A2
b1 13
b10 '4
0)4
b0 24
b0 54
b0 M4
b0 P4
#200
b11 ,4
1.4
b1 P4
b111 Y4
#201
b0 A2
b10011111000010000011100 C2
b0 13
b1000101110111011101111001111001 33
b11 '4
1)4
b1 ,4
0.4
b10 54
b0 Y4
#202
b1 A2
b1 13
b10 '4
0)4
b0 54
b0 P4
#203
b11 92
1<2
b11 ,4
1.4
b10 24
b1 M4
b1 P4
b111 Y4
#204
b10 Y0
b10011111000010000101000 [0
b10 G1
b1 92
0<2
b0 A2
b10011111000010000100000 C2
b0 13
b1010101100011000100110100000011 33
b11 '4
1)4
b1 ,4
0.4
b0 24
b10 54
b0 M4
b0 Y4
#205
b11 92
1<2
b1 A2
b1 13
b10 '4
0)4
b10 24
b0 54
b1 M4
b0 P4
#206
b10 r*
b11 Y0
b10011111000010000101100 [0
b11 G1
b1 92
0<2
b0 24
b0 M4
#207
b10 n*
b110 r*
b11 92
1<2
b10011111000010000100100 C2
b11 '4
1)4
b11 ,4
1.4
b10 24
b10 54
b1 M4
b1 P4
b111 Y4
#208
1n#
b10010011101001110001010011100111101100011111100101010001011010110001110100010000101101110100101101111001110111101101110101000101 X&
b110 n*
b111 r*
b0 Y0
b10011111000010000110000 [0
b0 G1
b1 92
0<2
b10 '4
0)4
0+4
b0 ,4
0.4
b0 24
b0 54
b0 M4
b0 P4
b0 Y4
#209
0n#
0p#
0>)
b111 n*
b11 92
1<2
b10 24
b1 M4
#210
b1 Y0
b10011111000010000110100 [0
b1 G1
b1 92
0<2
b10011111000010000101000 C2
b11 '4
1)4
b0 24
b10 54
b0 M4
b1 P4
#211
b10 A2
b10 13
b10 '4
0)4
b0 54
b0 P4
#213
b10011111000010000101100 C2
b11 '4
1)4
b10 54
b1 P4
#214
b11 92
1<2
b11 A2
b11 13
b10 '4
0)4
b10 24
b0 54
b1 M4
b0 P4
#215
b10 Y0
b10011111000010000111000 [0
b10 G1
b1 92
0<2
b0 24
b0 M4
#216
b11 92
1<2
b10011111000010000110000 C2
b11 '4
1)4
b10 24
b10 54
b1 M4
b1 P4
#217
b11 Y0
b10011111000010000111100 [0
b11 G1
b1 92
0<2
b0 A2
b0 13
b10 '4
0)4
b0 24
b0 54
b0 M4
b0 P4
#218
b11 92
1<2
b0 '4
0*4
b10 24
b1 M4
#219
b0 Y0
b10011111000010001000000 [0
b0 G1
b1 92
0<2
b10011111000010000110100 C2
b1 '4
1)4
b0 24
b10 54
b0 M4
b1 P4
#220
b11 92
1<2
b10 24
b1 M4
#221
b1 Y0
b10011111000010001000100 [0
b1 G1
b1 92
0<2
b0 24
b0 M4
#225
b11 92
1<2
b10 24
b1 M4
#226
b10 Y0
b10011111000010001001000 [0
b10 G1
b1 92
0<2
b0 24
b0 M4
#227
1p#
b11 r*
b11 92
1<2
b10 24
b1 M4
#228
1o#
b11 n*
b100 r*
b11 Y0
b10011111000010001001100 [0
b11 G1
b1 92
0<2
b0 24
b0 M4
#229
0o#
0p#
b100 n*
b11 92
1<2
b10 24
b1 M4
#230
b100110010111110010001100000001001010111100011111110100101100010010100011111111100010011111111110101111101001101100111100011010 z'
b1001111001011111010010101000101000001001111000001011110011001110011111100010100110010001011100110100100000011101010001010101010 <,
b0 Y0
b10011111000010001010000 [0
b0 G1
b0 92
0;2
0<2
b0 24
b0 M4
#231
b100011100001000011001000001001001010111100011111110100101100010010100011111111100010011111111110101111101001101100111100011010 z'
b1001010111101001011010001001101000001001111000001011110011001110011111100010100110010001011100110100100000011101010001010101010 <,
#232
b100011100001000011001000001001000010110011000110111010010101100010100011111111100010011111111110101111101001101100111100011010 z'
b1001010111101001011010001001101001001000000011000010000100000000011111100010100110010001011100110100100000011101010001010101010 <,
#233
b100011100001000011001000001001000010110011000110111010010101101110111001111101111100100111110110101111101001101100111100011010 z'
b1001010111101001011010001001101001001000000011000010000100000001111100110010110101100110011101110100100000011101010001010101010 <,
#234
b100011100001000011001000001001000010110011000110111010010101101110111001111101111100100111110100011011110001010101111101000011 z'
b1001010111101001011010001001101001001000000011000010000100000001111100110010110101100110011101100010000011011010011001011110011 <,
#235
b11010001110000100010101000110010101111100110100100000101010010111110101101010111010101101100110100100100111101000010101001110100 z'
b10111000101100101010110001110110100100010101111010101111100111011111110010111100000101111000101100101111010111000100011111000100 <,
#236
b1010001101010001001010110100001101111100110100100000101010010111110101101010111010101101100110100100100111101000010101001110100 z'
b111000110110000001001111100101100100010101111010101111100111011111110010111100000101111000101100101111010111000100011111000100 <,
#237
b1010001101010001001010110100001010110101110010000110110110011001110101101010111010101101100110100100100111101000010101001110100 z'
b111000110110000001001111100101011101011101001110011100000110101111110010111100000101111000101100101111010111000100011111000100 <,
#238
b1010001101010001001010110100001010110101110010000110110110011000011110011011010101110011000000000100100111101000010101001110100 z'
b111000110110000001001111100101011101011101001110011100000110100010101100110001111110001100011000101111010111000100011111000100 <,
b1010011101011010100101111100101 33
1+4
b1 ,4
#239
b1010001101010001001010110100001010110101110010000110110110011000011110011011010101110011000000010100110101110101001010111001010 z'
b111000110110000001001111100101011101011101001110011100000110100010101100110001111110001100011010101101000100101111100001111010 <,
b11 ,4
1.4
b111 Y4
#240
b1001110101111101001001110011101001100110111011001111010000100100011010000011001101010000010001110110100011001100111101010100 z'
b1100000101001110101010000110111100010010101100101100101100101000101000101101000011101000100001001111101001001001010001011100100 <,
b11 A2
b11 13
b11111000001101100100011001011001 33
b1 ,4
0.4
b0 Y4
#241
b1000000000011010111111110001111101001100110111011001111010000100100011010000011001101010000010001110110100011001100111101010100 z'
b101001011111011111100111001011100010010101100101100101100101000101000101101000011101000100001001111101001001001010001011100100 <,
b11 '4
1*4
#242
b1000000000011010111111110001111110001010100010101011111111101100100011010000011001101010000010001110110100011001100111101010100 z'
b101001011111011111100111001011111010100111001011110101001000000101000101101000011101000100001001111101001001001010001011100100 <,
b0 A2
b0 13
b10 '4
0)4
b11 ,4
1.4
b0 54
b111 Y4
#243
b1000000000011010111111110001111110001010100010101011111111101101001100001000001110110010011000001110110100011001100111101010100 z'
b101001011111011111100111001011111010100111001011110101001000001000111110101010100110000111011001111101001001001010001011100100 <,
b11 A2
b11 13
b11111001101001000100101111101111 33
b0 '4
0*4
b1 ,4
0.4
b0 P4
b0 Y4
#244
b1000000000011010111111110001111110001010100010101011111111101101001100001000001110110010011000000001111111100000101111111111101 z'
b101001011111011111100111001011111010100111001011110101001000001000111110101010100110000111011000000100010110000011001001001101 <,
b10011111000010000111000 C2
b11 '4
1)4
1*4
b10 54
b1 P4
#245
b100101111111000110100001001110000001100011111101101000100111010011111010101001010011101101101010011101101111101110100100010111 z'
b1001100100011001110111000001010001010010000100011000010010010110010100101000010000011111001110010010110000101101000010010100111 <,
b0 A2
b0 13
b10 '4
0)4
b11 ,4
1.4
b0 54
b111 Y4
#246
b11000010010101011111011110110110000001100011111101101000100111010011111010101001010011101101101010011101101111101110100100010111 z'
b10101011001001010111000111110010001010010000100011000010010010110010100101000010000011111001110010010110000101101000010010100111 <,
b11 A2
b11 13
b1001000001001001010001100010 33
b0 '4
0*4
b1 ,4
0.4
b0 P4
b0 Y4
#247
b11000010010101011111011110110110101001010010010111110111011101010011111010101001010011101101101010011101101111101110100100010111 z'
b10101011001001010111000111110010100010100001001001011101101000110010100101000010000011111001110010010110000101101000010010100111 <,
b10011111000010000111100 C2
b11 '4
1)4
1*4
b10 54
b1 P4
#248
b11000010010101011111011110110110101001010010010111110111011101011101000110110111101101100111101010011101101111101110100100010111 z'
b10101011001001010111000111110010100010100001001001011101101000111100011001011100111101110011110010010110000101101000010010100111 <,
b0 A2
b0 13
b10 '4
0)4
b0 54
b0 P4
#249
b11000010010101011111011110110110101001010010010111110111011101011101000110110111101101100111101001110101010110101110101110000111 z'
b10101011001001010111000111110010100010100001001001011101101000111100011001011100111101110011110001111110111100101000011000110111 <,
b0 '4
0*4
b11 ,4
1.4
b1 P4
b111 Y4
#250
b1001011000011001001011000101000111011100101100000010011011101101000011110011110000001110100001110110011100101010100110011000101 z'
b100010011111000001000001101100110000010110111110111001101000001001000001110101010001100000010110111000001111010010000101110101 <,
b11 A2
b10011111000010001000000 C2
b11 13
b11011101101001001111111101110100 33
b1 '4
1)4
b1 ,4
0.4
b10 54
b0 Y4
#251
b11001100100000010011010111101110111011100101100000010011011101101000011110011110000001110100001110110011100101010100110011000101 z'
b10100101111100011011001110101010110000010110111110111001101000001001000001110101010001100000010110111000001111010010000101110101 <,
b11 '4
1*4
