.Xil/Vivado-795529-luiscarlos-GL552VX/hw_ila_data_1/zip_work/waveform.vcd
$date
        2023-May-28 19:19:40
$end
$version
        Vivado v2021.2 (64-bit)
$end
$timescale
        1ps
$end
$scope module dut $end
$var reg 1 " design_1_i/system_ila_0/inst/probe0_1 $end
$var reg 1 # design_1_i/system_ila_0/inst/probe1_1 $end
$var reg 1 $ design_1_i/system_ila_0/inst/probe2_1 $end
$var reg 1 % design_1_i/system_ila_0/inst/probe3_1 $end
$var reg 1 & design_1_i/system_ila_0/inst/probe4_1 $end
$var reg 1 ' design_1_i/system_ila_0/inst/probe5_1 $end
$var reg 1 ( design_1_i/system_ila_0/inst/SLOT_0_ICAP_csib_1 $end
$var reg 32 ) design_1_i/system_ila_0/inst/SLOT_0_ICAP_i_1 [31:0] $end
$var reg 32 I design_1_i/system_ila_0/inst/SLOT_0_ICAP_o_1 [31:0] $end
$var reg 1 i design_1_i/system_ila_0/inst/SLOT_0_ICAP_rdwrb_1 $end
$var reg 1 j design_1_i/system_ila_0/inst/SLOT_0_ICAP_avail_1 $end
$var reg 1 k design_1_i/system_ila_0/inst/SLOT_0_ICAP_prdone_1 $end
$var reg 1 l design_1_i/system_ila_0/inst/SLOT_0_ICAP_prerror_1 $end
$var reg 2 m design_1_i/system_ila_0/inst/net_slot_1_axi_ar_cnt [1:0] $end
$var reg 32 o design_1_i/system_ila_0/inst/net_slot_1_axi_araddr [31:0] $end
$var reg 2 1" design_1_i/system_ila_0/inst/net_slot_1_axi_arburst [1:0] $end
$var reg 4 3" design_1_i/system_ila_0/inst/net_slot_1_axi_arcache [3:0] $end
$var reg 8 7" design_1_i/system_ila_0/inst/net_slot_1_axi_arlen [7:0] $end
$var reg 3 ?" design_1_i/system_ila_0/inst/net_slot_1_axi_arprot [2:0] $end
$var reg 3 B" design_1_i/system_ila_0/inst/net_slot_1_axi_arsize [2:0] $end
$var reg 4 E" design_1_i/system_ila_0/inst/net_slot_1_axi_aruser [3:0] $end
$var reg 2 I" design_1_i/system_ila_0/inst/net_slot_1_axi_aw_cnt [1:0] $end
$var reg 32 K" design_1_i/system_ila_0/inst/net_slot_1_axi_awaddr [31:0] $end
$var reg 2 k" design_1_i/system_ila_0/inst/net_slot_1_axi_awburst [1:0] $end
$var reg 4 m" design_1_i/system_ila_0/inst/net_slot_1_axi_awcache [3:0] $end
$var reg 8 q" design_1_i/system_ila_0/inst/net_slot_1_axi_awlen [7:0] $end
$var reg 3 y" design_1_i/system_ila_0/inst/net_slot_1_axi_awprot [2:0] $end
$var reg 3 |" design_1_i/system_ila_0/inst/net_slot_1_axi_awsize [2:0] $end
$var reg 2 !# design_1_i/system_ila_0/inst/net_slot_1_axi_b_cnt [1:0] $end
$var reg 2 ## design_1_i/system_ila_0/inst/net_slot_1_axi_r_cnt [1:0] $end
$var reg 32 %# design_1_i/system_ila_0/inst/net_slot_1_axi_rdata [31:0] $end
$var reg 2 E# design_1_i/system_ila_0/inst/net_slot_1_axi_rresp [1:0] $end
$var reg 32 G# design_1_i/system_ila_0/inst/net_slot_1_axi_wdata [31:0] $end
$var reg 1 g# design_1_i/system_ila_0/inst/net_slot_1_axi_awvalid $end
$var reg 2 h# design_1_i/system_ila_0/inst/net_slot_1_axi_aw_ctrl [1:0] $end
$var reg 1 j# design_1_i/system_ila_0/inst/net_slot_1_axi_awready $end
$var reg 3 k# design_1_i/system_ila_0/inst/net_slot_1_axi_w_ctrl [2:0] $end
$var reg 1 n# design_1_i/system_ila_0/inst/net_slot_1_axi_wvalid $end
$var reg 1 o# design_1_i/system_ila_0/inst/net_slot_1_axi_wready $end
$var reg 1 p# design_1_i/system_ila_0/inst/net_slot_1_axi_wlast $end
$var reg 1 q# design_1_i/system_ila_0/inst/net_slot_1_axi_bvalid $end
$var reg 2 r# design_1_i/system_ila_0/inst/net_slot_1_axi_b_ctrl [1:0] $end
$var reg 1 t# design_1_i/system_ila_0/inst/net_slot_1_axi_bready $end
$var reg 2 u# design_1_i/system_ila_0/inst/net_slot_1_axi_ar_ctrl [1:0] $end
$var reg 1 w# design_1_i/system_ila_0/inst/net_slot_1_axi_arvalid $end
$var reg 1 x# design_1_i/system_ila_0/inst/net_slot_1_axi_arready $end
$var reg 3 y# design_1_i/system_ila_0/inst/net_slot_1_axi_r_ctrl [2:0] $end
$var reg 1 |# design_1_i/system_ila_0/inst/net_slot_1_axi_rvalid $end
$var reg 1 }# design_1_i/system_ila_0/inst/net_slot_1_axi_rready $end
$var reg 1 ~# design_1_i/system_ila_0/inst/net_slot_1_axi_rlast $end
$var reg 2 !$ design_1_i/system_ila_0/inst/net_slot_2_axi_ar_cnt [1:0] $end
$var reg 32 #$ design_1_i/system_ila_0/inst/net_slot_2_axi_araddr [31:0] $end
$var reg 2 C$ design_1_i/system_ila_0/inst/net_slot_2_axi_arburst [1:0] $end
$var reg 4 E$ design_1_i/system_ila_0/inst/net_slot_2_axi_arcache [3:0] $end
$var reg 8 I$ design_1_i/system_ila_0/inst/net_slot_2_axi_arlen [7:0] $end
$var reg 1 Q$ design_1_i/system_ila_0/inst/net_slot_2_axi_arlock $end
$var reg 3 R$ design_1_i/system_ila_0/inst/net_slot_2_axi_arprot [2:0] $end
$var reg 4 U$ design_1_i/system_ila_0/inst/net_slot_2_axi_arqos [3:0] $end
$var reg 3 Y$ design_1_i/system_ila_0/inst/net_slot_2_axi_arsize [2:0] $end
$var reg 2 \$ design_1_i/system_ila_0/inst/net_slot_2_axi_aw_cnt [1:0] $end
$var reg 32 ^$ design_1_i/system_ila_0/inst/net_slot_2_axi_awaddr [31:0] $end
$var reg 2 ~$ design_1_i/system_ila_0/inst/net_slot_2_axi_awburst [1:0] $end
$var reg 4 "% design_1_i/system_ila_0/inst/net_slot_2_axi_awcache [3:0] $end
$var reg 8 &% design_1_i/system_ila_0/inst/net_slot_2_axi_awlen [7:0] $end
$var reg 1 .% design_1_i/system_ila_0/inst/net_slot_2_axi_awlock $end
$var reg 3 /% design_1_i/system_ila_0/inst/net_slot_2_axi_awprot [2:0] $end
$var reg 4 2% design_1_i/system_ila_0/inst/net_slot_2_axi_awqos [3:0] $end
$var reg 3 6% design_1_i/system_ila_0/inst/net_slot_2_axi_awsize [2:0] $end
$var reg 2 9% design_1_i/system_ila_0/inst/net_slot_2_axi_b_cnt [1:0] $end
$var reg 2 ;% design_1_i/system_ila_0/inst/net_slot_2_axi_bresp [1:0] $end
$var reg 2 =% design_1_i/system_ila_0/inst/net_slot_2_axi_r_cnt [1:0] $end
$var reg 32 ?% design_1_i/system_ila_0/inst/net_slot_2_axi_rdata [31:0] $end
$var reg 2 _% design_1_i/system_ila_0/inst/net_slot_2_axi_rresp [1:0] $end
$var reg 32 a% design_1_i/system_ila_0/inst/net_slot_2_axi_wdata [31:0] $end
$var reg 4 #& design_1_i/system_ila_0/inst/net_slot_2_axi_wstrb [3:0] $end
$var reg 1 '& design_1_i/system_ila_0/inst/net_slot_2_axi_awvalid $end
$var reg 2 (& design_1_i/system_ila_0/inst/net_slot_2_axi_aw_ctrl [1:0] $end
$var reg 1 *& design_1_i/system_ila_0/inst/net_slot_2_axi_awready $end
$var reg 3 +& design_1_i/system_ila_0/inst/net_slot_2_axi_w_ctrl [2:0] $end
$var reg 1 .& design_1_i/system_ila_0/inst/net_slot_2_axi_wvalid $end
$var reg 1 /& design_1_i/system_ila_0/inst/net_slot_2_axi_wready $end
$var reg 1 0& design_1_i/system_ila_0/inst/net_slot_2_axi_wlast $end
$var reg 1 1& design_1_i/system_ila_0/inst/net_slot_2_axi_bvalid $end
$var reg 2 2& design_1_i/system_ila_0/inst/net_slot_2_axi_b_ctrl [1:0] $end
$var reg 1 4& design_1_i/system_ila_0/inst/net_slot_2_axi_bready $end
$var reg 2 5& design_1_i/system_ila_0/inst/net_slot_2_axi_ar_ctrl [1:0] $end
$var reg 1 7& design_1_i/system_ila_0/inst/net_slot_2_axi_arvalid $end
$var reg 1 8& design_1_i/system_ila_0/inst/net_slot_2_axi_arready $end
$var reg 3 9& design_1_i/system_ila_0/inst/net_slot_2_axi_r_ctrl [2:0] $end
$var reg 1 <& design_1_i/system_ila_0/inst/net_slot_2_axi_rvalid $end
$var reg 1 =& design_1_i/system_ila_0/inst/net_slot_2_axi_rready $end
$var reg 1 >& design_1_i/system_ila_0/inst/net_slot_2_axi_rlast $end
$var reg 32 ?& design_1_i/system_ila_0/inst/net_slot_3_axis_tdata [31:0] $end
$var reg 3 _& design_1_i/system_ila_0/inst/net_slot_3_axis_tid [2:0] $end
$var reg 4 b& design_1_i/system_ila_0/inst/net_slot_3_axis_tkeep [3:0] $end
$var reg 1 f& design_1_i/system_ila_0/inst/net_slot_3_axis_tvalid $end
$var reg 1 g& design_1_i/system_ila_0/inst/net_slot_3_axis_tready $end
$var reg 1 h& design_1_i/system_ila_0/inst/net_slot_3_axis_tlast $end
$var reg 32 i& design_1_i/system_ila_0/inst/net_slot_4_axis_tdata [31:0] $end
$var reg 3 +' design_1_i/system_ila_0/inst/net_slot_4_axis_tid [2:0] $end
$var reg 4 .' design_1_i/system_ila_0/inst/net_slot_4_axis_tkeep [3:0] $end
$var reg 1 2' design_1_i/system_ila_0/inst/net_slot_4_axis_tvalid $end
$var reg 1 3' design_1_i/system_ila_0/inst/net_slot_4_axis_tready $end
$var reg 1 4' design_1_i/system_ila_0/inst/net_slot_4_axis_tlast $end
$var reg 2 5' design_1_i/system_ila_0/inst/net_slot_5_axi_ar_cnt [1:0] $end
$var reg 49 7' design_1_i/system_ila_0/inst/net_slot_5_axi_araddr [48:0] $end
$var reg 2 h' design_1_i/system_ila_0/inst/net_slot_5_axi_arburst [1:0] $end
$var reg 4 j' design_1_i/system_ila_0/inst/net_slot_5_axi_arcache [3:0] $end
$var reg 8 n' design_1_i/system_ila_0/inst/net_slot_5_axi_arlen [7:0] $end
$var reg 1 v' design_1_i/system_ila_0/inst/net_slot_5_axi_arlock $end
$var reg 3 w' design_1_i/system_ila_0/inst/net_slot_5_axi_arprot [2:0] $end
$var reg 4 z' design_1_i/system_ila_0/inst/net_slot_5_axi_arqos [3:0] $end
$var reg 3 ~' design_1_i/system_ila_0/inst/net_slot_5_axi_arsize [2:0] $end
$var reg 2 #( design_1_i/system_ila_0/inst/net_slot_5_axi_aw_cnt [1:0] $end
$var reg 49 %( design_1_i/system_ila_0/inst/net_slot_5_axi_awaddr [48:0] $end
$var reg 2 V( design_1_i/system_ila_0/inst/net_slot_5_axi_awburst [1:0] $end
$var reg 4 X( design_1_i/system_ila_0/inst/net_slot_5_axi_awcache [3:0] $end
$var reg 8 \( design_1_i/system_ila_0/inst/net_slot_5_axi_awlen [7:0] $end
$var reg 1 d( design_1_i/system_ila_0/inst/net_slot_5_axi_awlock $end
$var reg 3 e( design_1_i/system_ila_0/inst/net_slot_5_axi_awprot [2:0] $end
$var reg 4 h( design_1_i/system_ila_0/inst/net_slot_5_axi_awqos [3:0] $end
$var reg 3 l( design_1_i/system_ila_0/inst/net_slot_5_axi_awsize [2:0] $end
$var reg 2 o( design_1_i/system_ila_0/inst/net_slot_5_axi_b_cnt [1:0] $end
$var reg 2 q( design_1_i/system_ila_0/inst/net_slot_5_axi_bresp [1:0] $end
$var reg 2 s( design_1_i/system_ila_0/inst/net_slot_5_axi_r_cnt [1:0] $end
$var reg 128 u( design_1_i/system_ila_0/inst/net_slot_5_axi_rdata [127:0] $end
$var reg 2 9* design_1_i/system_ila_0/inst/net_slot_5_axi_rresp [1:0] $end
$var reg 128 ;* design_1_i/system_ila_0/inst/net_slot_5_axi_wdata [127:0] $end
$var reg 16 ]+ design_1_i/system_ila_0/inst/net_slot_5_axi_wstrb [15:0] $end
$var reg 2 m+ design_1_i/system_ila_0/inst/net_slot_5_axi_aw_ctrl [1:0] $end
$var reg 1 o+ design_1_i/system_ila_0/inst/net_slot_5_axi_awvalid $end
$var reg 1 p+ design_1_i/system_ila_0/inst/net_slot_5_axi_awready $end
$var reg 3 q+ design_1_i/system_ila_0/inst/net_slot_5_axi_w_ctrl [2:0] $end
$var reg 1 t+ design_1_i/system_ila_0/inst/net_slot_5_axi_wvalid $end
$var reg 1 u+ design_1_i/system_ila_0/inst/net_slot_5_axi_wready $end
$var reg 1 v+ design_1_i/system_ila_0/inst/net_slot_5_axi_wlast $end
$var reg 1 w+ design_1_i/system_ila_0/inst/net_slot_5_axi_bvalid $end
$var reg 2 x+ design_1_i/system_ila_0/inst/net_slot_5_axi_b_ctrl [1:0] $end
$var reg 1 z+ design_1_i/system_ila_0/inst/net_slot_5_axi_bready $end
$var reg 1 {+ design_1_i/system_ila_0/inst/net_slot_5_axi_arvalid $end
$var reg 2 |+ design_1_i/system_ila_0/inst/net_slot_5_axi_ar_ctrl [1:0] $end
$var reg 1 ~+ design_1_i/system_ila_0/inst/net_slot_5_axi_arready $end
$var reg 3 !, design_1_i/system_ila_0/inst/net_slot_5_axi_r_ctrl [2:0] $end
$var reg 1 $, design_1_i/system_ila_0/inst/net_slot_5_axi_rvalid $end
$var reg 1 %, design_1_i/system_ila_0/inst/net_slot_5_axi_rready $end
$var reg 1 &, design_1_i/system_ila_0/inst/net_slot_5_axi_rlast $end
$var reg 3 ', AR_Channel__i1_s1___dfx_controller_0_M_AXI_MEM_ [2:0] $end
$var reg 3 *, AR_Channel__i1_s2___axi_mm2s_mapper_0_M_AXI_ [2:0] $end
$var reg 3 -, AR_Channel__i1_s5___axi_smc_M00_AXI_ [2:0] $end
$var reg 3 0, AW_Channel__i1_s1___dfx_controller_0_M_AXI_MEM_ [2:0] $end
$var reg 3 3, AW_Channel__i1_s2___axi_mm2s_mapper_0_M_AXI_ [2:0] $end
$var reg 3 6, AW_Channel__i1_s5___axi_smc_M00_AXI_ [2:0] $end
$var reg 3 9, B_Channel__i1_s1___dfx_controller_0_M_AXI_MEM_ [2:0] $end
$var reg 3 <, B_Channel__i1_s2___axi_mm2s_mapper_0_M_AXI_ [2:0] $end
$var reg 3 ?, B_Channel__i1_s5___axi_smc_M00_AXI_ [2:0] $end
$var reg 3 B, Interface__i1_s1___dfx_controller_0_M_AXI_MEM_ [2:0] $end
$var reg 3 E, Interface__i1_s2___axi_mm2s_mapper_0_M_AXI_ [2:0] $end
$var reg 3 H, Interface__i1_s5___axi_smc_M00_AXI_ [2:0] $end
$var reg 3 K, R_Channel__i1_s1___dfx_controller_0_M_AXI_MEM_ [2:0] $end
$var reg 3 N, R_Channel__i1_s2___axi_mm2s_mapper_0_M_AXI_ [2:0] $end
$var reg 3 Q, R_Channel__i1_s5___axi_smc_M00_AXI_ [2:0] $end
$var reg 3 T, W_Channel__i1_s1___dfx_controller_0_M_AXI_MEM_ [2:0] $end
$var reg 3 W, W_Channel__i1_s2___axi_mm2s_mapper_0_M_AXI_ [2:0] $end
$var reg 3 Z, W_Channel__i1_s5___axi_smc_M00_AXI_ [2:0] $end
$var reg 16 ], ila_1___slot_1___dfx_controller_0_M_AXI_MEM___Read_Transactions_0 [15:0] $end
$var reg 16 m, ila_1___slot_2___axi_mm2s_mapper_0_M_AXI___Read_Transactions_0 [15:0] $end
$var reg 16 }, ila_1___slot_5___axi_smc_M00_AXI___Read_Transactions_0 [15:0] $end
$var reg 1 /- _TRIGGER $end
$var reg 1 0- _WINDOW $end
$var reg 1 1- _GAP $end
$upscope $end
$enddefinitions $end
#0
$dumpvars
0"
0#
1$
0%
0&
0'
1(
b0 )
b11111111111111111111111110011011 I
0i
1j
1k
0l
b0 m
b0 o
b0 1"
b11 3"
b0 7"
b0 ?"
b0 B"
b0 E"
b0 I"
b0 K"
b1 k"
b11 m"
b0 q"
b0 y"
b10 |"
b0 !#
b0 ##
b0 %#
b0 E#
b0 G#
0g#
b10 h#
1j#
b0 k#
0n#
0o#
0p#
0q#
b0 r#
0t#
b10 u#
0w#
1x#
b0 y#
0|#
0}#
0~#
b0 !$
b0 #$
b0 C$
b0 E$
b0 I$
0Q$
b0 R$
b0 U$
b0 Y$
b0 \$
b0 ^$
b0 ~$
b0 "%
b0 &%
0.%
b0 /%
b0 2%
b0 6%
b0 9%
b0 ;%
b0 =%
b0 ?%
b0 _%
b0 a%
b0 #&
0'&
b10 (&
1*&
b0 +&
0.&
0/&
00&
01&
b10 2&
14&
b10 5&
07&
18&
b10 9&
0<&
1=&
0>&
b0 ?&
b0 _&
b1111 b&
0f&
1g&
0h&
b0 i&
b0 +'
b1111 .'
02'
13'
04'
b0 5'
b0 7'
b1 h'
b0 j'
b0 n'
0v'
b0 w'
b0 z'
b0 ~'
b0 #(
b0 %(
b1 V(
b0 X(
b0 \(
0d(
b0 e(
b0 h(
b0 l(
b0 o(
b0 q(
b0 s(
b0 u(
b0 9*
b0 ;*
b0 ]+
b10 m+
0o+
1p+
b10 q+
0t+
1u+
0v+
0w+
b10 x+
1z+
0{+
b10 |+
1~+
b10 !,
0$,
1%,
0&,
b0 ',
b0 *,
b0 -,
b11 0,
b11 3,
b11 6,
b11 9,
b11 <,
b11 ?,
b0 B,
b0 E,
b0 H,
b0 K,
b0 N,
b0 Q,
b100 T,
b100 W,
b100 Z,
b0 ],
b0 m,
b0 },
0/-
10-
01-
$end
#1024
1#
1/-
#1043
b10011111000001111100000 o
b1 1"
b111 7"
b10 B"
b11 u#
1w#
b10 ',
b1 B,
#1044
b1 m
b0 o
b0 1"
b0 7"
b0 B"
b1 ##
b0 u#
0w#
0x#
b10 y#
1}#
b0 ',
b0 B,
#1046
b10 u#
1x#
#1048
b10011111000010000000000 o
b1 1"
b11111111 7"
b10 B"
b11 u#
1w#
b10 ',
b1 B,
#1049
b10 m
b0 o
b0 1"
b0 7"
b0 B"
b10 ##
b0 u#
0w#
0x#
b0 ',
b0 B,
#1051
b10 u#
1x#
#1053
b10011111000100000000000 o
b1 1"
b11111111 7"
b10 B"
b11 u#
1w#
b100 +&
10&
b10 ',
b1 B,
b1 ],
#1054
b11 m
b0 o
b0 1"
b0 7"
b0 B"
b11 ##
b0 u#
0w#
0x#
b10011111000001111100000 #$
b1 C$
b11 E$
b111 I$
b10 Y$
b11 5&
17&
b0 ',
b10 *,
b0 B,
b1 E,
#1055
b1 !$
b0 #$
b0 C$
b0 E$
b0 I$
b0 Y$
b1 =%
b10 5&
07&
b0 *,
b0 E,
#1056
b10 u#
1x#
b0 +&
00&
#1058
b10011111000110000000000 o
b1 1"
b11111111 7"
b10 B"
b11 u#
1w#
b10011111000001111100000 7'
b11 j'
b1 n'
b100 ~'
1{+
b11 |+
b10 ',
b10 -,
b1 B,
b1 H,
#1059
b0 m
b0 o
b0 1"
b0 7"
b0 B"
b0 ##
b0 u#
0w#
0x#
b100 +&
10&
b1 5'
b1 s(
0{+
b10 |+
b0 ',
b0 -,
b0 B,
b0 H,
#1060
b10011111000010000000000 #$
b1 C$
b11 E$
b11111111 I$
b10 Y$
b11 5&
17&
b10 *,
b1 E,
#1061
b10 u#
1x#
b10 !$
b0 #$
b0 C$
b0 E$
b0 I$
b0 Y$
b10 =%
b10 5&
07&
b0 *,
b0 E,
#1062
b0 +&
00&
#1063
b10011111001000000000000 o
b1 1"
b11111111 7"
b10 B"
b11 u#
1w#
b10 ',
b1 B,
#1064
b1 m
b0 o
b0 1"
b0 7"
b0 B"
b1 ##
b0 u#
0w#
0x#
b10011111000010000000000 7'
b111111 n'
1{+
b11 |+
b0 ',
b10 -,
b0 B,
b1 H,
#1065
b100 +&
10&
b10 5'
b10 s(
0{+
b10 |+
b0 -,
b0 H,
#1066
b10 u#
1x#
b10011111000100000000000 #$
b1 C$
b11 E$
b11111111 I$
b10 Y$
b11 5&
17&
b10 *,
b1 E,
b1 m,
#1067
b11 !$
b0 #$
b0 C$
b0 E$
b0 I$
b0 Y$
b11 =%
b10 5&
07&
b0 *,
b0 E,
#1068
b0 +&
00&
#1070
b10011111000100000000000 7'
1{+
b11 |+
b10 -,
b1 H,
b1 },
#1071
b100 +&
10&
b11 5'
b11 s(
0{+
b10 |+
b0 -,
b0 H,
#1072
b10011111000110000000000 #$
b1 C$
b11 E$
b11111111 I$
b10 Y$
b11 5&
17&
b10 *,
b1 E,
#1073
b0 !$
b0 #$
b0 C$
b0 E$
b0 I$
b0 Y$
b0 =%
b10 5&
07&
b0 *,
b0 E,
#1074
b0 +&
00&
#1076
b10011111000110000000000 7'
1{+
b11 |+
b10 -,
b1 H,
#1077
b100 +&
10&
b0 5'
b0 s(
0{+
b10 |+
b0 -,
b0 H,
#1078
b10011111001000000000000 #$
b1 C$
b11 E$
b11111111 I$
b10 Y$
b11 5&
17&
b10 *,
b1 E,
#1079
b1 !$
b0 #$
b0 C$
b0 E$
b0 I$
b0 Y$
b1 =%
b10 5&
07&
b0 *,
b0 E,
#1082
b10011111001000000000000 7'
1{+
b11 |+
b10 -,
b1 H,
#1083
b1 5'
b1 s(
0{+
b10 |+
b0 -,
b0 H,
#1094
b11111111111111111111111111111111111111111111111111111111111111111111111111111111111111111111111111111111111111111111111111111111 u(
b11 !,
1$,
b1 H,
b1 Q,
#1095
b111 !,
1&,
b111 Q,
#1096
b0 5'
b0 s(
b11 !,
0&,
b1 Q,
#1098
b11111111111111111111111111111111 ?%
b11 9&
1<&
b11111111111111111111111111111111111111111111111111111111111111110001000100100010000000000100010000000000000000000000000010111011 u(
b1 E,
b1 N,
#1099
b1 9&
0=&
b100000000000000000000000000000001000000000000000000000000000000010000000000000000000000000000010101010100110010101010101100110 u(
b0 E,
b0 N,
#1100
b100000000000000000000000000000001000000000000000000000000000000010000000000000000000000000000000100000000000000000000000000000 u(
#1101
b11 9&
1=&
b1 E,
b1 N,
#1102
b1 9&
0=&
b0 E,
b0 N,
#1104
b11 9&
1=&
b1 E,
b1 N,
#1105
b11 E#
b110 y#
1~#
b1111 #&
b1 9&
0=&
b0 E,
b0 N,
#1106
b11111111111111111111111111111111 %#
#1107
b11 9&
1=&
b1 E,
b1 N,
#1108
b0 E#
b11 y#
1|#
0~#
b0 #&
b0 +&
00&
b1 9&
0=&
b1 B,
b0 E,
b1 K,
b0 N,
#1109
b10 y#
0|#
b0 B,
b0 K,
#1110
b11 9&
1=&
b1 E,
b1 N,
#1111
b11 E#
b110 y#
1~#
b1111 #&
b100 +&
10&
b1 9&
0=&
b0 E,
b0 N,
#1113
b11 9&
1=&
b1 E,
b1 N,
#1114
b0 E#
b11 y#
1|#
0~#
b0 #&
b0 +&
00&
b1 9&
0=&
b1 B,
b0 E,
b1 K,
b0 N,
#1115
b10 y#
0|#
b0 B,
b0 K,
#1117
b11 E#
b110 y#
1~#
b1111 #&
b100 +&
10&
b11 9&
1=&
b1 E,
b1 N,
#1118
b101 9&
0=&
1>&
b0 E,
b0 N,
#1120
b0 E#
b11 y#
1|#
0~#
b0 #&
b0 +&
00&
b1 B,
b1 K,
#1121
0(
b11111111111111111111111111111111 )
b10 y#
0|#
b0 B,
b0 K,
#1122
1(
#1123
b11 E#
b110 y#
1~#
b1111 #&
b100 +&
10&
b111 9&
1=&
b1 E,
b111 N,
#1124
b0 !$
b0 =%
b1 9&
0=&
0>&
b0 E,
b0 N,
#1126
0(
b0 E#
b11 y#
1|#
0~#
b0 #&
b0 +&
00&
b1 B,
b1 K,
#1127
1(
b10 y#
0|#
b0 B,
b0 K,
#1129
b11 E#
b110 y#
1~#
b1111 #&
b100 +&
10&
b11 9&
1=&
b1 E,
b1 N,
#1130
b1 9&
0=&
b0 E,
b0 N,
#1132
0(
b0 E#
b11 y#
1|#
0~#
b0 #&
b0 +&
00&
b100000000000000000000000000000000000000000000000000000000001110011000000000000100000000000000100100000000000000000000000000000 u(
b1 B,
b1 K,
#1133
1(
b10 y#
0|#
b110000000000001000000000000001000001001010010000100000100100110011000000000001100000000000000100100000000000000000000000000000 u(
b0 B,
b0 K,
#1134
b110000000000001010000000000001000000000000000000000101000000000011000000000000110000000000000100000000000000000000000000000000 u(
#1135
b11 E#
b110 y#
1~#
b1111 #&
b100 +&
10&
b11 9&
1=&
b110000000000110000000000000001000000000000001000000000000000000011000000000000110000000000000100000000000000000000010000000000 u(
b1 E,
b1 N,
#1136
b1 9&
0=&
b110000000000001000000000000001000000000000100000100001000011010011000000000000001000000000000100000000000000100000000000000000 u(
b1 !,
0%,
b0 E,
b0 H,
b0 N,
b0 Q,
#1138
0(
b0 E#
b11 y#
1|#
0~#
b0 #&
b0 +&
00&
b1 B,
b1 K,
#1139
1(
b10 y#
0|#
b0 B,
b0 K,
#1141
b11 E#
b110 y#
1~#
b1111 #&
b100 +&
10&
b11 9&
1=&
b1 E,
b1 N,
#1142
b1 9&
0=&
b0 E,
b0 N,
#1144
0(
b0 E#
b11 y#
1|#
0~#
b0 #&
b0 +&
00&
b1 B,
b1 K,
#1145
1(
b10 y#
0|#
b0 B,
b0 K,
#1147
b11 E#
b110 y#
1~#
b1111 #&
b100 +&
10&
b11 9&
1=&
b1 E,
b1 N,
#1148
b1 9&
0=&
b0 E,
b0 N,
#1150
0(
b0 E#
b111 y#
1|#
b100 #&
b0 +&
00&
b1 B,
b111 K,
#1151
1(
b0 m
b0 ##
b110 y#
0|#
b11 !,
1%,
b0 B,
b1 H,
b0 K,
b1 Q,
#1152
b1100000000000001000000101110100010000000000000000000000000000000000000000000000000000000000001 u(
#1153
b11 E#
b1111 #&
b100 +&
10&
b11 9&
1=&
b0 u(
b1 !,
0%,
b1 E,
b0 H,
b1 N,
b0 Q,
#1154
b1 9&
0=&
b0 E,
b0 N,
#1156
0(
b0 E#
b11 y#
1|#
0~#
b0 #&
b0 +&
00&
b1 B,
b1 K,
#1157
1(
b10 y#
0|#
b0 B,
b0 K,
#1158
b10011111001010000000000 o
b1 1"
b11111111 7"
b10 B"
b11 u#
1w#
b10 ',
b1 B,
#1159
b1 m
b0 o
b0 1"
b0 7"
b0 B"
b1 ##
b11 E#
b0 u#
0w#
0x#
b110 y#
1~#
b1111 #&
b100 +&
10&
b11 9&
1=&
b0 ',
b0 B,
b1 E,
b1 N,
#1160
b1 9&
0=&
b0 E,
b0 N,
#1162
0(
b0 E#
b11 y#
1|#
0~#
b0 #&
b0 +&
00&
b1 B,
b1 K,
#1163
1(
b10 u#
1x#
b10 y#
0|#
b0 B,
b0 K,
#1165
b11 E#
b110 y#
1~#
b1111 #&
b100 +&
10&
#1166
b11 9&
1=&
b1 E,
b1 N,
#1167
b1 9&
0=&
b0 E,
b0 N,
#1168
0(
b0 E#
b11 y#
1|#
0~#
b0 #&
b0 +&
00&
b1 B,
b1 K,
#1169
1(
b10 y#
0|#
b11 9&
1=&
b0 B,
b1 E,
b0 K,
b1 N,
#1170
b10111011 ?%
b1 9&
0=&
b0 E,
b0 N,
#1171
b11 E#
b110 y#
1~#
b1111 #&
b100 +&
10&
#1172
b11 9&
1=&
b1 E,
b1 N,
#1173
b10001001000100000000001000100 ?%
b1 9&
0=&
b0 E,
b0 N,
#1174
0(
b0 E#
b11 y#
1|#
0~#
b0 #&
b0 +&
00&
b1 B,
b1 K,
#1175
1(
b10 y#
0|#
b11 9&
1=&
b0 B,
b1 E,
b0 K,
b1 N,
#1176
b11111111111111111111111111111111 ?%
b1 9&
0=&
b0 E,
b0 N,
#1177
b11 E#
b110 y#
1~#
b1111 #&
b100 +&
10&
#1178
b11 9&
1=&
b1 E,
b1 N,
#1179
b1 9&
0=&
b0 E,
b0 N,
#1180
0(
b0 E#
b11 y#
1|#
0~#
b0 #&
b0 +&
00&
b1 B,
b1 K,
#1181
1(
b10 y#
0|#
b11 9&
1=&
b0 B,
b1 E,
b0 K,
b1 N,
#1182
b10101010100110010101010101100110 ?%
b1 9&
0=&
b0 E,
b0 N,
#1184
b11 9&
1=&
b1 E,
b1 N,
#1185
b100000000000000000000000000000 ?%
b1 9&
0=&
b11 !,
1%,
b0 E,
b1 H,
b0 N,
b1 Q,
#1186
0(
b100 +&
10&
#1187
1(
b10011111001010000000000 #$
b1 C$
b11 E$
b11111111 I$
b10 Y$
b11 5&
17&
b11 9&
1=&
b1 !,
0%,
b10 *,
b1 E,
b0 H,
b1 N,
b0 Q,
#1188
b1 !$
b0 #$
b0 C$
b0 E$
b0 I$
b0 Y$
b1 =%
b10 5&
07&
b1 9&
0=&
b0 *,
b0 E,
b0 N,
#1189
b0 +&
00&
#1190
b0 %#
b11 y#
1|#
b11 9&
1=&
b1 B,
b1 E,
b1 K,
b1 N,
#1191
b10 y#
0|#
b1 9&
0=&
b10011111001010000000000 7'
1{+
b11 |+
b10 -,
b0 B,
b0 E,
b1 H,
b0 K,
b0 N,
#1192
0(
b1 5'
b1 s(
0{+
b10 |+
b0 -,
b0 H,
#1193
1(
b0 )
b11 y#
1|#
b11 9&
1=&
b1 B,
b1 E,
b1 K,
b1 N,
#1194
b10 y#
0|#
b1 9&
0=&
b0 B,
b0 E,
b0 K,
b0 N,
#1196
b11 y#
1|#
b11 9&
1=&
b1 B,
b1 E,
b1 K,
b1 N,
#1197
b10 y#
0|#
b1 9&
0=&
b0 B,
b0 E,
b0 K,
b0 N,
#1199
b11 y#
1|#
b11 9&
1=&
b1 B,
b1 E,
b1 K,
b1 N,
#1200
b10 y#
0|#
b1 9&
0=&
b0 B,
b0 E,
b0 K,
b0 N,
#1202
0(
b11 y#
1|#
b11 9&
1=&
b1 B,
b1 E,
b1 K,
b1 N,
#1203
1(
b10 y#
0|#
b1 9&
0=&
b0 B,
b0 E,
b0 K,
b0 N,
#1205
0(
b11 y#
1|#
b11 9&
1=&
b1 B,
b1 E,
b1 K,
b1 N,
#1206
1(
b10 y#
0|#
b1 9&
0=&
b0 B,
b0 E,
b0 K,
b0 N,
#1208
0(
b11 y#
1|#
b11 9&
1=&
b1 B,
b1 E,
b1 K,
b1 N,
