.Xil/Vivado-39466-luiscarlos-GL552VX/hw_ila_data_1/zip_work/waveform.vcd
$date
        2023-Jun-05 19:53:37
$end
$version
        Vivado v2021.2 (64-bit)
$end
$timescale
        1ps
$end
$scope module dut $end
$var reg 1 " design_1_i/system_ila_0/inst/probe0_1 $end
$var reg 1 # design_1_i/system_ila_0/inst/probe1_1 $end
$var reg 1 $ design_1_i/system_ila_0/inst/probe2_1 $end
$var reg 1 % design_1_i/system_ila_0/inst/probe3_1 $end
$var reg 1 & design_1_i/system_ila_0/inst/probe4_1 $end
$var reg 1 ' design_1_i/system_ila_0/inst/probe5_1 $end
$var reg 1 ( design_1_i/system_ila_0/inst/SLOT_0_ICAP_csib_1 $end
$var reg 32 ) design_1_i/system_ila_0/inst/SLOT_0_ICAP_i_1 [31:0] $end
$var reg 32 I design_1_i/system_ila_0/inst/SLOT_0_ICAP_o_1 [31:0] $end
$var reg 1 i design_1_i/system_ila_0/inst/SLOT_0_ICAP_rdwrb_1 $end
$var reg 1 j design_1_i/system_ila_0/inst/SLOT_0_ICAP_avail_1 $end
$var reg 1 k design_1_i/system_ila_0/inst/SLOT_0_ICAP_prdone_1 $end
$var reg 1 l design_1_i/system_ila_0/inst/SLOT_0_ICAP_prerror_1 $end
$var reg 2 m design_1_i/system_ila_0/inst/net_slot_1_axi_ar_cnt [1:0] $end
$var reg 32 o design_1_i/system_ila_0/inst/net_slot_1_axi_araddr [31:0] $end
$var reg 2 1" design_1_i/system_ila_0/inst/net_slot_1_axi_arburst [1:0] $end
$var reg 4 3" design_1_i/system_ila_0/inst/net_slot_1_axi_arcache [3:0] $end
$var reg 8 7" design_1_i/system_ila_0/inst/net_slot_1_axi_arlen [7:0] $end
$var reg 3 ?" design_1_i/system_ila_0/inst/net_slot_1_axi_arprot [2:0] $end
$var reg 3 B" design_1_i/system_ila_0/inst/net_slot_1_axi_arsize [2:0] $end
$var reg 4 E" design_1_i/system_ila_0/inst/net_slot_1_axi_aruser [3:0] $end
$var reg 2 I" design_1_i/system_ila_0/inst/net_slot_1_axi_aw_cnt [1:0] $end
$var reg 32 K" design_1_i/system_ila_0/inst/net_slot_1_axi_awaddr [31:0] $end
$var reg 2 k" design_1_i/system_ila_0/inst/net_slot_1_axi_awburst [1:0] $end
$var reg 4 m" design_1_i/system_ila_0/inst/net_slot_1_axi_awcache [3:0] $end
$var reg 8 q" design_1_i/system_ila_0/inst/net_slot_1_axi_awlen [7:0] $end
$var reg 3 y" design_1_i/system_ila_0/inst/net_slot_1_axi_awprot [2:0] $end
$var reg 3 |" design_1_i/system_ila_0/inst/net_slot_1_axi_awsize [2:0] $end
$var reg 2 !# design_1_i/system_ila_0/inst/net_slot_1_axi_b_cnt [1:0] $end
$var reg 2 ## design_1_i/system_ila_0/inst/net_slot_1_axi_r_cnt [1:0] $end
$var reg 32 %# design_1_i/system_ila_0/inst/net_slot_1_axi_rdata [31:0] $end
$var reg 2 E# design_1_i/system_ila_0/inst/net_slot_1_axi_rresp [1:0] $end
$var reg 32 G# design_1_i/system_ila_0/inst/net_slot_1_axi_wdata [31:0] $end
$var reg 1 g# design_1_i/system_ila_0/inst/net_slot_1_axi_awvalid $end
$var reg 2 h# design_1_i/system_ila_0/inst/net_slot_1_axi_aw_ctrl [1:0] $end
$var reg 1 j# design_1_i/system_ila_0/inst/net_slot_1_axi_awready $end
$var reg 3 k# design_1_i/system_ila_0/inst/net_slot_1_axi_w_ctrl [2:0] $end
$var reg 1 n# design_1_i/system_ila_0/inst/net_slot_1_axi_wvalid $end
$var reg 1 o# design_1_i/system_ila_0/inst/net_slot_1_axi_wready $end
$var reg 1 p# design_1_i/system_ila_0/inst/net_slot_1_axi_wlast $end
$var reg 1 q# design_1_i/system_ila_0/inst/net_slot_1_axi_bvalid $end
$var reg 2 r# design_1_i/system_ila_0/inst/net_slot_1_axi_b_ctrl [1:0] $end
$var reg 1 t# design_1_i/system_ila_0/inst/net_slot_1_axi_bready $end
$var reg 2 u# design_1_i/system_ila_0/inst/net_slot_1_axi_ar_ctrl [1:0] $end
$var reg 1 w# design_1_i/system_ila_0/inst/net_slot_1_axi_arvalid $end
$var reg 1 x# design_1_i/system_ila_0/inst/net_slot_1_axi_arready $end
$var reg 3 y# design_1_i/system_ila_0/inst/net_slot_1_axi_r_ctrl [2:0] $end
$var reg 1 |# design_1_i/system_ila_0/inst/net_slot_1_axi_rvalid $end
$var reg 1 }# design_1_i/system_ila_0/inst/net_slot_1_axi_rready $end
$var reg 1 ~# design_1_i/system_ila_0/inst/net_slot_1_axi_rlast $end
$var reg 2 !$ design_1_i/system_ila_0/inst/net_slot_2_axi_ar_cnt [1:0] $end
$var reg 32 #$ design_1_i/system_ila_0/inst/net_slot_2_axi_araddr [31:0] $end
$var reg 2 C$ design_1_i/system_ila_0/inst/net_slot_2_axi_arburst [1:0] $end
$var reg 4 E$ design_1_i/system_ila_0/inst/net_slot_2_axi_arcache [3:0] $end
$var reg 8 I$ design_1_i/system_ila_0/inst/net_slot_2_axi_arlen [7:0] $end
$var reg 1 Q$ design_1_i/system_ila_0/inst/net_slot_2_axi_arlock $end
$var reg 3 R$ design_1_i/system_ila_0/inst/net_slot_2_axi_arprot [2:0] $end
$var reg 4 U$ design_1_i/system_ila_0/inst/net_slot_2_axi_arqos [3:0] $end
$var reg 3 Y$ design_1_i/system_ila_0/inst/net_slot_2_axi_arsize [2:0] $end
$var reg 2 \$ design_1_i/system_ila_0/inst/net_slot_2_axi_aw_cnt [1:0] $end
$var reg 32 ^$ design_1_i/system_ila_0/inst/net_slot_2_axi_awaddr [31:0] $end
$var reg 2 ~$ design_1_i/system_ila_0/inst/net_slot_2_axi_awburst [1:0] $end
$var reg 4 "% design_1_i/system_ila_0/inst/net_slot_2_axi_awcache [3:0] $end
$var reg 8 &% design_1_i/system_ila_0/inst/net_slot_2_axi_awlen [7:0] $end
$var reg 1 .% design_1_i/system_ila_0/inst/net_slot_2_axi_awlock $end
$var reg 3 /% design_1_i/system_ila_0/inst/net_slot_2_axi_awprot [2:0] $end
$var reg 4 2% design_1_i/system_ila_0/inst/net_slot_2_axi_awqos [3:0] $end
$var reg 3 6% design_1_i/system_ila_0/inst/net_slot_2_axi_awsize [2:0] $end
$var reg 2 9% design_1_i/system_ila_0/inst/net_slot_2_axi_b_cnt [1:0] $end
$var reg 2 ;% design_1_i/system_ila_0/inst/net_slot_2_axi_bresp [1:0] $end
$var reg 2 =% design_1_i/system_ila_0/inst/net_slot_2_axi_r_cnt [1:0] $end
$var reg 32 ?% design_1_i/system_ila_0/inst/net_slot_2_axi_rdata [31:0] $end
$var reg 2 _% design_1_i/system_ila_0/inst/net_slot_2_axi_rresp [1:0] $end
$var reg 32 a% design_1_i/system_ila_0/inst/net_slot_2_axi_wdata [31:0] $end
$var reg 4 #& design_1_i/system_ila_0/inst/net_slot_2_axi_wstrb [3:0] $end
$var reg 1 '& design_1_i/system_ila_0/inst/net_slot_2_axi_awvalid $end
$var reg 2 (& design_1_i/system_ila_0/inst/net_slot_2_axi_aw_ctrl [1:0] $end
$var reg 1 *& design_1_i/system_ila_0/inst/net_slot_2_axi_awready $end
$var reg 3 +& design_1_i/system_ila_0/inst/net_slot_2_axi_w_ctrl [2:0] $end
$var reg 1 .& design_1_i/system_ila_0/inst/net_slot_2_axi_wvalid $end
$var reg 1 /& design_1_i/system_ila_0/inst/net_slot_2_axi_wready $end
$var reg 1 0& design_1_i/system_ila_0/inst/net_slot_2_axi_wlast $end
$var reg 1 1& design_1_i/system_ila_0/inst/net_slot_2_axi_bvalid $end
$var reg 2 2& design_1_i/system_ila_0/inst/net_slot_2_axi_b_ctrl [1:0] $end
$var reg 1 4& design_1_i/system_ila_0/inst/net_slot_2_axi_bready $end
$var reg 2 5& design_1_i/system_ila_0/inst/net_slot_2_axi_ar_ctrl [1:0] $end
$var reg 1 7& design_1_i/system_ila_0/inst/net_slot_2_axi_arvalid $end
$var reg 1 8& design_1_i/system_ila_0/inst/net_slot_2_axi_arready $end
$var reg 3 9& design_1_i/system_ila_0/inst/net_slot_2_axi_r_ctrl [2:0] $end
$var reg 1 <& design_1_i/system_ila_0/inst/net_slot_2_axi_rvalid $end
$var reg 1 =& design_1_i/system_ila_0/inst/net_slot_2_axi_rready $end
$var reg 1 >& design_1_i/system_ila_0/inst/net_slot_2_axi_rlast $end
$var reg 32 ?& design_1_i/system_ila_0/inst/net_slot_3_axis_tdata [31:0] $end
$var reg 3 _& design_1_i/system_ila_0/inst/net_slot_3_axis_tid [2:0] $end
$var reg 4 b& design_1_i/system_ila_0/inst/net_slot_3_axis_tkeep [3:0] $end
$var reg 1 f& design_1_i/system_ila_0/inst/net_slot_3_axis_tvalid $end
$var reg 1 g& design_1_i/system_ila_0/inst/net_slot_3_axis_tready $end
$var reg 1 h& design_1_i/system_ila_0/inst/net_slot_3_axis_tlast $end
$var reg 2 i& design_1_i/system_ila_0/inst/net_slot_4_axi_ar_cnt [1:0] $end
$var reg 40 k& design_1_i/system_ila_0/inst/net_slot_4_axi_araddr [39:0] $end
$var reg 3 5' design_1_i/system_ila_0/inst/net_slot_4_axi_arprot [2:0] $end
$var reg 2 8' design_1_i/system_ila_0/inst/net_slot_4_axi_aw_cnt [1:0] $end
$var reg 40 :' design_1_i/system_ila_0/inst/net_slot_4_axi_awaddr [39:0] $end
$var reg 3 b' design_1_i/system_ila_0/inst/net_slot_4_axi_awprot [2:0] $end
$var reg 2 e' design_1_i/system_ila_0/inst/net_slot_4_axi_b_cnt [1:0] $end
$var reg 2 g' design_1_i/system_ila_0/inst/net_slot_4_axi_bresp [1:0] $end
$var reg 2 i' design_1_i/system_ila_0/inst/net_slot_4_axi_r_cnt [1:0] $end
$var reg 32 k' design_1_i/system_ila_0/inst/net_slot_4_axi_rdata [31:0] $end
$var reg 2 -( design_1_i/system_ila_0/inst/net_slot_4_axi_rresp [1:0] $end
$var reg 32 /( design_1_i/system_ila_0/inst/net_slot_4_axi_wdata [31:0] $end
$var reg 4 O( design_1_i/system_ila_0/inst/net_slot_4_axi_wstrb [3:0] $end
$var reg 1 S( design_1_i/system_ila_0/inst/net_slot_4_axi_awvalid $end
$var reg 2 T( design_1_i/system_ila_0/inst/net_slot_4_axi_aw_ctrl [1:0] $end
$var reg 1 V( design_1_i/system_ila_0/inst/net_slot_4_axi_awready $end
$var reg 2 W( design_1_i/system_ila_0/inst/net_slot_4_axi_w_ctrl [1:0] $end
$var reg 1 Y( design_1_i/system_ila_0/inst/net_slot_4_axi_wvalid $end
$var reg 1 Z( design_1_i/system_ila_0/inst/net_slot_4_axi_wready $end
$var reg 2 [( design_1_i/system_ila_0/inst/net_slot_4_axi_b_ctrl [1:0] $end
$var reg 1 ]( design_1_i/system_ila_0/inst/net_slot_4_axi_bvalid $end
$var reg 1 ^( design_1_i/system_ila_0/inst/net_slot_4_axi_bready $end
$var reg 1 _( design_1_i/system_ila_0/inst/net_slot_4_axi_arvalid $end
$var reg 2 `( design_1_i/system_ila_0/inst/net_slot_4_axi_ar_ctrl [1:0] $end
$var reg 1 b( design_1_i/system_ila_0/inst/net_slot_4_axi_arready $end
$var reg 2 c( design_1_i/system_ila_0/inst/net_slot_4_axi_r_ctrl [1:0] $end
$var reg 1 e( design_1_i/system_ila_0/inst/net_slot_4_axi_rvalid $end
$var reg 1 f( design_1_i/system_ila_0/inst/net_slot_4_axi_rready $end
$var reg 32 g( design_1_i/system_ila_0/inst/net_slot_5_axis_tdata [31:0] $end
$var reg 3 )) design_1_i/system_ila_0/inst/net_slot_5_axis_tid [2:0] $end
$var reg 4 ,) design_1_i/system_ila_0/inst/net_slot_5_axis_tkeep [3:0] $end
$var reg 1 0) design_1_i/system_ila_0/inst/net_slot_5_axis_tvalid $end
$var reg 1 1) design_1_i/system_ila_0/inst/net_slot_5_axis_tready $end
$var reg 1 2) design_1_i/system_ila_0/inst/net_slot_5_axis_tlast $end
$var reg 3 3) AR_Channel__i1_s1___dfx_controller_0_M_AXI_MEM_ [2:0] $end
$var reg 3 6) AR_Channel__i1_s2___axi_mm2s_mapper_0_M_AXI_ [2:0] $end
$var reg 3 9) AR_Channel__i1_s4___ps8_0_axi_periph_M02_AXI_ [2:0] $end
$var reg 3 <) AW_Channel__i1_s1___dfx_controller_0_M_AXI_MEM_ [2:0] $end
$var reg 3 ?) AW_Channel__i1_s2___axi_mm2s_mapper_0_M_AXI_ [2:0] $end
$var reg 3 B) AW_Channel__i1_s4___ps8_0_axi_periph_M02_AXI_ [2:0] $end
$var reg 3 E) B_Channel__i1_s1___dfx_controller_0_M_AXI_MEM_ [2:0] $end
$var reg 3 H) B_Channel__i1_s2___axi_mm2s_mapper_0_M_AXI_ [2:0] $end
$var reg 3 K) B_Channel__i1_s4___ps8_0_axi_periph_M02_AXI_ [2:0] $end
$var reg 3 N) Interface__i1_s1___dfx_controller_0_M_AXI_MEM_ [2:0] $end
$var reg 3 Q) Interface__i1_s2___axi_mm2s_mapper_0_M_AXI_ [2:0] $end
$var reg 3 T) Interface__i1_s3___axi_mm2s_mapper_0_M_AXIS_ [2:0] $end
$var reg 3 W) Interface__i1_s4___ps8_0_axi_periph_M02_AXI_ [2:0] $end
$var reg 3 Z) Interface__i1_s5___aes_0_M_AXIS_ [2:0] $end
$var reg 3 ]) R_Channel__i1_s1___dfx_controller_0_M_AXI_MEM_ [2:0] $end
$var reg 3 `) R_Channel__i1_s2___axi_mm2s_mapper_0_M_AXI_ [2:0] $end
$var reg 3 c) R_Channel__i1_s4___ps8_0_axi_periph_M02_AXI_ [2:0] $end
$var reg 3 f) T_Channel__i1_s3___axi_mm2s_mapper_0_M_AXIS_ [2:0] $end
$var reg 3 i) T_Channel__i1_s5___aes_0_M_AXIS_ [2:0] $end
$var reg 3 l) W_Channel__i1_s1___dfx_controller_0_M_AXI_MEM_ [2:0] $end
$var reg 3 o) W_Channel__i1_s2___axi_mm2s_mapper_0_M_AXI_ [2:0] $end
$var reg 3 r) W_Channel__i1_s4___ps8_0_axi_periph_M02_AXI_ [2:0] $end
$var reg 16 u) ila_1___slot_1___dfx_controller_0_M_AXI_MEM___Read_Transactions_0 [15:0] $end
$var reg 16 '* ila_1___slot_2___axi_mm2s_mapper_0_M_AXI___Read_Transactions_0 [15:0] $end
$var reg 1 7* _TRIGGER $end
$var reg 1 8* _WINDOW $end
$var reg 1 9* _GAP $end
$upscope $end
$enddefinitions $end
#0
$dumpvars
0"
0#
1$
0%
0&
0'
1(
b0 )
b11111111111111111111111110011011 I
0i
1j
1k
0l
b0 m
b0 o
b0 1"
b11 3"
b0 7"
b0 ?"
b0 B"
b0 E"
b0 I"
b0 K"
b1 k"
b11 m"
b0 q"
b0 y"
b10 |"
b0 !#
b0 ##
b0 %#
b0 E#
b0 G#
0g#
b10 h#
1j#
b0 k#
0n#
0o#
0p#
0q#
b0 r#
0t#
b10 u#
0w#
1x#
b0 y#
0|#
0}#
0~#
b0 !$
b0 #$
b0 C$
b0 E$
b0 I$
0Q$
b0 R$
b0 U$
b0 Y$
b0 \$
b0 ^$
b0 ~$
b0 "%
b0 &%
0.%
b0 /%
b0 2%
b0 6%
b0 9%
b0 ;%
b0 =%
b0 ?%
b0 _%
b0 a%
b0 #&
0'&
b10 (&
1*&
b0 +&
0.&
0/&
00&
01&
b10 2&
14&
b10 5&
07&
18&
b10 9&
0<&
1=&
0>&
b0 ?&
b0 _&
b1 b&
0f&
0g&
1h&
b0 i&
b100000100000100000110000000000000000000 k&
b100 5'
b0 8'
b100000100000100000110000000000000000000 :'
b100 b'
b0 e'
b0 g'
b0 i'
b110011 k'
b0 -(
b100000000000000000000000100 /(
b10 O(
0S(
b0 T(
0V(
b0 W(
0Y(
0Z(
b0 [(
0](
0^(
0_(
b0 `(
0b(
b0 c(
0e(
0f(
b0 g(
b0 ))
b0 ,)
00)
01)
02)
b0 3)
b0 6)
b11 9)
b11 <)
b11 ?)
b11 B)
b11 E)
b11 H)
b11 K)
b0 N)
b0 Q)
b0 T)
b11 W)
b0 Z)
b0 ])
b0 `)
b100 c)
b0 f)
b0 i)
b100 l)
b100 o)
b100 r)
b0 u)
b0 '*
07*
18*
09*
$end
#520
b0 /(
b1111 O(
#522
b10100000000000010000000010000000 k&
b1 5'
b10100000000000010000000010000000 :'
b1 b'
#530
b10100000000000010000000010000100 k&
b10100000000000010000000010000100 :'
#620
b10100000000000010000000010000000 k&
b10100000000000010000000010000000 :'
#627
b10100000000000010000000010000100 k&
b10100000000000010000000010000100 :'
#715
b0 O(
#718
b10100000000000010000000011101000 k&
b10100000000000010000000011101000 :'
b10011011101010110000 /(
b1111 O(
#725
b10100000000000010000000011101100 k&
b10100000000000010000000011101100 :'
#790
b0 O(
#793
b10100000000000010000000011100100 k&
b10100000000000010000000011100100 :'
b1011100110011000100000 /(
b1111 O(
#800
b10100000000000010000000011101000 k&
b10100000000000010000000011101000 :'
#820
b0 O(
#823
b10100000000000010000000010000000 k&
b10100000000000010000000010000000 :'
b1 /(
b1111 O(
#830
b10100000000000010000000010000100 k&
b10100000000000010000000010000100 :'
#851
b10100000000000010000000010000000 k&
b10100000000000010000000010000000 :'
#858
b10100000000000010000000010000100 k&
b10100000000000010000000010000100 :'
#1015
b0 O(
#1018
b0 /(
b1111 O(
#1024
1#
17*
#1025
b10100000000000010000000010001000 k&
b10100000000000010000000010001000 :'
#1043
b1011100110011000100000 o
b1 1"
b1110111 7"
b10 B"
b11 u#
1w#
b10 3)
b1 N)
#1044
b1 m
b0 o
b0 1"
b0 7"
b0 B"
b1 ##
b0 u#
0w#
0x#
b10 y#
1}#
b0 3)
b0 N)
#1045
b1011100110011000100000 ?&
b10 _&
b1111 b&
1f&
1g&
0h&
b1 T)
b1 f)
#1046
b10 u#
1x#
b1110111001101010000 ?&
1h&
b10 f)
#1047
b0 ?&
0f&
0g&
0h&
b0 T)
b0 f)
#1048
b1011100110100000000000 o
b1 1"
b11111111 7"
b10 B"
b11 u#
1w#
b10 3)
b1 N)
#1049
b10 m
b0 o
b0 1"
b0 7"
b0 B"
b10 ##
b0 u#
0w#
0x#
b1011100110100000000000 ?&
b0 3)
b0 N)
#1050
1f&
1g&
b1 T)
b1 f)
#1051
b10 u#
1x#
b11111111001101010000 ?&
1h&
b10 f)
#1052
b0 ?&
0f&
0g&
0h&
b1011100110011000100000 g(
b10 ))
b1111 ,)
10)
11)
b0 T)
b1 Z)
b0 f)
b1 i)
#1053
b1011100110110000000000 o
b1 1"
b11111111 7"
b10 B"
b11 u#
1w#
00)
01)
b10 3)
b1 N)
b0 Z)
b0 i)
b1 u)
#1054
b11 m
b0 o
b0 1"
b0 7"
b0 B"
b11 ##
b0 u#
0w#
0x#
b1011100110110000000000 ?&
b0 3)
b0 N)
#1055
1f&
1g&
b1 T)
b1 f)
#1056
b10 u#
1x#
b11111111001101010000 ?&
1h&
b1110111001101010000 g(
10)
11)
12)
b1 Z)
b10 f)
b10 i)
#1057
b100 +&
10&
b0 ?&
0f&
0g&
0h&
00)
01)
b0 T)
b0 Z)
b0 f)
b0 i)
#1058
b1011100111000000000000 o
b1 1"
b11111111 7"
b10 B"
b11 u#
1w#
b1011100110011000100000 #$
b1 C$
b11 E$
b1110111 I$
b10 Y$
b11 5&
17&
b10 3)
b10 6)
b1 N)
b1 Q)
#1059
b0 m
b0 o
b0 1"
b0 7"
b0 B"
b0 ##
b0 u#
0w#
0x#
b1 !$
b0 #$
b0 C$
b0 E$
b0 I$
b0 Y$
b1 =%
b10 5&
07&
b1011100111000000000000 ?&
b0 3)
b0 6)
b0 N)
b0 Q)
#1060
1f&
1g&
b1011100110100000000000 g(
10)
11)
02)
b1 T)
b1 Z)
b1 f)
b1 i)
#1061
b10 u#
1x#
b0 +&
00&
b11111111001101010000 ?&
1h&
00)
01)
b0 Z)
b10 f)
b0 i)
#1062
b0 ?&
0f&
0g&
0h&
b0 T)
b0 f)
#1063
b1011100111010000000000 o
b1 1"
b11111111 7"
b10 B"
b11 u#
1w#
b10 3)
b1 N)
#1064
b1 m
b0 o
b0 1"
b0 7"
b0 B"
b1 ##
b0 u#
0w#
0x#
b1011100111010000000000 ?&
b11111111001101010000 g(
10)
11)
12)
b0 3)
b0 N)
b1 Z)
b10 i)
#1065
b100 +&
10&
1f&
1g&
00)
01)
b1 T)
b0 Z)
b1 f)
b0 i)
#1066
b10 u#
1x#
b1011100110100000000000 #$
b1 C$
b11 E$
b11111111 I$
b10 Y$
b11 5&
17&
b11111111001101010000 ?&
1h&
b10 6)
b1 Q)
b10 f)
#1067
b10 !$
b0 #$
b0 C$
b0 E$
b0 I$
b0 Y$
b10 =%
b10 5&
07&
b0 ?&
0f&
0g&
0h&
b0 6)
b0 Q)
b0 T)
b0 f)
#1068
b1011100110110000000000 g(
10)
11)
02)
b1 Z)
b1 i)
#1069
b0 +&
00&
00)
01)
b0 Z)
b0 i)
#1072
b11111111001101010000 g(
10)
11)
12)
b1 Z)
b10 i)
#1073
b100 +&
10&
00)
01)
b0 Z)
b0 i)
#1074
b1011100110110000000000 #$
b1 C$
b11 E$
b11111111 I$
b10 Y$
b11 5&
17&
b10 6)
b1 Q)
b1 '*
#1075
b11 !$
b0 #$
b0 C$
b0 E$
b0 I$
b0 Y$
b11 =%
b10 5&
07&
b0 6)
b0 Q)
#1076
b1011100111000000000000 g(
10)
11)
02)
b1 Z)
b1 i)
#1077
b0 +&
00&
00)
01)
b0 Z)
b0 i)
#1080
b11111111001101010000 g(
10)
11)
12)
b1 Z)
b10 i)
#1081
b100 +&
10&
00)
01)
b0 Z)
b0 i)
#1082
b1011100111000000000000 #$
b1 C$
b11 E$
b11111111 I$
b10 Y$
b11 5&
17&
b10 6)
b1 Q)
#1083
b0 !$
b0 #$
b0 C$
b0 E$
b0 I$
b0 Y$
b0 =%
b10 5&
07&
b0 6)
b0 Q)
#1084
b1011100111010000000000 g(
10)
11)
02)
b1 Z)
b1 i)
#1085
b0 +&
00&
00)
01)
b0 Z)
b0 i)
#1088
b11111111001101010000 g(
10)
11)
12)
b1 Z)
b10 i)
#1089
b100 +&
10&
00)
01)
b0 Z)
b0 i)
#1090
b1011100111010000000000 #$
b1 C$
b11 E$
b11111111 I$
b10 Y$
b11 5&
17&
b10 6)
b1 Q)
#1091
b1 !$
b0 #$
b0 C$
b0 E$
b0 I$
b0 Y$
b1 =%
b10 5&
07&
b0 6)
b0 Q)
#1102
b11001000111100000100100111100100 ?%
b11 9&
1<&
b1 Q)
b1 `)
#1103
b1101100110011111100010111100101 ?%
b1 9&
0=&
b0 Q)
b0 `)
#1104
b11001000111100000100100111100100 ?&
b11 _&
1f&
1g&
b1 T)
b1 f)
#1105
b11 9&
1=&
b0 ?&
b1 b&
1h&
b1 Q)
b1 `)
b10 f)
#1106
b1101110011101010110111001010010 ?%
b1 9&
0=&
b1101100110011111100010111100101 ?&
b1111 b&
0f&
0g&
0h&
b0 Q)
b0 T)
b0 `)
b0 f)
#1107
1f&
1g&
b1 T)
b1 f)
#1108
b11 9&
1=&
b0 ?&
b1 b&
1h&
b1 Q)
b1 `)
b10 f)
#1109
b10011010010011000001100000101001 ?%
b1 9&
0=&
b1101110011101010110111001010010 ?&
b1111 b&
0f&
0g&
0h&
b0 Q)
b0 T)
b0 `)
b0 f)
#1110
1f&
1g&
b1 T)
b1 f)
#1111
b11 9&
1=&
b0 ?&
b1 b&
1h&
b1 Q)
b1 `)
b10 f)
#1112
b11001000111100000100100111100100 ?%
b1 9&
0=&
b10011010010011000001100000101001 ?&
b1111 b&
0f&
0g&
0h&
b0 Q)
b0 T)
b0 `)
b0 f)
#1113
1f&
1g&
b1 T)
b1 f)
#1114
b11 9&
1=&
b0 ?&
b1 b&
1h&
b1 Q)
b1 `)
b10 f)
#1115
b1101100110011111100010111100101 ?%
b1 9&
0=&
b11001000111100000100100111100100 ?&
b1111 b&
0f&
0g&
0h&
b0 Q)
b0 T)
b0 `)
b0 f)
#1116
1f&
1g&
b1 T)
b1 f)
#1117
b11 9&
1=&
b0 ?&
b1 b&
1h&
b1 Q)
b1 `)
b10 f)
#1118
b1101110011101010110111001010010 ?%
b1 9&
0=&
b1101100110011111100010111100101 ?&
b1111 b&
0f&
0g&
0h&
b0 Q)
b0 T)
b0 `)
b0 f)
#1119
1f&
1g&
b1 T)
b1 f)
#1120
b11 9&
1=&
b0 ?&
b1 b&
1h&
b1 Q)
b1 `)
b10 f)
#1121
b10011010010011000001100000101001 ?%
b1 9&
0=&
b1101110011101010110111001010010 ?&
b1111 b&
0f&
0g&
0h&
b0 Q)
b0 T)
b0 `)
b0 f)
#1122
1f&
1g&
b1 T)
b1 f)
#1123
b11 9&
1=&
b0 ?&
b1 b&
1h&
b1 Q)
b1 `)
b10 f)
#1124
b11001000111100000100100111100100 ?%
b1 9&
0=&
b10011010010011000001100000101001 ?&
b1111 b&
0f&
0g&
0h&
b0 Q)
b0 T)
b0 `)
b0 f)
#1125
1f&
1g&
b1 T)
b1 f)
#1126
b11 9&
1=&
b0 ?&
b1 b&
1h&
b1 Q)
b1 `)
b10 f)
#1127
b1101100110011111100010111100101 ?%
b1 9&
0=&
b11001000111100000100100111100100 ?&
b1111 b&
0f&
0g&
0h&
b0 Q)
b0 T)
b0 `)
b0 f)
#1128
1f&
1g&
b1 T)
b1 f)
#1129
b11 9&
1=&
b0 ?&
b1 b&
1h&
b1 Q)
b1 `)
b10 f)
#1130
b1101110011101010110111001010010 ?%
b1 9&
0=&
b1101100110011111100010111100101 ?&
b1111 b&
0f&
0g&
0h&
b0 Q)
b0 T)
b0 `)
b0 f)
#1131
1f&
1g&
b1 T)
b1 f)
#1132
b11 9&
1=&
b0 ?&
b1 b&
1h&
b1 Q)
b1 `)
b10 f)
#1133
b10011010010011000001100000101001 ?%
b1 9&
0=&
b1101110011101010110111001010010 ?&
b1111 b&
0f&
0g&
0h&
b0 Q)
b0 T)
b0 `)
b0 f)
#1134
1f&
1g&
b1 T)
b1 f)
#1135
b11 9&
1=&
b0 ?&
b1 b&
1h&
b1 Q)
b1 `)
b10 f)
#1136
b11001000111100000100100111100100 ?%
b1 9&
0=&
b10011010010011000001100000101001 ?&
b1111 b&
0f&
0g&
0h&
b0 Q)
b0 T)
b0 `)
b0 f)
#1137
1f&
1g&
b1 T)
b1 f)
#1138
b11 9&
1=&
b0 ?&
b1 b&
0g&
1h&
b1 Q)
b0 T)
b1 `)
b0 f)
#1139
b1101100110011111100010111100101 ?%
b1 9&
0=&
b0 Q)
b0 `)
#1215
b1010010011000110001100001001100 g(
b11 ))
10)
11)
02)
b1 Z)
b1 i)
#1216
b110 y#
1~#
b1100 #&
b0 +&
00&
00)
01)
b0 Z)
b0 i)
#1217
b1010010011000110001100001001100 %#
#1218
b0 g(
b1 ,)
10)
11)
12)
b1 Z)
b10 i)
#1219
b11 y#
1|#
0~#
b0 #&
00)
01)
b1 N)
b0 Z)
b1 ])
b0 i)
#1220
b10 y#
0|#
b0 N)
b0 ])
#1221
b1010110001010010000110110100101 g(
b1111 ,)
10)
11)
02)
b1 Z)
b1 i)
#1222
b1 E#
b110 y#
1~#
b101 #&
00)
01)
b0 Z)
b0 i)
#1223
b1010110001010010000110110100101 %#
1g&
b1 T)
b10 f)
#1224
b11001000111100000100100111100100 ?&
b1111 b&
0f&
0g&
0h&
b0 g(
b1 ,)
10)
11)
12)
b0 T)
b1 Z)
b0 f)
b10 i)
#1225
b0 E#
b11 y#
1|#
0~#
b0 #&
1f&
00)
01)
b1 N)
b0 Z)
b1 ])
b0 i)
#1226
b10 y#
0|#
b0 N)
b0 ])
#1227
1g&
b10010101000101101110000011100011 g(
b1111 ,)
10)
11)
02)
b1 T)
b1 Z)
b1 f)
b1 i)
#1228
b11 E#
b11 #&
b11 9&
1=&
b0 ?&
b1 b&
0g&
1h&
00)
01)
b1 Q)
b0 T)
b0 Z)
b1 `)
b0 f)
b0 i)
#1229
b10010101000101101110000011100011 %#
b1101110011101010110111001010010 ?%
b1 9&
0=&
b0 Q)
b0 `)
#1230
b0 g(
b1 ,)
10)
11)
12)
b1 Z)
b10 i)
#1231
b0 E#
b11 y#
1|#
b0 #&
1g&
00)
01)
b1 N)
b1 T)
b0 Z)
b1 ])
b10 f)
b0 i)
#1232
0(
b1001010110001100001100000110010 )
b10 y#
0|#
b1101100110011111100010111100101 ?&
b1111 b&
0f&
0g&
0h&
b0 N)
b0 T)
b0 ])
b0 f)
#1233
1(
b1101010100101001011000010100101 )
1f&
b100011110111001101011110111001 g(
b1111 ,)
10)
11)
02)
b1 Z)
b1 i)
#1234
b1 E#
b1001 #&
b100 +&
10&
00)
01)
b0 Z)
b0 i)
#1235
b100011110111001101011110111001 %#
1g&
b1 T)
b1 f)
#1236
b11 9&
1=&
b0 ?&
b1 b&
0g&
1h&
b0 g(
b1 ,)
10)
11)
12)
b1 Q)
b0 T)
b1 Z)
b1 `)
b0 f)
b10 i)
#1237
0(
b0 E#
b11 y#
1|#
b10011010010011000001100000101001 ?%
b0 #&
b0 +&
00&
b1 9&
0=&
00)
01)
b1 N)
b0 Q)
b0 Z)
b1 ])
b0 `)
b0 i)
#1238
1(
b10101001011010000000011111000111 )
b10 y#
0|#
b0 N)
b0 ])
#1239
1g&
b1 T)
b10 f)
#1240
b1101110011101010110111001010010 ?&
b1111 b&
0f&
0g&
0h&
b0 T)
b0 f)
#1241
1f&
#1243
0(
1g&
b1 T)
b1 f)
#1244
1(
b11000100001110111110101110011101 )
b11 9&
1=&
b0 ?&
b1 b&
0g&
1h&
b1 Q)
b0 T)
b1 `)
b0 f)
#1245
b1000011111100010011110001111011 ?%
b1 9&
0=&
b0 Q)
b0 `)
#1247
1g&
b1 T)
b10 f)
