.Xil/Vivado-4415-luiscarlos-GL552VX/iladata3/zip_work/iladata3.vcd
$date
        2023-Jun-06 12:59:42
$end
$version
        Vivado v2021.2 (64-bit)
$end
$timescale
        1ps
$end
$scope module dut $end
$var reg 1 " design_1_i/system_ila_0/inst/probe0_1 $end
$var reg 1 # design_1_i/system_ila_0/inst/probe1_1 $end
$var reg 1 $ design_1_i/system_ila_0/inst/probe2_1 $end
$var reg 1 % design_1_i/system_ila_0/inst/probe3_1 $end
$var reg 1 & design_1_i/system_ila_0/inst/probe4_1 $end
$var reg 1 ' design_1_i/system_ila_0/inst/probe5_1 $end
$var reg 128 ( design_1_i/system_ila_0/inst/probe6_1 [127:0] $end
$var reg 1 J" design_1_i/system_ila_0/inst/probe7_1 $end
$var reg 128 K" design_1_i/system_ila_0/inst/probe8_1 [127:0] $end
$var reg 1 m# design_1_i/system_ila_0/inst/probe9_1 $end
$var reg 1 n# design_1_i/system_ila_0/inst/probe10_1 $end
$var reg 1 o# design_1_i/system_ila_0/inst/probe11_1 $end
$var reg 1 p# design_1_i/system_ila_0/inst/SLOT_0_ICAP_csib_1 $end
$var reg 32 q# design_1_i/system_ila_0/inst/SLOT_0_ICAP_i_1 [31:0] $end
$var reg 32 3$ design_1_i/system_ila_0/inst/SLOT_0_ICAP_o_1 [31:0] $end
$var reg 1 S$ design_1_i/system_ila_0/inst/SLOT_0_ICAP_rdwrb_1 $end
$var reg 1 T$ design_1_i/system_ila_0/inst/SLOT_0_ICAP_avail_1 $end
$var reg 1 U$ design_1_i/system_ila_0/inst/SLOT_0_ICAP_prdone_1 $end
$var reg 1 V$ design_1_i/system_ila_0/inst/SLOT_0_ICAP_prerror_1 $end
$var reg 2 W$ design_1_i/system_ila_0/inst/net_slot_1_axi_ar_cnt [1:0] $end
$var reg 32 Y$ design_1_i/system_ila_0/inst/net_slot_1_axi_araddr [31:0] $end
$var reg 2 y$ design_1_i/system_ila_0/inst/net_slot_1_axi_arburst [1:0] $end
$var reg 4 {$ design_1_i/system_ila_0/inst/net_slot_1_axi_arcache [3:0] $end
$var reg 8 !% design_1_i/system_ila_0/inst/net_slot_1_axi_arlen [7:0] $end
$var reg 3 )% design_1_i/system_ila_0/inst/net_slot_1_axi_arprot [2:0] $end
$var reg 3 ,% design_1_i/system_ila_0/inst/net_slot_1_axi_arsize [2:0] $end
$var reg 4 /% design_1_i/system_ila_0/inst/net_slot_1_axi_aruser [3:0] $end
$var reg 2 3% design_1_i/system_ila_0/inst/net_slot_1_axi_aw_cnt [1:0] $end
$var reg 32 5% design_1_i/system_ila_0/inst/net_slot_1_axi_awaddr [31:0] $end
$var reg 2 U% design_1_i/system_ila_0/inst/net_slot_1_axi_awburst [1:0] $end
$var reg 4 W% design_1_i/system_ila_0/inst/net_slot_1_axi_awcache [3:0] $end
$var reg 8 [% design_1_i/system_ila_0/inst/net_slot_1_axi_awlen [7:0] $end
$var reg 3 c% design_1_i/system_ila_0/inst/net_slot_1_axi_awprot [2:0] $end
$var reg 3 f% design_1_i/system_ila_0/inst/net_slot_1_axi_awsize [2:0] $end
$var reg 2 i% design_1_i/system_ila_0/inst/net_slot_1_axi_b_cnt [1:0] $end
$var reg 2 k% design_1_i/system_ila_0/inst/net_slot_1_axi_r_cnt [1:0] $end
$var reg 32 m% design_1_i/system_ila_0/inst/net_slot_1_axi_rdata [31:0] $end
$var reg 2 /& design_1_i/system_ila_0/inst/net_slot_1_axi_rresp [1:0] $end
$var reg 32 1& design_1_i/system_ila_0/inst/net_slot_1_axi_wdata [31:0] $end
$var reg 1 Q& design_1_i/system_ila_0/inst/net_slot_1_axi_awvalid $end
$var reg 2 R& design_1_i/system_ila_0/inst/net_slot_1_axi_aw_ctrl [1:0] $end
$var reg 1 T& design_1_i/system_ila_0/inst/net_slot_1_axi_awready $end
$var reg 1 U& design_1_i/system_ila_0/inst/net_slot_1_axi_wvalid $end
$var reg 3 V& design_1_i/system_ila_0/inst/net_slot_1_axi_w_ctrl [2:0] $end
$var reg 1 Y& design_1_i/system_ila_0/inst/net_slot_1_axi_wready $end
$var reg 1 Z& design_1_i/system_ila_0/inst/net_slot_1_axi_wlast $end
$var reg 2 [& design_1_i/system_ila_0/inst/net_slot_1_axi_b_ctrl [1:0] $end
$var reg 1 ]& design_1_i/system_ila_0/inst/net_slot_1_axi_bvalid $end
$var reg 1 ^& design_1_i/system_ila_0/inst/net_slot_1_axi_bready $end
$var reg 2 _& design_1_i/system_ila_0/inst/net_slot_1_axi_ar_ctrl [1:0] $end
$var reg 1 a& design_1_i/system_ila_0/inst/net_slot_1_axi_arvalid $end
$var reg 1 b& design_1_i/system_ila_0/inst/net_slot_1_axi_arready $end
$var reg 3 c& design_1_i/system_ila_0/inst/net_slot_1_axi_r_ctrl [2:0] $end
$var reg 1 f& design_1_i/system_ila_0/inst/net_slot_1_axi_rvalid $end
$var reg 1 g& design_1_i/system_ila_0/inst/net_slot_1_axi_rready $end
$var reg 1 h& design_1_i/system_ila_0/inst/net_slot_1_axi_rlast $end
$var reg 2 i& design_1_i/system_ila_0/inst/net_slot_2_axi_ar_cnt [1:0] $end
$var reg 32 k& design_1_i/system_ila_0/inst/net_slot_2_axi_araddr [31:0] $end
$var reg 2 -' design_1_i/system_ila_0/inst/net_slot_2_axi_arburst [1:0] $end
$var reg 4 /' design_1_i/system_ila_0/inst/net_slot_2_axi_arcache [3:0] $end
$var reg 8 3' design_1_i/system_ila_0/inst/net_slot_2_axi_arlen [7:0] $end
$var reg 1 ;' design_1_i/system_ila_0/inst/net_slot_2_axi_arlock $end
$var reg 3 <' design_1_i/system_ila_0/inst/net_slot_2_axi_arprot [2:0] $end
$var reg 4 ?' design_1_i/system_ila_0/inst/net_slot_2_axi_arqos [3:0] $end
$var reg 3 C' design_1_i/system_ila_0/inst/net_slot_2_axi_arsize [2:0] $end
$var reg 2 F' design_1_i/system_ila_0/inst/net_slot_2_axi_aw_cnt [1:0] $end
$var reg 32 H' design_1_i/system_ila_0/inst/net_slot_2_axi_awaddr [31:0] $end
$var reg 2 h' design_1_i/system_ila_0/inst/net_slot_2_axi_awburst [1:0] $end
$var reg 4 j' design_1_i/system_ila_0/inst/net_slot_2_axi_awcache [3:0] $end
$var reg 8 n' design_1_i/system_ila_0/inst/net_slot_2_axi_awlen [7:0] $end
$var reg 1 v' design_1_i/system_ila_0/inst/net_slot_2_axi_awlock $end
$var reg 3 w' design_1_i/system_ila_0/inst/net_slot_2_axi_awprot [2:0] $end
$var reg 4 z' design_1_i/system_ila_0/inst/net_slot_2_axi_awqos [3:0] $end
$var reg 3 ~' design_1_i/system_ila_0/inst/net_slot_2_axi_awsize [2:0] $end
$var reg 2 #( design_1_i/system_ila_0/inst/net_slot_2_axi_b_cnt [1:0] $end
$var reg 2 %( design_1_i/system_ila_0/inst/net_slot_2_axi_bresp [1:0] $end
$var reg 2 '( design_1_i/system_ila_0/inst/net_slot_2_axi_r_cnt [1:0] $end
$var reg 32 )( design_1_i/system_ila_0/inst/net_slot_2_axi_rdata [31:0] $end
$var reg 2 I( design_1_i/system_ila_0/inst/net_slot_2_axi_rresp [1:0] $end
$var reg 32 K( design_1_i/system_ila_0/inst/net_slot_2_axi_wdata [31:0] $end
$var reg 4 k( design_1_i/system_ila_0/inst/net_slot_2_axi_wstrb [3:0] $end
$var reg 2 o( design_1_i/system_ila_0/inst/net_slot_2_axi_aw_ctrl [1:0] $end
$var reg 1 q( design_1_i/system_ila_0/inst/net_slot_2_axi_awvalid $end
$var reg 1 r( design_1_i/system_ila_0/inst/net_slot_2_axi_awready $end
$var reg 3 s( design_1_i/system_ila_0/inst/net_slot_2_axi_w_ctrl [2:0] $end
$var reg 1 v( design_1_i/system_ila_0/inst/net_slot_2_axi_wvalid $end
$var reg 1 w( design_1_i/system_ila_0/inst/net_slot_2_axi_wready $end
$var reg 1 x( design_1_i/system_ila_0/inst/net_slot_2_axi_wlast $end
$var reg 2 y( design_1_i/system_ila_0/inst/net_slot_2_axi_b_ctrl [1:0] $end
$var reg 1 {( design_1_i/system_ila_0/inst/net_slot_2_axi_bvalid $end
$var reg 1 |( design_1_i/system_ila_0/inst/net_slot_2_axi_bready $end
$var reg 1 }( design_1_i/system_ila_0/inst/net_slot_2_axi_arvalid $end
$var reg 2 ~( design_1_i/system_ila_0/inst/net_slot_2_axi_ar_ctrl [1:0] $end
$var reg 1 ") design_1_i/system_ila_0/inst/net_slot_2_axi_arready $end
$var reg 1 #) design_1_i/system_ila_0/inst/net_slot_2_axi_rvalid $end
$var reg 3 $) design_1_i/system_ila_0/inst/net_slot_2_axi_r_ctrl [2:0] $end
$var reg 1 ') design_1_i/system_ila_0/inst/net_slot_2_axi_rready $end
$var reg 1 () design_1_i/system_ila_0/inst/net_slot_2_axi_rlast $end
$var reg 32 )) design_1_i/system_ila_0/inst/net_slot_3_axis_tdata [31:0] $end
$var reg 3 I) design_1_i/system_ila_0/inst/net_slot_3_axis_tid [2:0] $end
$var reg 4 L) design_1_i/system_ila_0/inst/net_slot_3_axis_tkeep [3:0] $end
$var reg 1 P) design_1_i/system_ila_0/inst/net_slot_3_axis_tvalid $end
$var reg 1 Q) design_1_i/system_ila_0/inst/net_slot_3_axis_tready $end
$var reg 1 R) design_1_i/system_ila_0/inst/net_slot_3_axis_tlast $end
$var reg 32 S) design_1_i/system_ila_0/inst/net_slot_4_axis_tdata [31:0] $end
$var reg 3 s) design_1_i/system_ila_0/inst/net_slot_4_axis_tid [2:0] $end
$var reg 4 v) design_1_i/system_ila_0/inst/net_slot_4_axis_tkeep [3:0] $end
$var reg 1 z) design_1_i/system_ila_0/inst/net_slot_4_axis_tvalid $end
$var reg 1 {) design_1_i/system_ila_0/inst/net_slot_4_axis_tready $end
$var reg 1 |) design_1_i/system_ila_0/inst/net_slot_4_axis_tlast $end
$var reg 3 }) AR_Channel__i1_s1___dfx_controller_0_M_AXI_MEM_ [2:0] $end
$var reg 3 "* AR_Channel__i1_s2___axi_mm2s_mapper_0_M_AXI_ [2:0] $end
$var reg 3 %* AW_Channel__i1_s1___dfx_controller_0_M_AXI_MEM_ [2:0] $end
$var reg 3 (* AW_Channel__i1_s2___axi_mm2s_mapper_0_M_AXI_ [2:0] $end
$var reg 3 +* B_Channel__i1_s1___dfx_controller_0_M_AXI_MEM_ [2:0] $end
$var reg 3 .* B_Channel__i1_s2___axi_mm2s_mapper_0_M_AXI_ [2:0] $end
$var reg 3 1* Interface__i1_s1___dfx_controller_0_M_AXI_MEM_ [2:0] $end
$var reg 3 4* Interface__i1_s2___axi_mm2s_mapper_0_M_AXI_ [2:0] $end
$var reg 3 7* Interface__i1_s3___axi_mm2s_mapper_0_M_AXIS_ [2:0] $end
$var reg 3 :* Interface__i1_s4___aes_0_M_AXIS_ [2:0] $end
$var reg 3 =* R_Channel__i1_s1___dfx_controller_0_M_AXI_MEM_ [2:0] $end
$var reg 3 @* R_Channel__i1_s2___axi_mm2s_mapper_0_M_AXI_ [2:0] $end
$var reg 3 C* T_Channel__i1_s3___axi_mm2s_mapper_0_M_AXIS_ [2:0] $end
$var reg 3 F* T_Channel__i1_s4___aes_0_M_AXIS_ [2:0] $end
$var reg 3 I* W_Channel__i1_s1___dfx_controller_0_M_AXI_MEM_ [2:0] $end
$var reg 3 L* W_Channel__i1_s2___axi_mm2s_mapper_0_M_AXI_ [2:0] $end
$var reg 16 O* ila_1___slot_1___dfx_controller_0_M_AXI_MEM___Read_Transactions_0 [15:0] $end
$var reg 16 _* ila_1___slot_2___axi_mm2s_mapper_0_M_AXI___Read_Transactions_0 [15:0] $end
$var reg 1 o* _TRIGGER $end
$var reg 1 p* _WINDOW $end
$var reg 1 q* _GAP $end
$upscope $end
$enddefinitions $end
#0
$dumpvars
0"
0#
1$
0%
0&
0'
b0 (
0J"
b0 K"
0m#
1n#
0o#
1p#
b0 q#
b11111111111111111111111110011011 3$
0S$
1T$
1U$
0V$
b0 W$
b0 Y$
b0 y$
b11 {$
b0 !%
b0 )%
b0 ,%
b0 /%
b0 3%
b0 5%
b1 U%
b11 W%
b0 [%
b0 c%
b10 f%
b0 i%
b0 k%
b0 m%
b0 /&
b0 1&
0Q&
b10 R&
1T&
0U&
b0 V&
0Y&
0Z&
b0 [&
0]&
0^&
b10 _&
0a&
1b&
b0 c&
0f&
0g&
0h&
b0 i&
b0 k&
b0 -'
b0 /'
b0 3'
0;'
b0 <'
b0 ?'
b0 C'
b0 F'
b0 H'
b0 h'
b0 j'
b0 n'
0v'
b0 w'
b0 z'
b0 ~'
b0 #(
b0 %(
b0 '(
b0 )(
b0 I(
b0 K(
b0 k(
b10 o(
0q(
1r(
b0 s(
0v(
0w(
0x(
b10 y(
0{(
1|(
0}(
b10 ~(
1")
0#)
b10 $)
1')
0()
b0 ))
b0 I)
b1 L)
0P)
0Q)
1R)
b0 S)
b0 s)
b0 v)
0z)
0{)
0|)
b0 })
b0 "*
b11 %*
b11 (*
b11 +*
b11 .*
b0 1*
b0 4*
b0 7*
b0 :*
b0 =*
b0 @*
b0 C*
b0 F*
b100 I*
b100 L*
b0 O*
b0 _*
0o*
1p*
0q*
$end
#100
1#
1o*
#120
b1011100110011000100000 Y$
b1 y$
b1110111 !%
b10 ,%
b11 _&
1a&
b10 })
b1 1*
#121
b1 W$
b0 Y$
b0 y$
b0 !%
b0 ,%
b1 k%
b0 _&
0a&
0b&
b10 c&
1g&
b0 })
b0 1*
#122
b1011100110011000100000 ))
b10 I)
b1111 L)
1P)
1Q)
0R)
b1 7*
b1 C*
#123
b10 _&
1b&
b1110111001101010000 ))
1R)
b10 C*
#124
b0 ))
0P)
0Q)
0R)
b0 7*
b0 C*
#125
b1011100110100000000000 Y$
b1 y$
b11111111 !%
b10 ,%
b11 _&
1a&
b10 })
b1 1*
#126
b10 W$
b0 Y$
b0 y$
b0 !%
b0 ,%
b10 k%
b0 _&
0a&
0b&
b1011100110100000000000 ))
b0 })
b0 1*
#127
1P)
1Q)
b1 7*
b1 C*
#128
b10 _&
1b&
b11111111001101010000 ))
1R)
b10 C*
#129
b0 ))
0P)
0Q)
0R)
b1011100110011000100000 S)
b10 s)
b1111 v)
1z)
1{)
b0 7*
b1 :*
b0 C*
b1 F*
#130
b1011100110110000000000 Y$
b1 y$
b11111111 !%
b10 ,%
b11 _&
1a&
0z)
0{)
b10 })
b1 1*
b0 :*
b0 F*
b1 O*
#131
b11 W$
b0 Y$
b0 y$
b0 !%
b0 ,%
b11 k%
b0 _&
0a&
0b&
b1011100110110000000000 ))
b0 })
b0 1*
#132
1P)
1Q)
b1 7*
b1 C*
#133
b10 _&
1b&
b11111111001101010000 ))
1R)
b1110111001101010000 S)
1z)
1{)
1|)
b1 :*
b10 C*
b10 F*
#134
b100 s(
1x(
b0 ))
0P)
0Q)
0R)
0z)
0{)
b0 7*
b0 :*
b0 C*
b0 F*
#135
b1011100111000000000000 Y$
b1 y$
b11111111 !%
b10 ,%
b11 _&
1a&
b1011100110011000100000 k&
b1 -'
b11 /'
b1110111 3'
b10 C'
1}(
b11 ~(
b10 })
b10 "*
b1 1*
b1 4*
#136
b0 W$
b0 Y$
b0 y$
b0 !%
b0 ,%
b0 k%
b0 _&
0a&
0b&
b1 i&
b0 k&
b0 -'
b0 /'
b0 3'
b0 C'
b1 '(
0}(
b10 ~(
b1011100111000000000000 ))
b0 })
b0 "*
b0 1*
b0 4*
#137
1P)
1Q)
b1011100110100000000000 S)
1z)
1{)
0|)
b1 7*
b1 :*
b1 C*
b1 F*
#138
b10 _&
1b&
b0 s(
0x(
b11111111001101010000 ))
1R)
0z)
0{)
b0 :*
b10 C*
b0 F*
#139
b0 ))
0P)
0Q)
0R)
b0 7*
b0 C*
#140
b1011100111010000000000 Y$
b1 y$
b11111111 !%
b10 ,%
b11 _&
1a&
b10 })
b1 1*
#141
b1 W$
b0 Y$
b0 y$
b0 !%
b0 ,%
b1 k%
b0 _&
0a&
0b&
b1011100111010000000000 ))
b11111111001101010000 S)
1z)
1{)
1|)
b0 })
b0 1*
b1 :*
b10 F*
#142
b100 s(
1x(
1P)
1Q)
0z)
0{)
b1 7*
b0 :*
b1 C*
b0 F*
#143
b10 _&
1b&
b1011100110100000000000 k&
b1 -'
b11 /'
b11111111 3'
b10 C'
1}(
b11 ~(
b11111111001101010000 ))
1R)
b10 "*
b1 4*
b10 C*
#144
b10 i&
b0 k&
b0 -'
b0 /'
b0 3'
b0 C'
b10 '(
0}(
b10 ~(
b0 ))
0P)
0Q)
0R)
b0 "*
b0 4*
b0 7*
b0 C*
#145
b1011100110110000000000 S)
1z)
1{)
0|)
b1 :*
b1 F*
#146
b0 s(
0x(
0z)
0{)
b0 :*
b0 F*
#149
b11111111001101010000 S)
1z)
1{)
1|)
b1 :*
b10 F*
#150
b100 s(
1x(
0z)
0{)
b0 :*
b0 F*
#151
b1011100110110000000000 k&
b1 -'
b11 /'
b11111111 3'
b10 C'
1}(
b11 ~(
b10 "*
b1 4*
b1 _*
#152
b11 i&
b0 k&
b0 -'
b0 /'
b0 3'
b0 C'
b11 '(
0}(
b10 ~(
b0 "*
b0 4*
#153
b1011100111000000000000 S)
1z)
1{)
0|)
b1 :*
b1 F*
#154
b0 s(
0x(
0z)
0{)
b0 :*
b0 F*
#157
b11111111001101010000 S)
1z)
1{)
1|)
b1 :*
b10 F*
#158
b100 s(
1x(
0z)
0{)
b0 :*
b0 F*
#159
b1011100111000000000000 k&
b1 -'
b11 /'
b11111111 3'
b10 C'
1}(
b11 ~(
b10 "*
b1 4*
#160
b0 i&
b0 k&
b0 -'
b0 /'
b0 3'
b0 C'
b0 '(
0}(
b10 ~(
b0 "*
b0 4*
#161
b1011100111010000000000 S)
1z)
1{)
0|)
b1 :*
b1 F*
#162
b0 s(
0x(
0z)
0{)
b0 :*
b0 F*
#165
b11111111001101010000 S)
1z)
1{)
1|)
b1 :*
b10 F*
#166
b100 s(
1x(
0z)
0{)
b0 :*
b0 F*
#167
b1011100111010000000000 k&
b1 -'
b11 /'
b11111111 3'
b10 C'
1}(
b11 ~(
b10 "*
b1 4*
#168
b1 i&
b0 k&
b0 -'
b0 /'
b0 3'
b0 C'
b1 '(
0}(
b10 ~(
b0 "*
b0 4*
#179
b11001000111100000100100111100100 )(
1#)
b11 $)
b1 4*
b1 @*
#180
b1101100110011111100010111100101 )(
b1 $)
0')
b0 4*
b0 @*
#181
b11001000111100000100100111100100 ))
b11 I)
1P)
1Q)
b1 7*
b1 C*
#182
b11 $)
1')
b0 ))
b1 L)
1R)
b1 4*
b1 @*
b10 C*
#183
b1101110011101010110111001010010 )(
b1 $)
0')
b1101100110011111100010111100101 ))
b1111 L)
0P)
0Q)
0R)
b0 4*
b0 7*
b0 @*
b0 C*
#184
1P)
1Q)
b1 7*
b1 C*
#185
b11 $)
1')
b0 ))
b1 L)
1R)
b1 4*
b1 @*
b10 C*
#186
b11100100010010011111000011001000000000000000000000000000000000000000000000000000000000000000000000000000000000000000000000000000 K"
b10011010010011000001100000101001 )(
b1 $)
0')
b1101110011101010110111001010010 ))
b1111 L)
0P)
0Q)
0R)
b0 4*
b0 7*
b0 @*
b0 C*
#187
1P)
1Q)
b1 7*
b1 C*
#188
b11 $)
1')
b0 ))
b1 L)
1R)
b1 4*
b1 @*
b10 C*
#189
b11001000111100000100100111100100 )(
b1 $)
0')
b10011010010011000001100000101001 ))
b1111 L)
0P)
0Q)
0R)
b0 4*
b0 7*
b0 @*
b0 C*
#190
1P)
1Q)
b1 7*
b1 C*
#191
b11 $)
1')
b0 ))
b1 L)
1R)
b1 4*
b1 @*
b10 C*
#192
b1101100110011111100010111100101 )(
b1 $)
0')
b11001000111100000100100111100100 ))
b1111 L)
0P)
0Q)
0R)
b0 4*
b0 7*
b0 @*
b0 C*
#193
1P)
1Q)
b1 7*
b1 C*
#194
b11100100010010011111000011001000111001011100010111001111011011000000000000000000000000000000000000000000000000000000000000000000 K"
b11 $)
1')
b0 ))
b1 L)
1R)
b1 4*
b1 @*
b10 C*
#195
b1101110011101010110111001010010 )(
b1 $)
0')
b1101100110011111100010111100101 ))
b1111 L)
0P)
0Q)
0R)
b0 4*
b0 7*
b0 @*
b0 C*
#196
1P)
1Q)
b1 7*
b1 C*
#197
b11 $)
1')
b0 ))
b1 L)
1R)
b1 4*
b1 @*
b10 C*
#198
b10011010010011000001100000101001 )(
b1 $)
0')
b1101110011101010110111001010010 ))
b1111 L)
0P)
0Q)
0R)
b0 4*
b0 7*
b0 @*
b0 C*
#199
1P)
1Q)
b1 7*
b1 C*
#200
b11 $)
1')
b0 ))
b1 L)
1R)
b1 4*
b1 @*
b10 C*
#201
b11001000111100000100100111100100 )(
b1 $)
0')
b10011010010011000001100000101001 ))
b1111 L)
0P)
0Q)
0R)
b0 4*
b0 7*
b0 @*
b0 C*
#202
b11100100010010011111000011001000111001011100010111001111011011000101001001101110011101010110111000000000000000000000000000000000 K"
1P)
1Q)
b1 7*
b1 C*
#203
b11 $)
1')
b0 ))
b1 L)
1R)
b1 4*
b1 @*
b10 C*
#204
b1101100110011111100010111100101 )(
b1 $)
0')
b11001000111100000100100111100100 ))
b1111 L)
0P)
0Q)
0R)
b0 4*
b0 7*
b0 @*
b0 C*
#205
1P)
1Q)
b1 7*
b1 C*
#206
b11 $)
1')
b0 ))
b1 L)
1R)
b1 4*
b1 @*
b10 C*
#207
b1101110011101010110111001010010 )(
b1 $)
0')
b1101100110011111100010111100101 ))
b1111 L)
0P)
0Q)
0R)
b0 4*
b0 7*
b0 @*
b0 C*
#208
1P)
1Q)
b1 7*
b1 C*
#209
b11 $)
1')
b0 ))
b1 L)
1R)
b1 4*
b1 @*
b10 C*
#210
b11100100010010011111000011001000111001011100010111001111011011000101001001101110011101010110111000101001000110000100110010011010 K"
b10011010010011000001100000101001 )(
b1 $)
0')
b1101110011101010110111001010010 ))
b1111 L)
0P)
0Q)
0R)
b0 4*
b0 7*
b0 @*
b0 C*
#211
1P)
1Q)
b1 7*
b1 C*
#212
b11 $)
1')
b0 ))
b1 L)
1R)
b1 4*
b1 @*
b10 C*
#213
b11001000111100000100100111100100 )(
b1 $)
0')
b10011010010011000001100000101001 ))
b1111 L)
0P)
0Q)
0R)
b0 4*
b0 7*
b0 @*
b0 C*
#214
1J"
1P)
1Q)
b1 7*
b1 C*
#215
0J"
b11 $)
1')
b0 ))
b1 L)
0Q)
1R)
b1 4*
b0 7*
b1 @*
b0 C*
#216
b1010001100110011110000100000110011111110010100101100101100101000110011111000011011011010010000011111111110110000101000100110101 (
b1101100110011111100010111100101 )(
b1 $)
0')
b0 4*
b0 @*
#217
b1110000111110011110000010100101011111110010100101100101100101000110011111000011011011010010000011111111110110000101000100110101 (
#218
b1110000111110011110000010100101011010110100110010111100111001110110011111000011011011010010000011111111110110000101000100110101 (
#219
b1110000111110011110000010100101011010110100110010111100111001110000101000110011101100110101010011111111110110000101000100110101 (
#220
b1110000111110011110000010100101011010110100110010111100111001110000101000110011101100110101010001111101001011010111000011011001 (
#221
b1010100101001001000110101010111010101101111010011100111011000110101001001100101011001001111110000010101010110101011110110010 (
#222
b10100011111001111010110001100010111010101101111010011100111011000110101001001100101011001001111110000010101010110101011110110010 (
#223
b10100011111001111010110001100010101110111001110000011100100000110110101001001100101011001001111110000010101010110101011110110010 (
#224
b10100011111001111010110001100010101110111001110000011100100000110101100001011101101010100110111010000010101010110101011110110010 (
#225
b10100011111001111010110001100010101110111001110000011100100000110101100001011101101010100110111000010001000011101101101000111110 (
#226
b11010010100110100000100111111010001100101000001000101111111100101101011011011110101010110110001000000101011010010111001110111010 (
#227
b1111111001101110100000000010100001100101000001000101111111100101101011011011110101010110110001000000101011010010111001110111010 (
#228
b1111111001101110100000000010100101000010001000101001110000001001101011011011110101010110110001000000101011010010111001110111010 (
#229
b1111111001101110100000000010100101000010001000101001110000001000100101010011100000011101010101100000101011010010111001110111010 (
#230
b1111111001101110100000000010100101000010001000101001110000001000100101010011100000011101010101100110110111001001000111111000000 (
#231
b11001110010001010101111000110100110111000110001101101010111110101000101111001000111111001101000111101101000110011111101110110011 (
#232
b11101100011010001001110100101000110111000110001101101010111110101000101111001000111111001101000111101101000110011111101110110011 (
#233
b11101100011010001001110100101000100100110000000001011000000101001000101111001000111111001101000111101101000110011111101110110011 (
#234
b11101100011010001001110100101000100100110000000001011000000101001100111010110001010101010101000111101101000110011111101110110011 (
#235
b11101100011010001001110100101000100100110000000001011000000101001100111010110001010101010101000101010011100011100110001101001011 (
#236
b11010110011100010010000010000011110000111110111111101100100000100111010011010000000010110101000110010101111101010101100100000100 (
#237
b1001010001011000101010001000001110000111110111111101100100000100111010011010000000010110101000110010101111101010101100100000100 (
#238
b1001010001011000101010001000001001100110110000110000011000100010111010011010000000010110101000110010101111101010101100100000100 (
#239
b1001010001011000101010001000001001100110110000110000011000100011100101001100000100111100111000010010101111101010101100100000100 (
#240
b1001010001011000101010001000001001100110110000110000011000100011100101001100000100111100111000010101101011101110001010100110000 (
#241
b11100100101011000101011101001011001001100001011010110011110000011101101101101101011111001010110110000110011011010001111111100100 (
#242
b10101110101010101101101011001100001001100001011010110011110000011101101101101101011111001010110110000110011011010001111111100100 (
#243
b10101110101010101101101011001100001000111111111101001011110111011101101101101101011111001010110110000110011011010001111111100100 (
#244
b10101110101010101101101011001100001000111111111101001011110111011001111110110011000000010001100010000110011011010001111111100100 (
#245
b10101110101010101101101011001100001000111111111101001011110111011001111110110011000000010001100011011100101100111100101110101110 (
#246
b11000000110000101011011100110111010100101110001010101101011010111000111010101010101110001011111000101111001010011001010011100000 (
#247
b11111101010000010000010110010010100101110001010101101011010111000111010101010101110001011111000101111001010011001010011100000 (
#248
b11111101010000010000010110010010010000011101100011000000001011000111010101010101110001011111000101111001010011001010011100000 (
#249
b11111101010000010000010110010010010000011101100011000000001011110011001100010100110100101101000101111001010011001010011100000 (
#250
b11111101010000010000010110010010010000011101100011000000001011110011001100010100110100101101001001110010011001110011110100000 (
#251
b1110000011000010110000011010001110001111111000111001011000110001101011010000111111101001001000011010000010100010011100101110011 (
#252
b11010000110110001001000001010001110001111111000111001011000110001101011010000111111101001001000011010000010100010011100101110011 (
#253
b11010000110110001001000001010001001100010010101101011001001101001101011010000111111101001001000011010000010100010011100101110011 (
#254
b11010000110110001001000001010001001100010010101101011001001101000100101011101010101110101001011011010000010100010011100101110011 (
#255
b11010000110110001001000001010001001100010010101101011001001101000100101011101010101110101001011001100000011100000101101110001111 (
#256
b100000111111011110011100000001101101000011101011100100011011011100001111010011001001000010110111000010110101010001010110010 (
#257
b110000110010110111100010100000001101101000011101011100100011011011100001111010011001001000010110111000010110101010001010110010 (
#258
b110000110010110111100010100000001001001110101010100111101101001011100001111010011001001000010110111000010110101010001010110010 (
#259
b110000110010110111100010100000001001001110101010100111101101001001101010111101100011000110011110111000010110101010001010110010 (
#260
b110000110010110111100010100000001001001110101010100111101101001001101010111101100011000110011110011010010001100001101000111110 (
#261
b1011101101100000100010011111000000001110111101010101110001000111110000101100001011000110100110110111111001101111010011000011010 (
#262
b10001101111111001000011011100001000001110111101010101110001000111110000101100001011000110100110110111111001101111010011000011010 (
#263
b10001101111111001000011011100001001110001011110110111110001100101110000101100001011000110100110110111111001101111010011000011010 (
#264
b10001101111111001000011011100001001110001011110110111110001100101110000011011000000000000110010110111111001101111010011000011010 (
#265
b10001101111111001000011011100001001110001011110110111110001100101110000011011000000000000110010111110100101100101100010101000011 (
#266
b1001011000000101010111100011110001010001000101001011001101001100001000011011101100010010011011001001000011000100000011101111000 (
#267
b11001100011010100001101111101001001010001000101001011001101001100001000011011101100010010011011001001000011000100000011101111000 (
#268
b11001100011010100001101111101001111011101100111100010101110001010001000011011101100010010011011001001000011000100000011101111000 (
#269
b11001100011010100001101111101001111011101100111100010101110001010111110011001001111100100010010001001000011000100000011101111000 (
#270
b11001100011010100001101111101001111011101100111100010101110001010111110011001001111100100010010011010100101010110011100011000001 (
#271
b1000010011010001100010011101110001111110011011010001110001101100011111100110110100011100011011000111111001101101000111000110110 (
#272
b11110110111101111000100010011001001111110011011010001110001101100011111100110110100011100011011000111111001101101000111000110110 (
#273
b11110110111101111000100010011001001001010010010011100110001001000011111100110110100011100011011000111111001101101000111000110110 (
#274
b11110110111101111000100010011001001001010010010011100110001001000010010100100100111001100010010000111111001101101000111000110110 (
#275
b11110110111101111000100010011001001001010010010011100110001001000010010100100100111001100010010000100101001001001110011000100100 (
#276
b1000111010001110100011101000111010001110100011101000111010001110100011101000111010001110100011101000111010001110100011110010100 (
#277
b10110000101100001011000010110010001110100011101000111010001110100011101000111010001110100011101000111010001110100011110010100 (
#278
b10110000101100001011000010110000101100001011000010110000101100100011101000111010001110100011101000111010001110100011110010100 (
#279
b10110000101100001011000010110000101100001011000010110000101100001011000010110000101100001011001000111010001110100011110010100 (
#280
b10110000101100001011000010110000101100001011000010110000101100001011000010110000101100001011000010110000101100001011011100111 (
#281
b10110000101100001011000010110000101100001011000010110000101100001011000010110000101100001011000010110000101100001011000010110 (
#282
b11111111111111111111111111111111000101100001011000010110000101100001011000010110000101100001011000010110000101100001011000010110 (
#283
b11111111111111111111111111111111111111111111111111111111111111110001011000010110000101100001011000010110000101100001011000010110 (
#284
b11111111111111111111111111111111111111111111111111111111111111111111111111111111111111111111111100010110000101100001011000010110 (
#285
b11111111111111111111111111111111111111111111111111111111111111111111111111111111111111111111111111111111111111111111111111111111 (
#287
1o#
#292
b11111111111111111111111111111111 S)
b11 s)
1z)
1{)
0|)
b1 :*
b1 F*
#293
b11 /&
b110 c&
1h&
b1111 k(
0z)
0{)
b0 :*
b0 F*
#294
b11111111111111111111111111111111 m%
#295
b0 S)
b1 v)
1z)
1{)
1|)
b1 :*
b10 F*
