.Xil/Vivado-4415-luiscarlos-GL552VX/hw_ila_data_1/zip_work/waveform.vcd
$date
        2023-Jun-13 18:11:08
$end
$version
        Vivado v2021.2 (64-bit)
$end
$timescale
        1ps
$end
$scope module dut $end
$var reg 1 " design_1_i/system_ila_0/inst/probe0_1 $end
$var reg 1 # design_1_i/system_ila_0/inst/probe1_1 $end
$var reg 1 $ design_1_i/system_ila_0/inst/probe2_1 $end
$var reg 1 % design_1_i/system_ila_0/inst/probe3_1 $end
$var reg 2 & design_1_i/system_ila_0/inst/probe4_1 [1:0] $end
$var reg 256 ( design_1_i/system_ila_0/inst/probe5_1 [255:0] $end
$var reg 1 l# design_1_i/system_ila_0/inst/probe6_1 $end
$var reg 1 m# design_1_i/system_ila_0/inst/probe7_1 $end
$var reg 1 n# design_1_i/system_ila_0/inst/probe8_1 $end
$var reg 1 o# design_1_i/system_ila_0/inst/probe9_1 $end
$var reg 1 p# design_1_i/system_ila_0/inst/probe10_1 $end
$var reg 1 q# design_1_i/system_ila_0/inst/probe11_1 $end
$var reg 256 r# design_1_i/system_ila_0/inst/probe12_1 [255:0] $end
$var reg 1 X& design_1_i/system_ila_0/inst/probe13_1 $end
$var reg 128 Y& design_1_i/system_ila_0/inst/probe14_1 [127:0] $end
$var reg 128 {' design_1_i/system_ila_0/inst/probe15_1 [127:0] $end
$var reg 1 ?) design_1_i/system_ila_0/inst/probe16_1 $end
$var reg 128 @) design_1_i/system_ila_0/inst/probe17_1 [127:0] $end
$var reg 2 b* design_1_i/system_ila_0/inst/probe18_1 [1:0] $end
$var reg 1 d* design_1_i/system_ila_0/inst/SLOT_0_ICAP_csib_1 $end
$var reg 32 e* design_1_i/system_ila_0/inst/SLOT_0_ICAP_i_1 [31:0] $end
$var reg 32 '+ design_1_i/system_ila_0/inst/SLOT_0_ICAP_o_1 [31:0] $end
$var reg 1 G+ design_1_i/system_ila_0/inst/SLOT_0_ICAP_rdwrb_1 $end
$var reg 1 H+ design_1_i/system_ila_0/inst/SLOT_0_ICAP_avail_1 $end
$var reg 1 I+ design_1_i/system_ila_0/inst/SLOT_0_ICAP_prdone_1 $end
$var reg 1 J+ design_1_i/system_ila_0/inst/SLOT_0_ICAP_prerror_1 $end
$var reg 2 K+ design_1_i/system_ila_0/inst/net_slot_1_axi_ar_cnt [1:0] $end
$var reg 32 M+ design_1_i/system_ila_0/inst/net_slot_1_axi_araddr [31:0] $end
$var reg 2 m+ design_1_i/system_ila_0/inst/net_slot_1_axi_arburst [1:0] $end
$var reg 4 o+ design_1_i/system_ila_0/inst/net_slot_1_axi_arcache [3:0] $end
$var reg 8 s+ design_1_i/system_ila_0/inst/net_slot_1_axi_arlen [7:0] $end
$var reg 3 {+ design_1_i/system_ila_0/inst/net_slot_1_axi_arprot [2:0] $end
$var reg 3 ~+ design_1_i/system_ila_0/inst/net_slot_1_axi_arsize [2:0] $end
$var reg 4 #, design_1_i/system_ila_0/inst/net_slot_1_axi_aruser [3:0] $end
$var reg 2 ', design_1_i/system_ila_0/inst/net_slot_1_axi_aw_cnt [1:0] $end
$var reg 32 ), design_1_i/system_ila_0/inst/net_slot_1_axi_awaddr [31:0] $end
$var reg 2 I, design_1_i/system_ila_0/inst/net_slot_1_axi_awburst [1:0] $end
$var reg 4 K, design_1_i/system_ila_0/inst/net_slot_1_axi_awcache [3:0] $end
$var reg 8 O, design_1_i/system_ila_0/inst/net_slot_1_axi_awlen [7:0] $end
$var reg 3 W, design_1_i/system_ila_0/inst/net_slot_1_axi_awprot [2:0] $end
$var reg 3 Z, design_1_i/system_ila_0/inst/net_slot_1_axi_awsize [2:0] $end
$var reg 2 ], design_1_i/system_ila_0/inst/net_slot_1_axi_b_cnt [1:0] $end
$var reg 2 _, design_1_i/system_ila_0/inst/net_slot_1_axi_r_cnt [1:0] $end
$var reg 32 a, design_1_i/system_ila_0/inst/net_slot_1_axi_rdata [31:0] $end
$var reg 2 #- design_1_i/system_ila_0/inst/net_slot_1_axi_rresp [1:0] $end
$var reg 32 %- design_1_i/system_ila_0/inst/net_slot_1_axi_wdata [31:0] $end
$var reg 2 E- design_1_i/system_ila_0/inst/net_slot_1_axi_aw_ctrl [1:0] $end
$var reg 1 G- design_1_i/system_ila_0/inst/net_slot_1_axi_awvalid $end
$var reg 1 H- design_1_i/system_ila_0/inst/net_slot_1_axi_awready $end
$var reg 1 I- design_1_i/system_ila_0/inst/net_slot_1_axi_wvalid $end
$var reg 3 J- design_1_i/system_ila_0/inst/net_slot_1_axi_w_ctrl [2:0] $end
$var reg 1 M- design_1_i/system_ila_0/inst/net_slot_1_axi_wready $end
$var reg 1 N- design_1_i/system_ila_0/inst/net_slot_1_axi_wlast $end
$var reg 2 O- design_1_i/system_ila_0/inst/net_slot_1_axi_b_ctrl [1:0] $end
$var reg 1 Q- design_1_i/system_ila_0/inst/net_slot_1_axi_bvalid $end
$var reg 1 R- design_1_i/system_ila_0/inst/net_slot_1_axi_bready $end
$var reg 2 S- design_1_i/system_ila_0/inst/net_slot_1_axi_ar_ctrl [1:0] $end
$var reg 1 U- design_1_i/system_ila_0/inst/net_slot_1_axi_arvalid $end
$var reg 1 V- design_1_i/system_ila_0/inst/net_slot_1_axi_arready $end
$var reg 3 W- design_1_i/system_ila_0/inst/net_slot_1_axi_r_ctrl [2:0] $end
$var reg 1 Z- design_1_i/system_ila_0/inst/net_slot_1_axi_rvalid $end
$var reg 1 [- design_1_i/system_ila_0/inst/net_slot_1_axi_rready $end
$var reg 1 \- design_1_i/system_ila_0/inst/net_slot_1_axi_rlast $end
$var reg 2 ]- design_1_i/system_ila_0/inst/net_slot_2_axi_ar_cnt [1:0] $end
$var reg 32 _- design_1_i/system_ila_0/inst/net_slot_2_axi_araddr [31:0] $end
$var reg 3 !. design_1_i/system_ila_0/inst/net_slot_2_axi_arprot [2:0] $end
$var reg 2 $. design_1_i/system_ila_0/inst/net_slot_2_axi_aw_cnt [1:0] $end
$var reg 32 &. design_1_i/system_ila_0/inst/net_slot_2_axi_awaddr [31:0] $end
$var reg 3 F. design_1_i/system_ila_0/inst/net_slot_2_axi_awprot [2:0] $end
$var reg 2 I. design_1_i/system_ila_0/inst/net_slot_2_axi_b_cnt [1:0] $end
$var reg 2 K. design_1_i/system_ila_0/inst/net_slot_2_axi_r_cnt [1:0] $end
$var reg 32 M. design_1_i/system_ila_0/inst/net_slot_2_axi_rdata [31:0] $end
$var reg 2 m. design_1_i/system_ila_0/inst/net_slot_2_axi_rresp [1:0] $end
$var reg 32 o. design_1_i/system_ila_0/inst/net_slot_2_axi_wdata [31:0] $end
$var reg 1 1/ design_1_i/system_ila_0/inst/net_slot_2_axi_awvalid $end
$var reg 2 2/ design_1_i/system_ila_0/inst/net_slot_2_axi_aw_ctrl [1:0] $end
$var reg 1 4/ design_1_i/system_ila_0/inst/net_slot_2_axi_awready $end
$var reg 1 5/ design_1_i/system_ila_0/inst/net_slot_2_axi_wvalid $end
$var reg 2 6/ design_1_i/system_ila_0/inst/net_slot_2_axi_w_ctrl [1:0] $end
$var reg 1 8/ design_1_i/system_ila_0/inst/net_slot_2_axi_wready $end
$var reg 1 9/ design_1_i/system_ila_0/inst/net_slot_2_axi_bvalid $end
$var reg 2 :/ design_1_i/system_ila_0/inst/net_slot_2_axi_b_ctrl [1:0] $end
$var reg 1 </ design_1_i/system_ila_0/inst/net_slot_2_axi_bready $end
$var reg 1 =/ design_1_i/system_ila_0/inst/net_slot_2_axi_arvalid $end
$var reg 2 >/ design_1_i/system_ila_0/inst/net_slot_2_axi_ar_ctrl [1:0] $end
$var reg 1 @/ design_1_i/system_ila_0/inst/net_slot_2_axi_arready $end
$var reg 1 A/ design_1_i/system_ila_0/inst/net_slot_2_axi_rvalid $end
$var reg 2 B/ design_1_i/system_ila_0/inst/net_slot_2_axi_r_ctrl [1:0] $end
$var reg 1 D/ design_1_i/system_ila_0/inst/net_slot_2_axi_rready $end
$var reg 2 E/ design_1_i/system_ila_0/inst/net_slot_3_axi_ar_cnt [1:0] $end
$var reg 32 G/ design_1_i/system_ila_0/inst/net_slot_3_axi_araddr [31:0] $end
$var reg 3 g/ design_1_i/system_ila_0/inst/net_slot_3_axi_arprot [2:0] $end
$var reg 2 j/ design_1_i/system_ila_0/inst/net_slot_3_axi_aw_cnt [1:0] $end
$var reg 32 l/ design_1_i/system_ila_0/inst/net_slot_3_axi_awaddr [31:0] $end
$var reg 3 .0 design_1_i/system_ila_0/inst/net_slot_3_axi_awprot [2:0] $end
$var reg 2 10 design_1_i/system_ila_0/inst/net_slot_3_axi_b_cnt [1:0] $end
$var reg 2 30 design_1_i/system_ila_0/inst/net_slot_3_axi_bresp [1:0] $end
$var reg 2 50 design_1_i/system_ila_0/inst/net_slot_3_axi_r_cnt [1:0] $end
$var reg 32 70 design_1_i/system_ila_0/inst/net_slot_3_axi_rdata [31:0] $end
$var reg 2 W0 design_1_i/system_ila_0/inst/net_slot_3_axi_rresp [1:0] $end
$var reg 32 Y0 design_1_i/system_ila_0/inst/net_slot_3_axi_wdata [31:0] $end
$var reg 4 y0 design_1_i/system_ila_0/inst/net_slot_3_axi_wstrb [3:0] $end
$var reg 2 }0 design_1_i/system_ila_0/inst/net_slot_3_axi_aw_ctrl [1:0] $end
$var reg 1 !1 design_1_i/system_ila_0/inst/net_slot_3_axi_awvalid $end
$var reg 1 "1 design_1_i/system_ila_0/inst/net_slot_3_axi_awready $end
$var reg 1 #1 design_1_i/system_ila_0/inst/net_slot_3_axi_wvalid $end
$var reg 2 $1 design_1_i/system_ila_0/inst/net_slot_3_axi_w_ctrl [1:0] $end
$var reg 1 &1 design_1_i/system_ila_0/inst/net_slot_3_axi_wready $end
$var reg 1 '1 design_1_i/system_ila_0/inst/net_slot_3_axi_bvalid $end
$var reg 2 (1 design_1_i/system_ila_0/inst/net_slot_3_axi_b_ctrl [1:0] $end
$var reg 1 *1 design_1_i/system_ila_0/inst/net_slot_3_axi_bready $end
$var reg 2 +1 design_1_i/system_ila_0/inst/net_slot_3_axi_ar_ctrl [1:0] $end
$var reg 1 -1 design_1_i/system_ila_0/inst/net_slot_3_axi_arvalid $end
$var reg 1 .1 design_1_i/system_ila_0/inst/net_slot_3_axi_arready $end
$var reg 1 /1 design_1_i/system_ila_0/inst/net_slot_3_axi_rvalid $end
$var reg 2 01 design_1_i/system_ila_0/inst/net_slot_3_axi_r_ctrl [1:0] $end
$var reg 1 21 design_1_i/system_ila_0/inst/net_slot_3_axi_rready $end
$var reg 3 31 AR_Channel__i1_s1___dfx_controller_0_M_AXI_MEM_ [2:0] $end
$var reg 3 61 AR_Channel__i1_s2___axi_interconnect_0_M00_AXI_ [2:0] $end
$var reg 3 91 AR_Channel__i1_s3___aes_0_m00_axi_ [2:0] $end
$var reg 3 <1 AW_Channel__i1_s1___dfx_controller_0_M_AXI_MEM_ [2:0] $end
$var reg 3 ?1 AW_Channel__i1_s2___axi_interconnect_0_M00_AXI_ [2:0] $end
$var reg 3 B1 AW_Channel__i1_s3___aes_0_m00_axi_ [2:0] $end
$var reg 3 E1 B_Channel__i1_s1___dfx_controller_0_M_AXI_MEM_ [2:0] $end
$var reg 3 H1 B_Channel__i1_s2___axi_interconnect_0_M00_AXI_ [2:0] $end
$var reg 3 K1 B_Channel__i1_s3___aes_0_m00_axi_ [2:0] $end
$var reg 3 N1 Interface__i1_s1___dfx_controller_0_M_AXI_MEM_ [2:0] $end
$var reg 3 Q1 Interface__i1_s2___axi_interconnect_0_M00_AXI_ [2:0] $end
$var reg 3 T1 Interface__i1_s3___aes_0_m00_axi_ [2:0] $end
$var reg 3 W1 R_Channel__i1_s1___dfx_controller_0_M_AXI_MEM_ [2:0] $end
$var reg 3 Z1 R_Channel__i1_s2___axi_interconnect_0_M00_AXI_ [2:0] $end
$var reg 3 ]1 R_Channel__i1_s3___aes_0_m00_axi_ [2:0] $end
$var reg 3 `1 W_Channel__i1_s1___dfx_controller_0_M_AXI_MEM_ [2:0] $end
$var reg 3 c1 W_Channel__i1_s2___axi_interconnect_0_M00_AXI_ [2:0] $end
$var reg 3 f1 W_Channel__i1_s3___aes_0_m00_axi_ [2:0] $end
$var reg 16 i1 ila_1___slot_1___dfx_controller_0_M_AXI_MEM___Read_Transactions_0 [15:0] $end
$var reg 16 y1 ila_1___slot_2___axi_interconnect_0_M00_AXI___Read_Transactions_0 [15:0] $end
$var reg 16 +2 ila_1___slot_3___aes_0_m00_axi___Read_Transactions_0 [15:0] $end
$var reg 1 ;2 _TRIGGER $end
$var reg 1 <2 _WINDOW $end
$var reg 1 =2 _GAP $end
$upscope $end
$enddefinitions $end
#0
$dumpvars
0"
0#
1$
1%
b10 &
b11110001 (
1l#
0m#
0n#
0o#
0p#
1q#
b11110001 r#
1X&
b0 Y&
b0 {'
0?)
b0 @)
b0 b*
1d*
b0 e*
b11111111111111111111111110011011 '+
0G+
1H+
1I+
0J+
b0 K+
b0 M+
b0 m+
b11 o+
b0 s+
b0 {+
b0 ~+
b0 #,
b0 ',
b0 ),
b1 I,
b11 K,
b0 O,
b0 W,
b10 Z,
b0 ],
b0 _,
b0 a,
b0 #-
b0 %-
b0 E-
0G-
0H-
0I-
b0 J-
0M-
0N-
b0 O-
0Q-
0R-
b10 S-
0U-
1V-
b0 W-
0Z-
0[-
0\-
b0 ]-
b0 _-
b0 !.
b0 $.
b0 &.
b0 F.
b0 I.
b0 K.
b0 M.
b0 m.
b0 o.
01/
b0 2/
04/
05/
b0 6/
08/
09/
b0 :/
0</
0=/
b0 >/
0@/
0A/
b10 B/
1D/
b0 E/
b0 G/
b0 g/
b0 j/
b0 l/
b0 .0
b0 10
b0 30
b0 50
b0 70
b0 W0
b0 Y0
b0 y0
b10 }0
0!1
1"1
0#1
b0 $1
0&1
0'1
b0 (1
0*1
b10 +1
0-1
1.1
0/1
b0 01
021
b0 31
b0 61
b0 91
b11 <1
b11 ?1
b11 B1
b11 E1
b11 H1
b11 K1
b0 N1
b0 Q1
b0 T1
b0 W1
b0 Z1
b0 ]1
b100 `1
b100 c1
b100 f1
b0 i1
b0 y1
b0 +2
0;2
1<2
0=2
$end
#128
1#
1;2
#148
b1011100110011000100000 M+
b1 m+
b1110111 s+
b10 ~+
b11 S-
1U-
b10 31
b1 N1
#149
b1 K+
b0 M+
b0 m+
b0 s+
b0 ~+
b1 _,
b10 S-
0U-
b10 W-
1[-
b1011100110011000100000 _-
b0 31
b0 N1
#150
1=/
b1 >/
b10 61
b1 Q1
#151
b11 >/
1@/
#152
b1 ]-
b1011100110011000100100 _-
b1 K.
b1 >/
0@/
b0 61
b0 Q1
#153
b1011100110100000000000 M+
b1 m+
b11111111 s+
b10 ~+
b11 S-
1U-
b10 31
b1 N1
#154
b10 K+
b0 M+
b0 m+
b0 s+
b0 ~+
b10 _,
b0 S-
0U-
0V-
b0 31
b0 N1
#155
b1011100110011000100000 G/
b11 +1
1-1
b10 91
b1 T1
#156
b11 >/
1@/
b1 E/
b1 50
b10 +1
0-1
b10 61
b0 91
b1 Q1
b0 T1
#157
b10 ]-
b1011100110011000101000 _-
b10 K.
b1 >/
0@/
b0 61
b0 Q1
#158
b1011100110110000000000 M+
b1 m+
b11111111 s+
b10 ~+
b1 S-
1U-
b11 >/
1@/
b1011100110011000100100 G/
b11 +1
1-1
b10 31
b10 61
b10 91
b1 N1
b1 Q1
b1 T1
b1 y1
#159
b11 ]-
b1011100110011000101100 _-
b11 K.
b1 >/
0@/
b10 E/
b10 50
b10 +1
0-1
b0 61
b0 91
b0 Q1
b0 T1
#160
b11 >/
1@/
b10 61
b1 Q1
#161
b0 ]-
b1011100110011000110000 _-
b0 K.
b1 >/
0@/
b1011100110011000101000 G/
b11 +1
1-1
b0 61
b10 91
b0 Q1
b1 T1
b1 +2
#162
b11 >/
1@/
b11 E/
b11 50
b10 +1
0-1
b10 61
b0 91
b1 Q1
b0 T1
#163
b1 ]-
b1011100110011000110100 _-
b1 K.
b1 >/
0@/
b0 61
b0 Q1
#164
b1011100110011000101100 G/
b11 +1
1-1
b10 91
b1 T1
#165
b0 E/
b0 50
b10 +1
0-1
b0 91
b0 T1
#167
b11 >/
1@/
b1011100110011000110000 G/
b11 +1
1-1
b10 61
b10 91
b1 Q1
b1 T1
#168
b10 ]-
b1011100110011000111000 _-
b10 K.
b1 >/
0@/
b1 E/
b1 50
b10 +1
0-1
b0 61
b0 91
b0 Q1
b0 T1
#169
b11 >/
1@/
b10 61
b1 Q1
#170
b11 ]-
b1011100110011000111100 _-
b11 K.
b1 >/
0@/
b1011100110011000110100 G/
b11 +1
1-1
b0 61
b10 91
b0 Q1
b1 T1
#171
b11 >/
1@/
b10 E/
b10 50
b10 +1
0-1
b10 61
b0 91
b1 Q1
b0 T1
#172
b0 ]-
b1011100110011001000000 _-
b0 K.
b1 >/
0@/
b0 61
b0 Q1
#173
b11 >/
1@/
b1011100110011000111000 G/
b11 +1
1-1
b10 61
b10 91
b1 Q1
b1 T1
#174
b1 ]-
b1011100110011001000100 _-
b1 K.
b1 >/
0@/
b11 E/
b11 50
b10 +1
0-1
b0 61
b0 91
b0 Q1
b0 T1
#176
b1011100110011000111100 G/
b11 +1
1-1
b10 91
b1 T1
#177
b0 E/
b0 50
b10 +1
0-1
b0 91
b0 T1
#178
b11 >/
1@/
b10 61
b1 Q1
#179
b10 ]-
b1011100110011001001000 _-
b10 K.
b1 >/
0@/
b1011100110011001000000 G/
b11 +1
1-1
b0 61
b10 91
b0 Q1
b1 T1
#180
b11 >/
1@/
b1 E/
b1 50
b10 +1
0-1
b10 61
b0 91
b1 Q1
b0 T1
#181
b11 ]-
b1011100110011001001100 _-
b11 K.
b1 >/
0@/
b0 61
b0 Q1
#182
b11 >/
1@/
b1011100110011001000100 G/
b11 +1
1-1
b10 61
b10 91
b1 Q1
b1 T1
#183
b0 ]-
b1011100110011001010000 _-
b0 K.
b1 >/
0@/
b10 E/
b10 50
b10 +1
0-1
b0 61
b0 91
b0 Q1
b0 T1
#184
b11 >/
1@/
b10 61
b1 Q1
#185
b1 ]-
b1011100110011001010100 _-
b1 K.
b1 >/
0@/
b1011100110011001001000 G/
b11 +1
1-1
b0 61
b10 91
b0 Q1
b1 T1
#186
b11 E/
b11 50
b10 +1
0-1
b0 91
b0 T1
#188
b1011100110011001001100 G/
b11 +1
1-1
b10 91
b1 T1
#189
b11 >/
1@/
b0 E/
b0 50
b10 +1
0-1
b10 61
b0 91
b1 Q1
b0 T1
#190
b10 ]-
b1011100110011001011000 _-
b10 K.
b1 >/
0@/
b0 61
b0 Q1
#191
b11 >/
1@/
b1011100110011001010000 G/
b11 +1
1-1
b10 61
b10 91
b1 Q1
b1 T1
#192
b11 ]-
b1011100110011001011100 _-
b11 K.
b1 >/
0@/
b1 E/
b1 50
b10 +1
0-1
b0 61
b0 91
b0 Q1
b0 T1
#193
b11 >/
1@/
b10 61
b1 Q1
#194
b0 ]-
b1011100110011001100000 _-
b0 K.
b1 >/
0@/
b1011100110011001010100 G/
b11 +1
1-1
b0 61
b10 91
b0 Q1
b1 T1
#195
b11 >/
1@/
b10 E/
b10 50
b10 +1
0-1
b10 61
b0 91
b1 Q1
b0 T1
#196
b1 ]-
b1011100110011001100100 _-
b1 K.
b1 >/
0@/
b0 61
b0 Q1
#197
b1011100110011001011000 G/
b11 +1
1-1
b10 91
b1 T1
#198
b11 E/
b11 50
b11001000111100000100100111100100 70
b10 +1
0-1
1/1
b1 01
b0 91
b0 T1
#199
b11 01
121
b1 T1
b111 ]1
#200
b11 >/
1@/
b10 E/
b1011100110011001011100 G/
b10 50
b1101100110011111100010111100101 70
b11 +1
1-1
b1 01
021
b10 61
b10 91
b1 Q1
b0 ]1
#201
b10 ]-
b1011100110011001101000 _-
b10 K.
b1 >/
0@/
b11 E/
b11 50
b10 +1
0-1
b0 61
b0 91
b0 Q1
b0 T1
#202
b11 >/
1@/
b11 01
121
b10 61
b1 Q1
b1 T1
b111 ]1
#203
b11 ]-
b1011100110011001101100 _-
b11 K.
b1 >/
0@/
b10 E/
b1011100110011001100000 G/
b10 50
b1101110011101010110111001010010 70
b11 +1
1-1
b1 01
021
b0 61
b10 91
b0 Q1
b0 ]1
#204
b11 >/
1@/
b11 E/
b11 50
b10 +1
0-1
b10 61
b0 91
b1 Q1
b0 T1
#205
b0 ]-
b1011100110011001110000 _-
b0 K.
b1 >/
0@/
b11 01
121
b0 61
b0 Q1
b1 T1
b111 ]1
#206
b11 >/
1@/
b10 E/
b1011100110011001100100 G/
b10 50
b10011010010011000001100000101001 70
b11 +1
1-1
b1 01
021
b10 61
b10 91
b1 Q1
b0 ]1
#207
b1 ]-
b1011100110011001110100 _-
b1 K.
b1 >/
0@/
b11 E/
b11 50
b10 +1
0-1
b0 61
b0 91
b0 Q1
b0 T1
#208
b11 01
121
b1 T1
b111 ]1
#209
b10 E/
b1011100110011001101000 G/
b10 50
b11001000111100000100100111100100 70
b11 +1
1-1
b1 01
021
b10 91
b0 ]1
#210
b11 E/
b11 50
b10 +1
0-1
b0 91
b0 T1
#211
b11 >/
1@/
b10 61
b1 Q1
#212
b10 ]-
b1011100110011001111000 _-
b10 K.
b1 >/
0@/
b1011100110011001101100 G/
b11 +1
1-1
b11 01
121
b0 61
b10 91
b0 Q1
b1 T1
b111 ]1
#213
1o#
b11100100010010011111000011001000111001011100010111001111011011000101001001101110011101010110111000101001000110000100110010011010 Y&
b11 >/
1@/
b1101100110011111100010111100101 70
b10 +1
0-1
b1 01
021
b10 61
b0 91
b1 Q1
b0 T1
b0 ]1
#214
0o#
0q#
b11 ]-
b1011100110011001111100 _-
b11 K.
b1 >/
0@/
b0 61
b0 Q1
#215
b11 >/
1@/
b1011100110011001110000 G/
b11 +1
1-1
b11 01
121
b10 61
b10 91
b1 Q1
b1 T1
b111 ]1
#216
b0 ]-
b1011100110011010000000 _-
b0 K.
b1 >/
0@/
b1101110011101010110111001010010 70
b10 +1
0-1
b1 01
021
b0 61
b0 91
b0 Q1
b0 T1
b0 ]1
#217
b11 >/
1@/
b10 61
b1 Q1
#218
b1 ]-
b1011100110011010000100 _-
b1 K.
b1 >/
0@/
b1011100110011001110100 G/
b11 +1
1-1
b11 01
121
b0 61
b10 91
b0 Q1
b1 T1
b111 ]1
#219
b10011010010011000001100000101001 70
b10 +1
0-1
b1 01
021
b0 91
b0 T1
b0 ]1
#221
b1011100110011001111000 G/
b11 +1
1-1
b11 01
121
b10 91
b1 T1
b111 ]1
#222
b11 >/
1@/
b11001000111100000100100111100100 70
b10 +1
0-1
b1 01
021
b10 61
b0 91
b1 Q1
b0 T1
b0 ]1
#223
b10 ]-
b1011100110011010001000 _-
b10 K.
b1 >/
0@/
b0 61
b0 Q1
#224
b11 >/
1@/
b1011100110011001111100 G/
b11 +1
1-1
b10 61
b10 91
b1 Q1
b1 T1
#225
b11 ]-
b1011100110011010001100 _-
b11 K.
b1 >/
0@/
b0 E/
b0 50
b10 +1
0-1
b11 01
121
b0 61
b0 91
b0 Q1
b111 ]1
#226
b11 >/
1@/
b11 E/
b11 50
b1101100110011111100010111100101 70
b0 +1
0.1
b1 01
021
b10 61
b1 Q1
b0 T1
b0 ]1
#227
b0 ]-
b1011100110011010010000 _-
b0 K.
0=/
b0 >/
0@/
b1011100110011010000000 G/
b11 +1
1-1
1.1
b0 61
b10 91
b0 Q1
b1 T1
#228
b0 E/
b0 50
b10 +1
0-1
b11 01
121
b0 91
b111 ]1
#229
b11 E/
b11 50
b1101110011101010110111001010010 70
b0 +1
0.1
b1 01
021
b0 T1
b0 ]1
#230
b1011100110011010000100 G/
b11 +1
1-1
1.1
b10 91
b1 T1
#231
b0 E/
b0 50
b10 +1
0-1
b11 01
121
b0 91
b111 ]1
#232
1q#
b11 E/
b11 50
b10011010010011000001100000101001 70
b0 +1
0.1
b1 01
021
b0 T1
b0 ]1
#233
1p#
b1011100110011010001000 G/
b11 +1
1-1
1.1
b10 91
b1 T1
#234
0p#
0q#
b0 E/
b0 50
b10 +1
0-1
b11 01
121
b0 91
b111 ]1
#235
b1010001100110011110000100000110011111110010100101100101100101000110011111000011011011010010000011111111110110000101000100110101 {'
b11 E/
b11 50
b11001000111100000100100111100100 70
b0 +1
0.1
b1 01
021
b0 T1
b0 ]1
#236
b1110000111110011110000010100101011111110010100101100101100101000110011111000011011011010010000011111111110110000101000100110101 {'
b1011100110011010001100 G/
b11 +1
1-1
1.1
b10 91
b1 T1
#237
b1110000111110011110000010100101011010110100110010111100111001110110011111000011011011010010000011111111110110000101000100110101 {'
b0 E/
b0 50
b10 +1
0-1
b0 91
b0 T1
#238
b1110000111110011110000010100101011010110100110010111100111001110000101000110011101100110101010011111111110110000101000100110101 {'
b0 +1
0.1
b11 01
121
b1 T1
b111 ]1
#239
b1110000111110011110000010100101011010110100110010111100111001110000101000110011101100110101010001111101001011010111000011011001 {'
b11 E/
b11 50
b1101100110011111100010111100101 70
b1 01
021
b0 T1
b0 ]1
#240
b1010100101001001000110101010111010101101111010011100111011000110101001001100101011001001111110000010101010110101011110110010 {'
b10 +1
1.1
#241
b10100011111001111010110001100010111010101101111010011100111011000110101001001100101011001001111110000010101010110101011110110010 {'
b11 01
121
b1 T1
b111 ]1
#242
b10100011111001111010110001100010101110111001110000011100100000110110101001001100101011001001111110000010101010110101011110110010 {'
b10 E/
b10 50
b1101110011101010110111001010010 70
b1 01
021
b0 T1
b0 ]1
#243
b10100011111001111010110001100010101110111001110000011100100000110101100001011101101010100110111010000010101010110101011110110010 {'
#244
b10100011111001111010110001100010101110111001110000011100100000110101100001011101101010100110111000010001000011101101101000111110 {'
b11 01
121
b1 T1
b111 ]1
#245
b11010010100110100000100111111010001100101000001000101111111100101101011011011110101010110110001000000101011010010111001110111010 {'
b1 E/
b1 50
b10011010010011000001100000101001 70
b1 01
021
b0 T1
b0 ]1
#246
b1111111001101110100000000010100001100101000001000101111111100101101011011011110101010110110001000000101011010010111001110111010 {'
#247
b1111111001101110100000000010100101000010001000101001110000001001101011011011110101010110110001000000101011010010111001110111010 {'
b11 01
121
b1 T1
b111 ]1
#248
b1111111001101110100000000010100101000010001000101001110000001000100101010011100000011101010101100000101011010010111001110111010 {'
b0 E/
b0 50
b1000011111100010011110001111011 70
b1 01
021
b0 T1
b0 ]1
#249
b1111111001101110100000000010100101000010001000101001110000001000100101010011100000011101010101100110110111001001000111111000000 {'
#250
b11001110010001010101111000110100110111000110001101101010111110101000101111001000111111001101000111101101000110011111101110110011 {'
#251
b11101100011010001001110100101000110111000110001101101010111110101000101111001000111111001101000111101101000110011111101110110011 {'
b11 01
121
b1 T1
b111 ]1
#252
b11101100011010001001110100101000100100110000000001011000000101001000101111001000111111001101000111101101000110011111101110110011 {'
b11 E/
b11 50
b1110110101101000100010111100100 70
b1 01
021
b0 T1
b0 ]1
#253
b11101100011010001001110100101000100100110000000001011000000101001100111010110001010101010101000111101101000110011111101110110011 {'
#254
b11101100011010001001110100101000100100110000000001011000000101001100111010110001010101010101000101010011100011100110001101001011 {'
b11 01
121
b1 T1
b111 ]1
#255
b11010110011100010010000010000011110000111110111111101100100000100111010011010000000010110101000110010101111101010101100100000100 {'
b10 E/
b10 50
b11011111101010011110100000110 70
b1 01
021
b0 T1
b0 ]1
#256
b1001010001011000101010001000001110000111110111111101100100000100111010011010000000010110101000110010101111101010101100100000100 {'
#257
b1001010001011000101010001000001001100110110000110000011000100010111010011010000000010110101000110010101111101010101100100000100 {'
b11 01
121
b1 T1
b111 ]1
#258
b1001010001011000101010001000001001100110110000110000011000100011100101001100000100111100111000010010101111101010101100100000100 {'
b1 E/
b1 50
b100100010111111111101111011110 70
b1 01
021
b0 T1
b0 ]1
#259
b1001010001011000101010001000001001100110110000110000011000100011100101001100000100111100111000010101101011101110001010100110000 {'
#260
b11100100101011000101011101001011001001100001011010110011110000011101101101101101011111001010110110000110011011010001111111100100 {'
b11 01
121
b1 T1
b111 ]1
#261
b10101110101010101101101011001100001001100001011010110011110000011101101101101101011111001010110110000110011011010001111111100100 {'
b0 E/
b0 50
b1000011111100010011110001111011 70
0/1
b0 01
021
b0 T1
b0 ]1
#262
b10101110101010101101101011001100001000111111111101001011110111011101101101101101011111001010110110000110011011010001111111100100 {'
#263
b10101110101010101101101011001100001000111111111101001011110111011001111110110011000000010001100010000110011011010001111111100100 {'
#264
b10101110101010101101101011001100001000111111111101001011110111011001111110110011000000010001100011011100101100111100101110101110 {'
#265
b11000000110000101011011100110111010100101110001010101101011010111000111010101010101110001011111000101111001010011001010011100000 {'
#266
b11111101010000010000010110010010100101110001010101101011010111000111010101010101110001011111000101111001010011001010011100000 {'
#267
b11111101010000010000010110010010010000011101100011000000001011000111010101010101110001011111000101111001010011001010011100000 {'
#268
b11111101010000010000010110010010010000011101100011000000001011110011001100010100110100101101000101111001010011001010011100000 {'
#269
b11111101010000010000010110010010010000011101100011000000001011110011001100010100110100101101001001110010011001110011110100000 {'
#270
b1110000011000010110000011010001110001111111000111001011000110001101011010000111111101001001000011010000010100010011100101110011 {'
#271
b11010000110110001001000001010001110001111111000111001011000110001101011010000111111101001001000011010000010100010011100101110011 {'
#272
b11010000110110001001000001010001001100010010101101011001001101001101011010000111111101001001000011010000010100010011100101110011 {'
#273
b11010000110110001001000001010001001100010010101101011001001101000100101011101010101110101001011011010000010100010011100101110011 {'
#274
b11010000110110001001000001010001001100010010101101011001001101000100101011101010101110101001011001100000011100000101101110001111 {'
#275
b100000111111011110011100000001101101000011101011100100011011011100001111010011001001000010110111000010110101010001010110010 {'
#276
b110000110010110111100010100000001101101000011101011100100011011011100001111010011001001000010110111000010110101010001010110010 {'
#277
b110000110010110111100010100000001001001110101010100111101101001011100001111010011001001000010110111000010110101010001010110010 {'
