.Xil/Vivado-541841-luiscarlos-GL552VX/hw_ila_data_1/zip_work/waveform.vcd
$date
        2023-Jun-12 15:42:03
$end
$version
        Vivado v2021.2 (64-bit)
$end
$timescale
        1ps
$end
$scope module dut $end
$var reg 1 " design_1_i/system_ila_0/inst/probe0_1 $end
$var reg 1 # design_1_i/system_ila_0/inst/probe1_1 $end
$var reg 1 $ design_1_i/system_ila_0/inst/probe2_1 $end
$var reg 1 % design_1_i/system_ila_0/inst/probe3_1 $end
$var reg 1 & design_1_i/system_ila_0/inst/probe4_1 $end
$var reg 1 ' design_1_i/system_ila_0/inst/probe5_1 $end
$var reg 2 ( design_1_i/system_ila_0/inst/probe6_1 [1:0] $end
$var reg 1 * design_1_i/system_ila_0/inst/probe7_1 $end
$var reg 1 + design_1_i/system_ila_0/inst/probe8_1 $end
$var reg 1 , design_1_i/system_ila_0/inst/probe9_1 $end
$var reg 257 - design_1_i/system_ila_0/inst/probe10_1 [256:0] $end
$var reg 1 r# design_1_i/system_ila_0/inst/probe11_1 $end
$var reg 128 s# design_1_i/system_ila_0/inst/probe12_1 [127:0] $end
$var reg 128 7% design_1_i/system_ila_0/inst/probe13_1 [127:0] $end
$var reg 1 Y& design_1_i/system_ila_0/inst/probe14_1 $end
$var reg 1 Z& design_1_i/system_ila_0/inst/SLOT_0_ICAP_csib_1 $end
$var reg 32 [& design_1_i/system_ila_0/inst/SLOT_0_ICAP_i_1 [31:0] $end
$var reg 32 {& design_1_i/system_ila_0/inst/SLOT_0_ICAP_o_1 [31:0] $end
$var reg 1 =' design_1_i/system_ila_0/inst/SLOT_0_ICAP_rdwrb_1 $end
$var reg 1 >' design_1_i/system_ila_0/inst/SLOT_0_ICAP_avail_1 $end
$var reg 1 ?' design_1_i/system_ila_0/inst/SLOT_0_ICAP_prdone_1 $end
$var reg 1 @' design_1_i/system_ila_0/inst/SLOT_0_ICAP_prerror_1 $end
$var reg 2 A' design_1_i/system_ila_0/inst/net_slot_1_axi_ar_cnt [1:0] $end
$var reg 32 C' design_1_i/system_ila_0/inst/net_slot_1_axi_araddr [31:0] $end
$var reg 2 c' design_1_i/system_ila_0/inst/net_slot_1_axi_arburst [1:0] $end
$var reg 4 e' design_1_i/system_ila_0/inst/net_slot_1_axi_arcache [3:0] $end
$var reg 8 i' design_1_i/system_ila_0/inst/net_slot_1_axi_arlen [7:0] $end
$var reg 3 q' design_1_i/system_ila_0/inst/net_slot_1_axi_arprot [2:0] $end
$var reg 3 t' design_1_i/system_ila_0/inst/net_slot_1_axi_arsize [2:0] $end
$var reg 4 w' design_1_i/system_ila_0/inst/net_slot_1_axi_aruser [3:0] $end
$var reg 2 {' design_1_i/system_ila_0/inst/net_slot_1_axi_aw_cnt [1:0] $end
$var reg 32 }' design_1_i/system_ila_0/inst/net_slot_1_axi_awaddr [31:0] $end
$var reg 2 ?( design_1_i/system_ila_0/inst/net_slot_1_axi_awburst [1:0] $end
$var reg 4 A( design_1_i/system_ila_0/inst/net_slot_1_axi_awcache [3:0] $end
$var reg 8 E( design_1_i/system_ila_0/inst/net_slot_1_axi_awlen [7:0] $end
$var reg 3 M( design_1_i/system_ila_0/inst/net_slot_1_axi_awprot [2:0] $end
$var reg 3 P( design_1_i/system_ila_0/inst/net_slot_1_axi_awsize [2:0] $end
$var reg 2 S( design_1_i/system_ila_0/inst/net_slot_1_axi_b_cnt [1:0] $end
$var reg 2 U( design_1_i/system_ila_0/inst/net_slot_1_axi_r_cnt [1:0] $end
$var reg 32 W( design_1_i/system_ila_0/inst/net_slot_1_axi_rdata [31:0] $end
$var reg 2 w( design_1_i/system_ila_0/inst/net_slot_1_axi_rresp [1:0] $end
$var reg 32 y( design_1_i/system_ila_0/inst/net_slot_1_axi_wdata [31:0] $end
$var reg 1 ;) design_1_i/system_ila_0/inst/net_slot_1_axi_awvalid $end
$var reg 2 <) design_1_i/system_ila_0/inst/net_slot_1_axi_aw_ctrl [1:0] $end
$var reg 1 >) design_1_i/system_ila_0/inst/net_slot_1_axi_awready $end
$var reg 1 ?) design_1_i/system_ila_0/inst/net_slot_1_axi_wvalid $end
$var reg 3 @) design_1_i/system_ila_0/inst/net_slot_1_axi_w_ctrl [2:0] $end
$var reg 1 C) design_1_i/system_ila_0/inst/net_slot_1_axi_wready $end
$var reg 1 D) design_1_i/system_ila_0/inst/net_slot_1_axi_wlast $end
$var reg 1 E) design_1_i/system_ila_0/inst/net_slot_1_axi_bvalid $end
$var reg 2 F) design_1_i/system_ila_0/inst/net_slot_1_axi_b_ctrl [1:0] $end
$var reg 1 H) design_1_i/system_ila_0/inst/net_slot_1_axi_bready $end
$var reg 2 I) design_1_i/system_ila_0/inst/net_slot_1_axi_ar_ctrl [1:0] $end
$var reg 1 K) design_1_i/system_ila_0/inst/net_slot_1_axi_arvalid $end
$var reg 1 L) design_1_i/system_ila_0/inst/net_slot_1_axi_arready $end
$var reg 3 M) design_1_i/system_ila_0/inst/net_slot_1_axi_r_ctrl [2:0] $end
$var reg 1 P) design_1_i/system_ila_0/inst/net_slot_1_axi_rvalid $end
$var reg 1 Q) design_1_i/system_ila_0/inst/net_slot_1_axi_rready $end
$var reg 1 R) design_1_i/system_ila_0/inst/net_slot_1_axi_rlast $end
$var reg 2 S) design_1_i/system_ila_0/inst/net_slot_2_axi_ar_cnt [1:0] $end
$var reg 32 U) design_1_i/system_ila_0/inst/net_slot_2_axi_araddr [31:0] $end
$var reg 3 u) design_1_i/system_ila_0/inst/net_slot_2_axi_arprot [2:0] $end
$var reg 2 x) design_1_i/system_ila_0/inst/net_slot_2_axi_aw_cnt [1:0] $end
$var reg 32 z) design_1_i/system_ila_0/inst/net_slot_2_axi_awaddr [31:0] $end
$var reg 3 <* design_1_i/system_ila_0/inst/net_slot_2_axi_awprot [2:0] $end
$var reg 2 ?* design_1_i/system_ila_0/inst/net_slot_2_axi_b_cnt [1:0] $end
$var reg 2 A* design_1_i/system_ila_0/inst/net_slot_2_axi_r_cnt [1:0] $end
$var reg 32 C* design_1_i/system_ila_0/inst/net_slot_2_axi_rdata [31:0] $end
$var reg 2 c* design_1_i/system_ila_0/inst/net_slot_2_axi_rresp [1:0] $end
$var reg 32 e* design_1_i/system_ila_0/inst/net_slot_2_axi_wdata [31:0] $end
$var reg 1 '+ design_1_i/system_ila_0/inst/net_slot_2_axi_awvalid $end
$var reg 2 (+ design_1_i/system_ila_0/inst/net_slot_2_axi_aw_ctrl [1:0] $end
$var reg 1 *+ design_1_i/system_ila_0/inst/net_slot_2_axi_awready $end
$var reg 2 ++ design_1_i/system_ila_0/inst/net_slot_2_axi_w_ctrl [1:0] $end
$var reg 1 -+ design_1_i/system_ila_0/inst/net_slot_2_axi_wvalid $end
$var reg 1 .+ design_1_i/system_ila_0/inst/net_slot_2_axi_wready $end
$var reg 2 /+ design_1_i/system_ila_0/inst/net_slot_2_axi_b_ctrl [1:0] $end
$var reg 1 1+ design_1_i/system_ila_0/inst/net_slot_2_axi_bvalid $end
$var reg 1 2+ design_1_i/system_ila_0/inst/net_slot_2_axi_bready $end
$var reg 2 3+ design_1_i/system_ila_0/inst/net_slot_2_axi_ar_ctrl [1:0] $end
$var reg 1 5+ design_1_i/system_ila_0/inst/net_slot_2_axi_arvalid $end
$var reg 1 6+ design_1_i/system_ila_0/inst/net_slot_2_axi_arready $end
$var reg 2 7+ design_1_i/system_ila_0/inst/net_slot_2_axi_r_ctrl [1:0] $end
$var reg 1 9+ design_1_i/system_ila_0/inst/net_slot_2_axi_rvalid $end
$var reg 1 :+ design_1_i/system_ila_0/inst/net_slot_2_axi_rready $end
$var reg 2 ;+ design_1_i/system_ila_0/inst/net_slot_3_axi_ar_cnt [1:0] $end
$var reg 32 =+ design_1_i/system_ila_0/inst/net_slot_3_axi_araddr [31:0] $end
$var reg 3 ]+ design_1_i/system_ila_0/inst/net_slot_3_axi_arprot [2:0] $end
$var reg 2 `+ design_1_i/system_ila_0/inst/net_slot_3_axi_aw_cnt [1:0] $end
$var reg 32 b+ design_1_i/system_ila_0/inst/net_slot_3_axi_awaddr [31:0] $end
$var reg 3 $, design_1_i/system_ila_0/inst/net_slot_3_axi_awprot [2:0] $end
$var reg 2 ', design_1_i/system_ila_0/inst/net_slot_3_axi_b_cnt [1:0] $end
$var reg 2 ), design_1_i/system_ila_0/inst/net_slot_3_axi_bresp [1:0] $end
$var reg 2 +, design_1_i/system_ila_0/inst/net_slot_3_axi_r_cnt [1:0] $end
$var reg 32 -, design_1_i/system_ila_0/inst/net_slot_3_axi_rdata [31:0] $end
$var reg 2 M, design_1_i/system_ila_0/inst/net_slot_3_axi_rresp [1:0] $end
$var reg 32 O, design_1_i/system_ila_0/inst/net_slot_3_axi_wdata [31:0] $end
$var reg 4 o, design_1_i/system_ila_0/inst/net_slot_3_axi_wstrb [3:0] $end
$var reg 2 s, design_1_i/system_ila_0/inst/net_slot_3_axi_aw_ctrl [1:0] $end
$var reg 1 u, design_1_i/system_ila_0/inst/net_slot_3_axi_awvalid $end
$var reg 1 v, design_1_i/system_ila_0/inst/net_slot_3_axi_awready $end
$var reg 1 w, design_1_i/system_ila_0/inst/net_slot_3_axi_wvalid $end
$var reg 2 x, design_1_i/system_ila_0/inst/net_slot_3_axi_w_ctrl [1:0] $end
$var reg 1 z, design_1_i/system_ila_0/inst/net_slot_3_axi_wready $end
$var reg 1 {, design_1_i/system_ila_0/inst/net_slot_3_axi_bvalid $end
$var reg 2 |, design_1_i/system_ila_0/inst/net_slot_3_axi_b_ctrl [1:0] $end
$var reg 1 ~, design_1_i/system_ila_0/inst/net_slot_3_axi_bready $end
$var reg 2 !- design_1_i/system_ila_0/inst/net_slot_3_axi_ar_ctrl [1:0] $end
$var reg 1 #- design_1_i/system_ila_0/inst/net_slot_3_axi_arvalid $end
$var reg 1 $- design_1_i/system_ila_0/inst/net_slot_3_axi_arready $end
$var reg 2 %- design_1_i/system_ila_0/inst/net_slot_3_axi_r_ctrl [1:0] $end
$var reg 1 '- design_1_i/system_ila_0/inst/net_slot_3_axi_rvalid $end
$var reg 1 (- design_1_i/system_ila_0/inst/net_slot_3_axi_rready $end
$var reg 3 )- AR_Channel__i1_s1___dfx_controller_0_M_AXI_MEM_ [2:0] $end
$var reg 3 ,- AR_Channel__i1_s2___axi_interconnect_0_M00_AXI_ [2:0] $end
$var reg 3 /- AR_Channel__i1_s3___axi_mm2s_mapper_0_M_AXI_ [2:0] $end
$var reg 3 2- AW_Channel__i1_s1___dfx_controller_0_M_AXI_MEM_ [2:0] $end
$var reg 3 5- AW_Channel__i1_s2___axi_interconnect_0_M00_AXI_ [2:0] $end
$var reg 3 8- AW_Channel__i1_s3___axi_mm2s_mapper_0_M_AXI_ [2:0] $end
$var reg 3 ;- B_Channel__i1_s1___dfx_controller_0_M_AXI_MEM_ [2:0] $end
$var reg 3 >- B_Channel__i1_s2___axi_interconnect_0_M00_AXI_ [2:0] $end
$var reg 3 A- B_Channel__i1_s3___axi_mm2s_mapper_0_M_AXI_ [2:0] $end
$var reg 3 D- Interface__i1_s1___dfx_controller_0_M_AXI_MEM_ [2:0] $end
$var reg 3 G- Interface__i1_s2___axi_interconnect_0_M00_AXI_ [2:0] $end
$var reg 3 J- Interface__i1_s3___axi_mm2s_mapper_0_M_AXI_ [2:0] $end
$var reg 3 M- R_Channel__i1_s1___dfx_controller_0_M_AXI_MEM_ [2:0] $end
$var reg 3 P- R_Channel__i1_s2___axi_interconnect_0_M00_AXI_ [2:0] $end
$var reg 3 S- R_Channel__i1_s3___axi_mm2s_mapper_0_M_AXI_ [2:0] $end
$var reg 3 V- W_Channel__i1_s1___dfx_controller_0_M_AXI_MEM_ [2:0] $end
$var reg 3 Y- W_Channel__i1_s2___axi_interconnect_0_M00_AXI_ [2:0] $end
$var reg 3 \- W_Channel__i1_s3___axi_mm2s_mapper_0_M_AXI_ [2:0] $end
$var reg 16 _- ila_1___slot_2___axi_interconnect_0_M00_AXI___Read_Transactions_0 [15:0] $end
$var reg 16 o- ila_1___slot_3___axi_mm2s_mapper_0_M_AXI___Read_Transactions_0 [15:0] $end
$var reg 1 !. _TRIGGER $end
$var reg 1 ". _WINDOW $end
$var reg 1 #. _GAP $end
$upscope $end
$enddefinitions $end
#0
$dumpvars
0"
0#
1$
0%
0&
0'
b11 (
0*
0+
1,
b11110001 -
0r#
b0 s#
b0 7%
0Y&
1Z&
b0 [&
b11111111111111111111111110011011 {&
0='
1>'
1?'
0@'
b0 A'
b0 C'
b0 c'
b11 e'
b0 i'
b0 q'
b0 t'
b0 w'
b0 {'
b0 }'
b1 ?(
b11 A(
b0 E(
b0 M(
b10 P(
b0 S(
b0 U(
b0 W(
b0 w(
b0 y(
0;)
b0 <)
0>)
0?)
b0 @)
0C)
0D)
0E)
b0 F)
0H)
b10 I)
0K)
1L)
b0 M)
0P)
0Q)
0R)
b0 S)
b0 U)
b0 u)
b0 x)
b0 z)
b0 <*
b0 ?*
b0 A*
b0 C*
b0 c*
b0 e*
0'+
b0 (+
0*+
b0 ++
0-+
0.+
b0 /+
01+
02+
b0 3+
05+
06+
b10 7+
09+
1:+
b0 ;+
b0 =+
b0 ]+
b0 `+
b0 b+
b0 $,
b0 ',
b0 ),
b0 +,
b0 -,
b0 M,
b0 O,
b0 o,
b10 s,
0u,
1v,
0w,
b0 x,
0z,
0{,
b0 |,
0~,
b10 !-
0#-
1$-
b0 %-
0'-
0(-
b0 )-
b0 ,-
b0 /-
b11 2-
b11 5-
b11 8-
b11 ;-
b11 >-
b11 A-
b0 D-
b0 G-
b0 J-
b0 M-
b0 P-
b0 S-
b100 V-
b100 Y-
b100 \-
b0 _-
b0 o-
0!.
1".
0#.
$end
#128
1r#
1!.
#147
b110001000110100000 C'
b1 c'
b10010111 i'
b10 t'
b11 I)
1K)
b10 )-
b1 D-
#148
b1 A'
b0 C'
b0 c'
b0 i'
b0 t'
b1 U(
b10 I)
0K)
b10 M)
1Q)
b110001000110100000 U)
b0 )-
b0 D-
#149
b1 3+
15+
b10 ,-
b1 G-
#150
b11 3+
16+
#151
b1 S)
b110001000110100100 U)
b1 A*
b1 3+
06+
b0 ,-
b0 G-
#152
b110001010000000000 C'
b1 c'
b11111111 i'
b10 t'
b11 I)
1K)
b10 )-
b1 D-
#153
b10 A'
b0 C'
b0 c'
b0 i'
b0 t'
b10 U(
b0 I)
0K)
0L)
b0 )-
b0 D-
#154
b110001000110100000 =+
b11 !-
1#-
b10 /-
b1 J-
#155
b11 3+
16+
b1 ;+
b1 +,
b10 !-
0#-
b10 ,-
b0 /-
b1 G-
b0 J-
#156
b10 S)
b110001000110101000 U)
b10 A*
b1 3+
06+
b0 ,-
b0 G-
#157
b110001100000000000 C'
b1 c'
b11111111 i'
b10 t'
b1 I)
1K)
b11 3+
16+
b110001000110100100 =+
b11 !-
1#-
b10 ,-
b10 /-
b1 G-
b1 J-
b1 _-
#158
b11 S)
b110001000110101100 U)
b11 A*
b1 3+
06+
b10 ;+
b10 +,
b10 !-
0#-
b0 ,-
b0 /-
b0 G-
b0 J-
#159
b11 3+
16+
b10 ,-
b1 G-
#160
b0 S)
b110001000110110000 U)
b0 A*
b1 3+
06+
b110001000110101000 =+
b11 !-
1#-
b0 ,-
b10 /-
b0 G-
b1 J-
b1 o-
#161
b11 3+
16+
b11 ;+
b11 +,
b10 !-
0#-
b10 ,-
b0 /-
b1 G-
b0 J-
#162
b1 S)
b110001000110110100 U)
b1 A*
b1 3+
06+
b0 ,-
b0 G-
#163
b110001000110101100 =+
b11 !-
1#-
b10 /-
b1 J-
#164
b0 ;+
b0 +,
b10 !-
0#-
b0 /-
b0 J-
#166
b11 3+
16+
b110001000110110000 =+
b11 !-
1#-
b10 ,-
b10 /-
b1 G-
b1 J-
#167
b10 S)
b110001000110111000 U)
b10 A*
b1 3+
06+
b1 ;+
b1 +,
b10 !-
0#-
b0 ,-
b0 /-
b0 G-
b0 J-
#168
b11 3+
16+
b10 ,-
b1 G-
#169
b11 S)
b110001000110111100 U)
b11 A*
b1 3+
06+
b110001000110110100 =+
b11 !-
1#-
b0 ,-
b10 /-
b0 G-
b1 J-
#170
b11 3+
16+
b10 ;+
b10 +,
b10 !-
0#-
b10 ,-
b0 /-
b1 G-
b0 J-
#171
b0 S)
b110001000111000000 U)
b0 A*
b1 3+
06+
b0 ,-
b0 G-
#172
b11 3+
16+
b110001000110111000 =+
b11 !-
1#-
b10 ,-
b10 /-
b1 G-
b1 J-
#173
b1 S)
b110001000111000100 U)
b1 A*
b1 3+
06+
b11 ;+
b11 +,
b10 !-
0#-
b0 ,-
b0 /-
b0 G-
b0 J-
#175
b110001000110111100 =+
b11 !-
1#-
b10 /-
b1 J-
#176
b0 ;+
b0 +,
b10 !-
0#-
b0 /-
b0 J-
#177
b11 3+
16+
b10 ,-
b1 G-
#178
b10 S)
b110001000111001000 U)
b10 A*
b1 3+
06+
b110001000111000000 =+
b11 !-
1#-
b0 ,-
b10 /-
b0 G-
b1 J-
#179
b11 3+
16+
b1 ;+
b1 +,
b10 !-
0#-
b10 ,-
b0 /-
b1 G-
b0 J-
#180
b11 S)
b110001000111001100 U)
b11 A*
b1 3+
06+
b0 ,-
b0 G-
#181
b11 3+
16+
b110001000111000100 =+
b11 !-
1#-
b10 ,-
b10 /-
b1 G-
b1 J-
#182
b0 S)
b110001000111010000 U)
b0 A*
b1 3+
06+
b10 ;+
b10 +,
b10 !-
0#-
b0 ,-
b0 /-
b0 G-
b0 J-
#183
b11 3+
16+
b10 ,-
b1 G-
#184
b1 S)
b110001000111010100 U)
b1 A*
b1 3+
06+
b110001000111001000 =+
b11 !-
1#-
b0 ,-
b10 /-
b0 G-
b1 J-
#185
b11 ;+
b11 +,
b10 !-
0#-
b0 /-
b0 J-
#187
b110001000111001100 =+
b11 !-
1#-
b10 /-
b1 J-
#188
b11 3+
16+
b0 ;+
b0 +,
b10 !-
0#-
b10 ,-
b0 /-
b1 G-
b0 J-
#189
b10 S)
b110001000111011000 U)
b10 A*
b1 3+
06+
b0 ,-
b0 G-
#190
b11 3+
16+
b110001000111010000 =+
b11 !-
1#-
b10 ,-
b10 /-
b1 G-
b1 J-
#191
b11 S)
b110001000111011100 U)
b11 A*
b1 3+
06+
b1 ;+
b1 +,
b10 !-
0#-
b0 ,-
b0 /-
b0 G-
b0 J-
#192
b11 3+
16+
b10 ,-
b1 G-
#193
b0 S)
b110001000111100000 U)
b0 A*
b1 3+
06+
b110001000111010100 =+
b11 !-
1#-
b0 ,-
b10 /-
b0 G-
b1 J-
#194
b11 3+
16+
b10 ;+
b10 +,
b10 !-
0#-
b10 ,-
b0 /-
b1 G-
b0 J-
#195
b1 S)
b110001000111100100 U)
b1 A*
b1 3+
06+
b11111111111111111111111111111111 -,
b1 %-
1'-
b0 ,-
b0 G-
#196
b110001000111011000 =+
b11 !-
1#-
b11 %-
1(-
b10 /-
b1 J-
b111 S-
#197
b10 !-
0#-
b1 %-
0(-
b0 /-
b0 J-
b0 S-
#199
b11 3+
16+
b110001000111011100 =+
b11 !-
1#-
b11 %-
1(-
b10 ,-
b10 /-
b1 G-
b1 J-
b111 S-
#200
b10 S)
b110001000111101000 U)
b10 A*
b1 3+
06+
b10 !-
0#-
b1 %-
0(-
b0 ,-
b0 /-
b0 G-
b0 J-
b0 S-
#201
b11 3+
16+
b10 ,-
b1 G-
#202
b11 S)
b110001000111101100 U)
b11 A*
b1 3+
06+
b110001000111100000 =+
b11 !-
1#-
b11 %-
1(-
b0 ,-
b10 /-
b0 G-
b1 J-
b111 S-
#203
b11 3+
16+
b10 !-
0#-
b1 %-
0(-
b10 ,-
b0 /-
b1 G-
b0 J-
b0 S-
#204
b0 S)
b110001000111110000 U)
b0 A*
b1 3+
06+
b0 ,-
b0 G-
#205
b11 3+
16+
b110001000111100100 =+
b11 !-
1#-
b11 %-
1(-
b10 ,-
b10 /-
b1 G-
b1 J-
b111 S-
#206
b1 S)
b110001000111110100 U)
b1 A*
b1 3+
06+
b10 !-
0#-
b1 %-
0(-
b0 ,-
b0 /-
b0 G-
b0 J-
b0 S-
#208
b110001000111101000 =+
b11 !-
1#-
b10 /-
b1 J-
#209
b11 ;+
b11 +,
b10 !-
0#-
b11 %-
1(-
b0 /-
b111 S-
#210
1+
b11111111111111111111111111111111111111111111111111111111111111111111111111111111111111111111111111111111111111111111111111111111 s#
b11 3+
16+
b10 ;+
b10 +,
b1 %-
0(-
b10 ,-
b1 G-
b0 J-
b0 S-
#211
0+
0,
b10 S)
b110001000111111000 U)
b10 A*
b1 3+
06+
b110001000111101100 =+
b11 !-
1#-
b0 ,-
b10 /-
b0 G-
b1 J-
#212
b11111111111111111111111111111111111111111111111111111111111111111111111111111111111111111111111111111111111111111111111111111111 7%
b11 3+
16+
b11 ;+
b11 +,
b10 !-
0#-
b11 %-
1(-
b10 ,-
b0 /-
b1 G-
b111 S-
#213
b10110000101100001011000010110111111111111111111111111111111111111111111111111111111111111111111111111111111111111111111111111 7%
b11 S)
b110001000111111100 U)
b11 A*
b1 3+
06+
b10 ;+
b10 +,
b1 %-
0(-
b0 ,-
b0 G-
b0 J-
b0 S-
#214
b10110000101100001011000010110000101100001011000010110000101101111111111111111111111111111111111111111111111111111111111111111 7%
b11 3+
16+
b110001000111110000 =+
b11 !-
1#-
b10 ,-
b10 /-
b1 G-
b1 J-
#215
b10110000101100001011000010110000101100001011000010110000101100001011000010110000101100001011011111111111111111111111111111111 7%
b0 S)
b110001001000000000 U)
b0 A*
b1 3+
06+
b11 ;+
b11 +,
b10 !-
0#-
b11 %-
1(-
b0 ,-
b0 /-
b0 G-
b111 S-
#216
b10110000101100001011000010110000101100001011000010110000101100001011000010110000101100001011000010110000101100001011000010110 7%
b11 3+
16+
b10 ;+
b10 +,
b1 %-
0(-
b10 ,-
b1 G-
b0 J-
b0 S-
#217
b1110100011101010111010101110101011101000111010101110101011101010111010001110101011101010111010101110100011101010111010101110101 7%
b1 S)
b110001001000000100 U)
b1 A*
b1 3+
06+
b110001000111110100 =+
b11 !-
1#-
b0 ,-
b10 /-
b0 G-
b1 J-
#218
b10010010100111011001110110011101011101000111010101110101011101010111010001110101011101010111010101110100011101010111010101110101 7%
b11 ;+
b11 +,
b10 !-
0#-
b11 %-
1(-
b0 /-
b111 S-
#219
b10010010100111011001110110011101100100101001110110011101100111010111010001110101011101010111010101110100011101010111010101110101 7%
b10 ;+
b10 +,
b1 %-
0(-
b0 J-
b0 S-
#220
b10010010100111011001110110011101100100101001110110011101100111011001001010011101100111011001110101110100011101010111010101110101 7%
b110001000111111000 =+
b11 !-
1#-
b10 /-
b1 J-
#221
b10010010100111011001110110011101100100101001110110011101100111011001001010011101100111011001110110010010100111011001110110011101 7%
b11 3+
16+
b11 ;+
b11 +,
b10 !-
0#-
b10 ,-
b0 /-
b1 G-
b0 J-
#222
b11000000010100000101001000101011110100110100101101001001001100001100000001010000010100100010101111010011010010110100100100110 7%
b10 S)
b110001001000001000 U)
b10 A*
b1 3+
06+
b11 %-
1(-
b0 ,-
b0 G-
b1 J-
b111 S-
#223
b10101101011001110110011101101110011110100110100101101001001001100001100000001010000010100100010101111010011010010110100100100110 7%
b11 3+
16+
b10 ;+
b110001000111111100 =+
b10 +,
b11 !-
1#-
b1 %-
0(-
b10 ,-
b10 /-
b1 G-
b0 S-
#224
b10101101011001110110011101101110110110101111100111111001111101110001100000001010000010100100010101111010011010010110100100100110 7%
b11 S)
b110001001000001100 U)
b11 A*
b1 3+
06+
b11 ;+
b11 +,
b10 !-
0#-
b0 ,-
b0 /-
b0 G-
b0 J-
#225
b10101101011001110110011101101110110110101111100111111001111101111010110101100111011001110110111001111010011010010110100100100110 7%
b11 3+
16+
b11 %-
1(-
b10 ,-
b1 G-
b1 J-
b111 S-
#226
b10101101011001110110011101101110110110101111100111111001111101111010110101100111011001110110111011011010111110011111100111110111 7%
b0 S)
b110001001000010000 U)
b0 A*
b0 3+
05+
06+
b10 ;+
b110001001000000000 =+
b10 +,
b11 !-
1#-
b1 %-
0(-
b0 ,-
b10 /-
b0 G-
b0 S-
#227
b1010001100011011010110011010111111110000000011000101001110011010011001111101110110011111011010010011010011001010100101010101110 7%
b11 ;+
b11 +,
b10 !-
0#-
b0 /-
b0 J-
#228
b11010001010111011001000100001110111110000000011000101001110011010011001111101110110011111011010010011010011001010100101010101110 7%
b11 %-
1(-
b1 J-
b111 S-
#229
b11010001010111011001000100001110010000010110111110100101101111010011001111101110110011111011010010011010011001010100101010101110 7%
b10 ;+
b110001001000000100 =+
b10 +,
b11 !-
1#-
b1 %-
0(-
b10 /-
b0 S-
#230
b11010001010111011001000100001110010000010110111110100101101111011100001100101000100010101000110110011010011001010100101010101110 7%
b11 ;+
b11 +,
b10 !-
0#-
b0 /-
b0 J-
#231
b11010001010111011001000100001110010000010110111110100101101111011100001100101000100010101000110110111000010011011101011011100100 7%
b11 %-
1(-
b1 J-
b111 S-
#232
b10001000011010000101110000100101101001010001010011011001101000000001001111010010001010010101000111011010111010101101011000000001 7%
b10 ;+
b110001001000001000 =+
b10 +,
b11 !-
1#-
b1 %-
0(-
b10 /-
b0 S-
#233
b11000100010001010100101000111111101001010001010011011001101000000001001111010010001010010101000111011010111010101101011000000001 7%
b11 ;+
b11 +,
b10 !-
0#-
b0 /-
b0 J-
#234
b11000100010001010100101000111111000001101111101000110101111000000001001111010010001010010101000111011010111010101101011000000001 7%
#235
b11000100010001010100101000111111000001101111101000110101111000000111110110110101101001011101000111011010111010101101011000000001 7%
b110001001000001100 =+
b11 !-
1#-
b11 %-
1(-
b10 /-
b1 J-
b111 S-
#236
b11000100010001010100101000111111000001101111101000110101111000000111110110110101101001011101000101010111100001111111011001111100 7%
b10 !-
0#-
b1 %-
0(-
b0 /-
b0 J-
b0 S-
#237
b100000100011011100000001111000111110010000110100111011001111100100111110001100001010010010101001110110000110001000001010100000 7%
#238
b10110111010111011011101010111100111110010000110100111011001111100100111110001100001010010010101001110110000110001000001010100000 7%
b11 %-
1(-
b1 J-
b111 S-
#239
b10110111010111011011101010111100100110011101011111100010101100100100111110001100001010010010101001110110000110001000001010100000 7%
b10 ;+
b10 +,
b1 %-
0(-
b0 J-
b0 S-
#240
b10110111010111011011101010111100100110011101011111100010101100101000010001100100101001011110010101110110000110001000001010100000 7%
#241
b10110111010111011011101010111100100110011101011111100010101100101000010001100100101001011110010100111000101011010001001111100000 7%
b11 %-
1(-
b1 J-
b111 S-
#242
b10111110011101110100000111101110001111101111110101110001001010000110111001011101100000101100100011111010111011100001010110000001 7%
b1 ;+
b1 +,
b1 %-
0(-
b0 J-
b0 S-
#243
b10101110111101011000001100101000001111101111110101110001001010000110111001011101100000101100100011111010111011100001010110000001 7%
#244
b10101110111101011000001100101000101100100101010010100011001101000110111001011101100000101100100011111010111011100001010110000001 7%
b11 %-
1(-
b1 J-
b111 S-
#245
b10101110111101011000001100101000101100100101010010100011001101001001111101001100000100111110100011111010111011100001010110000001 7%
b0 ;+
b0 +,
b10111011 -,
b1 %-
0(-
b0 J-
b0 S-
#246
b10101110111101011000001100101000101100100101010010100011001101001001111101001100000100111110100000101101001010000101100100001100 7%
#247
b10000101010010101101111100110001111011111011100101010110100000110100011011001010100111010100010111010011110100010101011001110001 7%
#248
b10010111110101101001111011000111111011111011100101010110100000110100011011001010100111010100010111010011110100010101011001110001 7%
b11 %-
1(-
b1 J-
b111 S-
#249
b10010111110101101001111011000111110111110101011010110001111011000100011011001010100111010100010111010011110100010101011001110001 7%
b11 ;+
b11 +,
b10001001000100000000001000100 -,
b1 %-
0(-
b0 J-
b0 S-
#250
b10010111110101101001111011000111110111110101011010110001111011000101101001110100010111100110111011010011110100010101011001110001 7%
#251
b10010111110101101001111011000111110111110101011010110001111011000101101001110100010111100110111001100110001111101011000110100011 7%
b11 %-
1(-
b1 J-
b111 S-
#252
b111100100000111000000011000100011101001001000111100001000100100001001101110101011001101000100100100011011010101000000110001110 7%
b10 ;+
b10 +,
b11111111111111111111111111111111 -,
b1 %-
0(-
b0 J-
b0 S-
#253
b11101011111011001100110100011100011101001001000111100001000100100001001101110101011001101000100100100011011010101000000110001110 7%
#254
b11101011111011001100110100011100100100101000000111111000110010010001001101110101011001101000100100100011011010101000000110001110 7%
b11 %-
1(-
b1 J-
b111 S-
#255
b11101011111011001100110100011100100100101000000111111000110010010111110110011101001100111010011100100011011010101000000110001110 7%
b1 ;+
b1 +,
b1 %-
0(-
b0 J-
b0 S-
#256
b11101011111011001100110100011100100100101000000111111000110010010111110110011101001100111010011100100110000000100000110000011001 7%
#257
b11001110011010101111111101000100000110011100011010001010110111101110010110000111000011010001111101110000001101111001101001101010 7%
b11 %-
1(-
b1 J-
b111 S-
#258
b10001011000000100001011000011011000110011100011010001010110111101110010110000111000011010001111101110000001101111001101001101010 7%
b0 ;+
b0 +,
b10111011 -,
b0 %-
0'-
0(-
b0 J-
b0 S-
#259
b10001011000000100001011000011011110101001011010001111110000111011110010110000111000011010001111101110000001101111001101001101010 7%
#260
b10001011000000100001011000011011110101001011010001111110000111011101100100010111110101111100000001110000001101111001101001101010 7%
#261
b10001011000000100001011000011011110101001011010001111110000111011101100100010111110101111100000001010001100110101011100000000010 7%
#262
b10101011011101111101011100101010000101111010000001100111111011110011010000111000000110010000100101110101100110001110110010011010 7%
#263
b1100010111101010000111011100101000101111010000001100111111011110011010000111000000110010000100101110101100110001110110010011010 7%
#264
b1100010111101010000111011100101111100001110000010000101110111110011010000111000000110010000100101110101100110001110110010011010 7%
#265
b1100010111101010000111011100101111100001110000010000101110111110001100000000111110101000000000101110101100110001110110010011010 7%
#266
b1100010111101010000111011100101111100001110000010000101110111110001100000000111110101000000000110011101010001101100111010111000 7%
