.Xil/Vivado-526431-luiscarlos-GL552VX/hw_ila_data_1/zip_work/waveform.vcd
$date
        2023-Jun-12 13:21:29
$end
$version
        Vivado v2021.2 (64-bit)
$end
$timescale
        1ps
$end
$scope module dut $end
$var reg 1 " design_1_i/system_ila_0/inst/probe0_1 $end
$var reg 1 # design_1_i/system_ila_0/inst/probe1_1 $end
$var reg 1 $ design_1_i/system_ila_0/inst/probe2_1 $end
$var reg 1 % design_1_i/system_ila_0/inst/probe3_1 $end
$var reg 1 & design_1_i/system_ila_0/inst/probe4_1 $end
$var reg 1 ' design_1_i/system_ila_0/inst/probe5_1 $end
$var reg 1 ( design_1_i/system_ila_0/inst/probe6_1 $end
$var reg 1 ) design_1_i/system_ila_0/inst/probe7_1 $end
$var reg 1 * design_1_i/system_ila_0/inst/probe8_1 $end
$var reg 1 + design_1_i/system_ila_0/inst/probe9_1 $end
$var reg 1 , design_1_i/system_ila_0/inst/probe10_1 $end
$var reg 1 - design_1_i/system_ila_0/inst/probe11_1 $end
$var reg 1 . design_1_i/system_ila_0/inst/probe12_1 $end
$var reg 1 / design_1_i/system_ila_0/inst/probe13_1 $end
$var reg 1 0 design_1_i/system_ila_0/inst/probe14_1 $end
$var reg 1 1 design_1_i/system_ila_0/inst/SLOT_0_ICAP_csib_1 $end
$var reg 32 2 design_1_i/system_ila_0/inst/SLOT_0_ICAP_i_1 [31:0] $end
$var reg 32 R design_1_i/system_ila_0/inst/SLOT_0_ICAP_o_1 [31:0] $end
$var reg 1 r design_1_i/system_ila_0/inst/SLOT_0_ICAP_rdwrb_1 $end
$var reg 1 s design_1_i/system_ila_0/inst/SLOT_0_ICAP_avail_1 $end
$var reg 1 t design_1_i/system_ila_0/inst/SLOT_0_ICAP_prdone_1 $end
$var reg 1 u design_1_i/system_ila_0/inst/SLOT_0_ICAP_prerror_1 $end
$var reg 2 v design_1_i/system_ila_0/inst/net_slot_1_axi_ar_cnt [1:0] $end
$var reg 32 x design_1_i/system_ila_0/inst/net_slot_1_axi_araddr [31:0] $end
$var reg 2 :" design_1_i/system_ila_0/inst/net_slot_1_axi_arburst [1:0] $end
$var reg 4 <" design_1_i/system_ila_0/inst/net_slot_1_axi_arcache [3:0] $end
$var reg 8 @" design_1_i/system_ila_0/inst/net_slot_1_axi_arlen [7:0] $end
$var reg 3 H" design_1_i/system_ila_0/inst/net_slot_1_axi_arprot [2:0] $end
$var reg 3 K" design_1_i/system_ila_0/inst/net_slot_1_axi_arsize [2:0] $end
$var reg 4 N" design_1_i/system_ila_0/inst/net_slot_1_axi_aruser [3:0] $end
$var reg 2 R" design_1_i/system_ila_0/inst/net_slot_1_axi_aw_cnt [1:0] $end
$var reg 32 T" design_1_i/system_ila_0/inst/net_slot_1_axi_awaddr [31:0] $end
$var reg 2 t" design_1_i/system_ila_0/inst/net_slot_1_axi_awburst [1:0] $end
$var reg 4 v" design_1_i/system_ila_0/inst/net_slot_1_axi_awcache [3:0] $end
$var reg 8 z" design_1_i/system_ila_0/inst/net_slot_1_axi_awlen [7:0] $end
$var reg 3 $# design_1_i/system_ila_0/inst/net_slot_1_axi_awprot [2:0] $end
$var reg 3 '# design_1_i/system_ila_0/inst/net_slot_1_axi_awsize [2:0] $end
$var reg 2 *# design_1_i/system_ila_0/inst/net_slot_1_axi_b_cnt [1:0] $end
$var reg 2 ,# design_1_i/system_ila_0/inst/net_slot_1_axi_r_cnt [1:0] $end
$var reg 32 .# design_1_i/system_ila_0/inst/net_slot_1_axi_rdata [31:0] $end
$var reg 2 N# design_1_i/system_ila_0/inst/net_slot_1_axi_rresp [1:0] $end
$var reg 32 P# design_1_i/system_ila_0/inst/net_slot_1_axi_wdata [31:0] $end
$var reg 1 p# design_1_i/system_ila_0/inst/net_slot_1_axi_awvalid $end
$var reg 2 q# design_1_i/system_ila_0/inst/net_slot_1_axi_aw_ctrl [1:0] $end
$var reg 1 s# design_1_i/system_ila_0/inst/net_slot_1_axi_awready $end
$var reg 1 t# design_1_i/system_ila_0/inst/net_slot_1_axi_wvalid $end
$var reg 3 u# design_1_i/system_ila_0/inst/net_slot_1_axi_w_ctrl [2:0] $end
$var reg 1 x# design_1_i/system_ila_0/inst/net_slot_1_axi_wready $end
$var reg 1 y# design_1_i/system_ila_0/inst/net_slot_1_axi_wlast $end
$var reg 1 z# design_1_i/system_ila_0/inst/net_slot_1_axi_bvalid $end
$var reg 2 {# design_1_i/system_ila_0/inst/net_slot_1_axi_b_ctrl [1:0] $end
$var reg 1 }# design_1_i/system_ila_0/inst/net_slot_1_axi_bready $end
$var reg 2 ~# design_1_i/system_ila_0/inst/net_slot_1_axi_ar_ctrl [1:0] $end
$var reg 1 "$ design_1_i/system_ila_0/inst/net_slot_1_axi_arvalid $end
$var reg 1 #$ design_1_i/system_ila_0/inst/net_slot_1_axi_arready $end
$var reg 3 $$ design_1_i/system_ila_0/inst/net_slot_1_axi_r_ctrl [2:0] $end
$var reg 1 '$ design_1_i/system_ila_0/inst/net_slot_1_axi_rvalid $end
$var reg 1 ($ design_1_i/system_ila_0/inst/net_slot_1_axi_rready $end
$var reg 1 )$ design_1_i/system_ila_0/inst/net_slot_1_axi_rlast $end
$var reg 2 *$ design_1_i/system_ila_0/inst/net_slot_2_axi_ar_cnt [1:0] $end
$var reg 32 ,$ design_1_i/system_ila_0/inst/net_slot_2_axi_araddr [31:0] $end
$var reg 3 L$ design_1_i/system_ila_0/inst/net_slot_2_axi_arprot [2:0] $end
$var reg 2 O$ design_1_i/system_ila_0/inst/net_slot_2_axi_aw_cnt [1:0] $end
$var reg 32 Q$ design_1_i/system_ila_0/inst/net_slot_2_axi_awaddr [31:0] $end
$var reg 3 q$ design_1_i/system_ila_0/inst/net_slot_2_axi_awprot [2:0] $end
$var reg 2 t$ design_1_i/system_ila_0/inst/net_slot_2_axi_b_cnt [1:0] $end
$var reg 2 v$ design_1_i/system_ila_0/inst/net_slot_2_axi_r_cnt [1:0] $end
$var reg 32 x$ design_1_i/system_ila_0/inst/net_slot_2_axi_rdata [31:0] $end
$var reg 2 :% design_1_i/system_ila_0/inst/net_slot_2_axi_rresp [1:0] $end
$var reg 32 <% design_1_i/system_ila_0/inst/net_slot_2_axi_wdata [31:0] $end
$var reg 1 \% design_1_i/system_ila_0/inst/net_slot_2_axi_awvalid $end
$var reg 2 ]% design_1_i/system_ila_0/inst/net_slot_2_axi_aw_ctrl [1:0] $end
$var reg 1 _% design_1_i/system_ila_0/inst/net_slot_2_axi_awready $end
$var reg 2 `% design_1_i/system_ila_0/inst/net_slot_2_axi_w_ctrl [1:0] $end
$var reg 1 b% design_1_i/system_ila_0/inst/net_slot_2_axi_wvalid $end
$var reg 1 c% design_1_i/system_ila_0/inst/net_slot_2_axi_wready $end
$var reg 2 d% design_1_i/system_ila_0/inst/net_slot_2_axi_b_ctrl [1:0] $end
$var reg 1 f% design_1_i/system_ila_0/inst/net_slot_2_axi_bvalid $end
$var reg 1 g% design_1_i/system_ila_0/inst/net_slot_2_axi_bready $end
$var reg 2 h% design_1_i/system_ila_0/inst/net_slot_2_axi_ar_ctrl [1:0] $end
$var reg 1 j% design_1_i/system_ila_0/inst/net_slot_2_axi_arvalid $end
$var reg 1 k% design_1_i/system_ila_0/inst/net_slot_2_axi_arready $end
$var reg 2 l% design_1_i/system_ila_0/inst/net_slot_2_axi_r_ctrl [1:0] $end
$var reg 1 n% design_1_i/system_ila_0/inst/net_slot_2_axi_rvalid $end
$var reg 1 o% design_1_i/system_ila_0/inst/net_slot_2_axi_rready $end
$var reg 2 p% design_1_i/system_ila_0/inst/net_slot_3_axi_ar_cnt [1:0] $end
$var reg 32 r% design_1_i/system_ila_0/inst/net_slot_3_axi_araddr [31:0] $end
$var reg 3 4& design_1_i/system_ila_0/inst/net_slot_3_axi_arprot [2:0] $end
$var reg 2 7& design_1_i/system_ila_0/inst/net_slot_3_axi_aw_cnt [1:0] $end
$var reg 32 9& design_1_i/system_ila_0/inst/net_slot_3_axi_awaddr [31:0] $end
$var reg 3 Y& design_1_i/system_ila_0/inst/net_slot_3_axi_awprot [2:0] $end
$var reg 2 \& design_1_i/system_ila_0/inst/net_slot_3_axi_b_cnt [1:0] $end
$var reg 2 ^& design_1_i/system_ila_0/inst/net_slot_3_axi_bresp [1:0] $end
$var reg 2 `& design_1_i/system_ila_0/inst/net_slot_3_axi_r_cnt [1:0] $end
$var reg 32 b& design_1_i/system_ila_0/inst/net_slot_3_axi_rdata [31:0] $end
$var reg 2 $' design_1_i/system_ila_0/inst/net_slot_3_axi_rresp [1:0] $end
$var reg 32 &' design_1_i/system_ila_0/inst/net_slot_3_axi_wdata [31:0] $end
$var reg 4 F' design_1_i/system_ila_0/inst/net_slot_3_axi_wstrb [3:0] $end
$var reg 2 J' design_1_i/system_ila_0/inst/net_slot_3_axi_aw_ctrl [1:0] $end
$var reg 1 L' design_1_i/system_ila_0/inst/net_slot_3_axi_awvalid $end
$var reg 1 M' design_1_i/system_ila_0/inst/net_slot_3_axi_awready $end
$var reg 1 N' design_1_i/system_ila_0/inst/net_slot_3_axi_wvalid $end
$var reg 2 O' design_1_i/system_ila_0/inst/net_slot_3_axi_w_ctrl [1:0] $end
$var reg 1 Q' design_1_i/system_ila_0/inst/net_slot_3_axi_wready $end
$var reg 1 R' design_1_i/system_ila_0/inst/net_slot_3_axi_bvalid $end
$var reg 2 S' design_1_i/system_ila_0/inst/net_slot_3_axi_b_ctrl [1:0] $end
$var reg 1 U' design_1_i/system_ila_0/inst/net_slot_3_axi_bready $end
$var reg 2 V' design_1_i/system_ila_0/inst/net_slot_3_axi_ar_ctrl [1:0] $end
$var reg 1 X' design_1_i/system_ila_0/inst/net_slot_3_axi_arvalid $end
$var reg 1 Y' design_1_i/system_ila_0/inst/net_slot_3_axi_arready $end
$var reg 2 Z' design_1_i/system_ila_0/inst/net_slot_3_axi_r_ctrl [1:0] $end
$var reg 1 \' design_1_i/system_ila_0/inst/net_slot_3_axi_rvalid $end
$var reg 1 ]' design_1_i/system_ila_0/inst/net_slot_3_axi_rready $end
$var reg 3 ^' AR_Channel__i1_s1___dfx_controller_0_M_AXI_MEM_ [2:0] $end
$var reg 3 a' AR_Channel__i1_s2___axi_interconnect_0_M00_AXI_ [2:0] $end
$var reg 3 d' AR_Channel__i1_s3___axi_mm2s_mapper_0_M_AXI_ [2:0] $end
$var reg 3 g' AW_Channel__i1_s1___dfx_controller_0_M_AXI_MEM_ [2:0] $end
$var reg 3 j' AW_Channel__i1_s2___axi_interconnect_0_M00_AXI_ [2:0] $end
$var reg 3 m' AW_Channel__i1_s3___axi_mm2s_mapper_0_M_AXI_ [2:0] $end
$var reg 3 p' B_Channel__i1_s1___dfx_controller_0_M_AXI_MEM_ [2:0] $end
$var reg 3 s' B_Channel__i1_s2___axi_interconnect_0_M00_AXI_ [2:0] $end
$var reg 3 v' B_Channel__i1_s3___axi_mm2s_mapper_0_M_AXI_ [2:0] $end
$var reg 3 y' Interface__i1_s1___dfx_controller_0_M_AXI_MEM_ [2:0] $end
$var reg 3 |' Interface__i1_s2___axi_interconnect_0_M00_AXI_ [2:0] $end
$var reg 3 !( Interface__i1_s3___axi_mm2s_mapper_0_M_AXI_ [2:0] $end
$var reg 3 $( R_Channel__i1_s1___dfx_controller_0_M_AXI_MEM_ [2:0] $end
$var reg 3 '( R_Channel__i1_s2___axi_interconnect_0_M00_AXI_ [2:0] $end
$var reg 3 *( R_Channel__i1_s3___axi_mm2s_mapper_0_M_AXI_ [2:0] $end
$var reg 3 -( W_Channel__i1_s1___dfx_controller_0_M_AXI_MEM_ [2:0] $end
$var reg 3 0( W_Channel__i1_s2___axi_interconnect_0_M00_AXI_ [2:0] $end
$var reg 3 3( W_Channel__i1_s3___axi_mm2s_mapper_0_M_AXI_ [2:0] $end
$var reg 16 6( ila_1___slot_3___axi_mm2s_mapper_0_M_AXI___Read_Transactions_0 [15:0] $end
$var reg 1 F( _TRIGGER $end
$var reg 1 G( _WINDOW $end
$var reg 1 H( _GAP $end
$upscope $end
$enddefinitions $end
#0
$dumpvars
0"
1#
1$
0%
0&
0'
0(
0)
0*
1+
1,
1-
1.
0/
10
11
b1001010110001100001100000110010 2
b11111111111111111111111110011011 R
0r
1s
1t
0u
b10 v
b1011100110110000000000 x
b1 :"
b11 <"
b11111111 @"
b0 H"
b10 K"
b0 N"
b0 R"
b0 T"
b1 t"
b11 v"
b0 z"
b0 $#
b10 '#
b0 *#
b10 ,#
b1010010011000110001100001001100 .#
b0 N#
b0 P#
0p#
b0 q#
0s#
0t#
b0 u#
0x#
0y#
0z#
b0 {#
0}#
b1 ~#
1"$
0#$
b10 $$
0'$
1($
0)$
b1 *$
b1011100110011111000000 ,$
b0 L$
b0 O$
b0 Q$
b0 q$
b0 t$
b1 v$
b1010110001001010100010010100101 x$
b0 :%
b0 <%
0\%
b0 ]%
0_%
b0 `%
0b%
0c%
b0 d%
0f%
0g%
b1 h%
1j%
0k%
b0 l%
0n%
0o%
b0 p%
b1011100110011110100000 r%
b0 4&
b0 7&
b0 9&
b0 Y&
b0 \&
b0 ^&
b0 `&
b10011101010000001111111001000001 b&
b0 $'
b0 &'
b0 F'
b10 J'
0L'
1M'
0N'
b0 O'
0Q'
0R'
b0 S'
0U'
b1 V'
1X'
0Y'
b1 Z'
1\'
0]'
b11 ^'
b11 a'
b11 d'
b11 g'
b11 j'
b11 m'
b11 p'
b11 s'
b11 v'
b11 y'
b11 |'
b11 !(
b100 $(
b100 '(
b100 *(
b100 -(
b100 0(
b100 3(
b0 6(
0F(
1G(
0H(
$end
#2
b1010110001001010100110010100101 x$
#3
b1010110001001010100010010100101 x$
#4
b1010110001001010100110110100101 x$
#8
b1010110001000011100110110100100 x$
#9
b1010110001001010100110110100101 x$
#11
b1010110001001010100010010100101 x$
#12
b110001001110100010011100101 x$
#13
b110001001110101010011000101 x$
#14
b111001001110001010011000101 x$
#15
b100111001001110001001011000001 x$
#16
b100111001011110001001011000001 x$
#18
b100111001001110001011011000101 x$
#19
b110001001110101010011000101 x$
#20
b1010110001001010100010010100101 x$
#21
b1010110001001010100110110100101 x$
#22
b1010110010000001000110110110100 x$
#23
b1010110110100000000110110100100 x$
#24
b1010111011010110101100110100101 x$
#25
b1100010000011111001100011101101 x$
#26
b1010010000110101010100011101101 x$
#27
b1010001001100010001110011101001 x$
#28
b1010110001001010001010110101101 x$
#29
b1010110001000010100110110100101 x$
#30
b1010010100010101100100110101101 x$
#31
b11010110100110101100100011100001 x$
#32
b10000111000110101111000011100001 x$
#33
b10000001010101101111010011100011 x$
#34
b10001010101001111010110111011 x$
#36
b10001110101001111010110111011 x$
#37
b10011100101001101010110111011 x$
#38
b10011100111001101000110111001 x$
#40
b110111100111001101001110111001 x$
#42
b110111100111001001001110111001 x$
#43
b10011100111001101000110111001 x$
#45
b10011100101001101010110111001 x$
#47
b10011100101001101010110111011 x$
#50
b10011100101001101010110111001 x$
#52
b10111100111001101000110111001 x$
#53
b110111100111001001001110111001 x$
#54
b100111100111101001001110101001 x$
#55
b10100111100111101001001111100001 x$
#56
b10100111100111101001001001100001 x$
#57
b10100111110111100001001001100001 x$
#58
b10100111111111100001001001100001 x$
#59
b10100111011111110001001001100001 x$
#60
b10100111011111110001001001000001 x$
#61
b10100111011011110001001001000001 x$
#62
b100111001011110001001011000001 x$
#64
b111001001110001011011000101 x$
#65
b110001001110101010011000101 x$
#66
b110001001010100010011100101 x$
#68
b1010110001001010100010010100101 x$
#70
b1010110001001010100110010100101 x$
#72
b1010110001001010100110110100101 x$
#74
b1010110011000011100110110100100 x$
#76
b1010110010000011000110110110100 x$
#80
b1010110010000001000110110110100 x$
#82
b1010110110000001000110110100100 x$
#83
b1010110110100000000110110100100 x$
#84
b1010110111100010000110100100100 x$
#85
b1010110111110010000100100100100 x$
#86
b1010111011110010100100100100100 x$
#87
b1010111011110010100100100100101 x$
#88
b1010111011010110101100110100101 x$
#89
b1000111011010110101100111100101 x$
#90
b1000110011010110101000011100101 x$
#92
b1100010000011111101100011100101 x$
#93
b1110010000011111001101011101101 x$
#94
b1010010000010101000101011101101 x$
#96
b1010010000110101000100011101101 x$
#97
b1010010000110101010100011101101 x$
#98
b11010010000110100010100011101101 x$
#99
b1010010000110101010100011101101 x$
#100
b11010010000110100010100011101001 x$
#101
b11010010000110100010100011101101 x$
#102
b11010000001110100010100011101001 x$
#103
b11010000000110100010100011101001 x$
#104
b11010000001110100010100011101001 x$
#105
b11010010000110100010100011101101 x$
#106
b11010000001110100010100011101001 x$
#107
b11010010000110100010100011101101 x$
#108
b11010000000110100010100011101001 x$
#109
b11010010000110100010100011101101 x$
#111
b1010010000110101010100011101101 x$
#113
b1010010000010101000100011101101 x$
#114
b1010010000110101000100011101101 x$
#115
b1010010000010101000101011101101 x$
#119
b1110010000010101000101011101101 x$
#121
b1110010000011101001101011101101 x$
#122
b1110010000011111001101011101101 x$
#123
b1100010000011111001101011101101 x$
#124
b1110010000011101001101011101101 x$
#125
b1110010000010101000101011101101 x$
#126
b1010010000110101000100011101101 x$
#127
b1010010000110101010100011101101 x$
#128
b11010000001100100010110011101001 x$
1F(
#129
b1010001001100110010110011101001 x$
#130
b10111001000010001010010101111 x$
#131
b1010110001001010100010110101101 x$
#132
b1010110001000010100110110100101 x$
#133
b1010010000010011100100110101101 x$
#134
b11010010100110101100100011100101 x$
#135
b11010111100110101101100011100001 x$
#136
b10000101010101101111010011100011 x$
#137
b10001010101001111010010111011 x$
#138
b10001010101001111010110111011 x$
#139
b10011100101001101010110111011 x$
#140
b10100111100111101001001111100001 x$
#141
b10100111110111100001001001100001 x$
#142
b10100111011011110001001001000001 x$
#143
b100111001001110001011011000101 x$
#144
b1010110001001010100010010100101 x$
#145
b1010110001001010100110110100101 x$
#146
b1010110010000011000110110110100 x$
#148
b1010110010000001000110110110100 x$
#155
b1010110010000011000110110110100 x$
#158
b1010110010000001000110110110100 x$
#160
b1010110110000001000110110110100 x$
#162
b1010110110100001000110110100100 x$
b1 6(
#163
b1010110110100000000110110100100 x$
#164
b1010110011110010000100100100100 x$
#165
b1010111011110010100100100100100 x$
#166
b1010111011010110101100110100101 x$
#167
b1000111011010110101100111100101 x$
#168
b1000010011010110101000011100101 x$
#169
b1100010000011111101000011100101 x$
#170
b1110010000011111001101011101101 x$
#171
b1110010000010101000101011101101 x$
#172
b1010010000010101000101011101101 x$
#174
b1010010000110101000100011101101 x$
#175
b1010010000110101010100011101101 x$
#176
b1010010000110100010100011101101 x$
#177
b11010010000110100010100011101101 x$
#178
b11010000000110100010100011101001 x$
#180
b11010000001110100010110011101001 x$
#181
b11010001001100100010110011101001 x$
#182
b1010001001100110010110011101001 x$
#183
b11010001001100110010110011101001 x$
#184
b1010001001100110010110011101001 x$
#186
b1010001001100010001110011101001 x$
#189
b10001001100010001010011101011 x$
#190
b10001001000010001010010101011 x$
#191
b10111001001010001010010101111 x$
#192
b1010111001001010001010110101111 x$
#193
b1010110001001010001010110101101 x$
#195
b1010110001001010100010110101101 x$
#196
b1010110001001010100110110100101 x$
#203
b1010110001000010100110110100101 x$
#210
b1010110001000011100110110100101 x$
#211
b1010110001000010100110110100101 x$
#215
b1010110001001010100110110100101 x$
#220
b1010110001001010100010110100101 x$
#221
b1010110001001010001010110101101 x$
#223
b1010111001001010001010110101111 x$
#224
b10011001000010001010010101111 x$
#225
b1010001001000010001010010101011 x$
#226
b1010001001000010001010011101011 x$
#227
b1010001001100110001110011101001 x$
#228
b1010001001100110010110011101001 x$
#230
b11010000001100100010110011101001 x$
#231
b11010010000110100010100011101101 x$
#233
b1010010000110101010100011101101 x$
#234
b1010010000110100010100011101101 x$
#236
b11010000001100100010110011101001 x$
#237
b1010001001100110010110011101001 x$
#238
b10001001000010001010010101011 x$
#239
b10011001001010001010010101111 x$
#240
b1010110001001010100010110101101 x$
#241
b1010110001000010100110110100101 x$
#242
b1010010000010011100100110101101 x$
#243
b1010010100110101100100111101101 x$
#244
b11010111100110101101100011100001 x$
#245
b10000101000110101111000011100001 x$
#246
b10001010101001111010011111011 x$
#247
b10001010101001111010110111011 x$
#248
b10001110101001111010110111011 x$
#249
b10111100111001101000110111001 x$
#250
b10100111100111101001001011100001 x$
#251
b10100111111111100001001001100001 x$
#252
b10100111011111110001001001000001 x$
#253
b100111001001110001011011000101 x$
#254
b1010110001001010100010010100101 x$
#255
b1010110001000011100110110100100 x$
#256
b1010110010000011000110110110100 x$
#257
b1010110110000001000110110110100 x$
#258
b1010110110100000000110110100100 x$
#259
b1010110111100000000110100100100 x$
#260
b1010110011110010000100100100100 x$
#262
b1010111011110010100100100100100 x$
#263
b1010110111110010000100100100100 x$
#264
b1010110011110010000100100100100 x$
#265
b1010110111110010000110100100100 x$
#266
b1010110011110010000100100100100 x$
#267
b1010110111100010000110100100100 x$
#269
b1010110110100000000110110100100 x$
#270
b1010110111100010000110100100100 x$
#271
b1010110111100000000110110100100 x$
#272
b1010110111110010000100100100100 x$
#273
b1010110011110010000100100100100 x$
#274
b1010111011110010100100100100100 x$
#275
b1010111011110010101100100100101 x$
#276
b1010111011010110101100111100101 x$
#277
b1000111011010110101000111100101 x$
#278
b1000010011010110101000011100101 x$
#279
b1100010001011111101000011100101 x$
#280
b1110010000011111001101011101101 x$
#281
b1110010000010101000101011101101 x$
#282
b1010010000010101000101011101101 x$
#283
b1010010000110101010100011101101 x$
#284
b1010010000110100010100011101101 x$
#285
b11010010000110100010100011101101 x$
#286
b11010000001100100010110011101001 x$
#287
b1010001001100110010110011101001 x$
#290
b1010001001100010001110011101001 x$
#292
b1010001001100010001010011101011 x$
#293
b1010001001000010001010011101011 x$
#294
b1010001001000010001010010101011 x$
#297
b10011001000010001010010101111 x$
#298
b1010111001001010001010110101111 x$
#299
b1010110001001010001010110101111 x$
#300
b1010110001001010001010110101101 x$
#301
b1010110001001010001010110101111 x$
#302
b1010110001001010001010110101101 x$
#304
b1010110001001010100010110101101 x$
#306
b1010110001001010100110110100101 x$
#310
b1010110001000010100110110100101 x$
#312
b1010110001000011100110110100101 x$
#313
b1010110000000011100110110100101 x$
#314
b1010010000010011100100110100101 x$
#315
b1010010000010011100100110101101 x$
#316
b1010010100010001100100110101101 x$
#318
b1010010100010101100100110101101 x$
#321
b1010010100010001100100110101101 x$
#323
b1010010000010011100100110101101 x$
#324
b1010010000010011100100110100101 x$
#328
b1010110000000011100110110100101 x$
#329
b1010110001000011100110110100101 x$
#330
b1010110001000010100110110100101 x$
#332
b1010110001001010100110110100101 x$
#337
b1010110001001010100010110101101 x$
#338
b1010110001001010101010110101101 x$
#339
b1010110001001010001010110101101 x$
#341
b1010110001001010001010110101111 x$
#344
b1010110001001010101010110101101 x$
#345
b1010110001001010100010110101101 x$
#346
b1010110001001010100110110100101 x$
#347
b1010110001000010100110110100101 x$
#348
b1010010000010011100100110101101 x$
#349
b1010010100110101100100111101101 x$
#350
b11010111100110101100100011100001 x$
#351
b10000111000110101101000011100001 x$
#352
b10000001010101101111010011100011 x$
#353
b10001010101001111010010111011 x$
#354
b10001010101001111010110111011 x$
#355
b10011100101001101010110111011 x$
#356
b10100111100111101001001110101001 x$
#357
b10100111110111100001001001100001 x$
#358
b10100111011111110001001001000001 x$
#359
b111001001110001010011000101 x$
#360
b1010110001001010100110010100101 x$
#361
b1010110010000011000110110110100 x$
#362
b1010110110000001000110110110100 x$
#363
b1010110111100000000110100100100 x$
#364
b1010111011110010100100100100100 x$
#365
b1010111011010110101100110100101 x$
#366
b1000111011010110101000011100101 x$
#367
b1000110011010110101000011100101 x$
#368
b1000010011010110101000011100101 x$
#369
b1000110011010110101000011100101 x$
#373
b1000111011010110101000111100101 x$
#375
b1000111011010110101100111100101 x$
#376
b1000110011010110101000111100101 x$
#377
b1000110011010110101000011100101 x$
#379
b1000010011010111101000011100101 x$
#380
b1100010001011111101000011100101 x$
#381
b1110010000011111001100011101101 x$
#382
b1110010000011101000101011101101 x$
#383
b1010010000010101000101011101101 x$
#384
b1010010000010101000100011101101 x$
#385
b1010010000110100010100011101101 x$
#386
b11010010000110100010100011101101 x$
#387
b1010000001100100010110011101001 x$
#388
b1010001001100110010110011101001 x$
#389
b1010001001100010001110011101001 x$
#390
b1010001001100010001010011101011 x$
#391
b10001001000010001010010101011 x$
#392
b10011001000010001010010101111 x$
#393
b10111001001010001010110101111 x$
#394
b1010110001001010001010110101111 x$
#396
b1010110001001010001010110101101 x$
#398
b1010110001001010100010110101101 x$
#402
b1010110001001010100010110100101 x$
#403
b1010110001001010100110110100101 x$
#406
b1010110001000010100110110100101 x$
#409
b1010110001000011100110110100101 x$
#410
b1010110000010011100100110100101 x$
#411
b1010010000010011100100110100101 x$
#412
b1010010000010001100100110101101 x$
#413
b1010010100010001100100110101101 x$
#415
b1010010100010101100100110101101 x$
#416
b1010010100010101100100111101101 x$
#418
b1010010100110101100100111101101 x$
#419
b1010010100110101100100011100101 x$
#420
b11010010100110101100100011100101 x$
#421
b11010110100110101100100011100101 x$
#422
b11010110100110101100100011100001 x$
#424
b11010111100110101100100011100001 x$
#426
b11010111100110101101100011100001 x$
#433
b10000111100110101101100011100001 x$
#434
b10000111000110101101100011100001 x$
#437
b11000111100110101101100011100001 x$
#438
b11010111100110101101100011100001 x$
#441
b11010111100110101100100011100001 x$
#443
b11010110100110101100100011100001 x$
#445
b11010110100110101100100011100101 x$
#446
b11010010100110101100100011100101 x$
#447
b1010010100110101100100011100101 x$
#448
b1010010100110101100100111101101 x$
#450
b1010010100010101100100111101101 x$
#451
b1010010100110101100100111101101 x$
#453
b11010010100110101100100011100101 x$
#454
b11010110100110101100100011100001 x$
#455
b11010111100110101101100011100001 x$
#456
b10000111000110101101000011100001 x$
#457
b10000101010111101111000011100001 x$
#458
b10010001010101001111010011111011 x$
#459
b10001010101001111010110111011 x$
#461
b10011100101001101010110111001 x$
#462
b10100111100111101001001111100001 x$
#463
b10100111110111100001001001100001 x$
#464
b10100111001011110001001001000001 x$
#465
b110001001010100010011100101 x$
#466
b1010110010000011000110110110100 x$
#467
b1010110110100000000110110100100 x$
#468
b1010111011010110101100110100101 x$
#469
b1100010001011111101000011100101 x$
#470
b1010010000010101000100011101101 x$
#471
b11010000001110100010100011101001 x$
#472
b1010001001100010001110011101001 x$
#473
b10011001000010001010010101111 x$
#474
b1010110001001010001010110101111 x$
#475
b1010110001001010001010110101101 x$
#476
b1010110001001010100010110101101 x$
#477
b1010110001001010100110110100101 x$
#488
b1010110001000010100110110100101 x$
#490
b1010110001000011100110110100101 x$
#491
b1010010000010011100100110100101 x$
#492
b1010010000010011100100110101101 x$
#493
b1010010100010101100100110101101 x$
#494
b1010010100110101100100111101101 x$
#495
b1010010100110101100100011100101 x$
#496
b11010110100110101100100011100101 x$
#497
b11010110100110101100100011100001 x$
#498
b11010111100110101100100011100001 x$
#499
b11010111100110101101100011100001 x$
#501
b11000111100110101101100011100001 x$
#502
b10000111000110101101000011100001 x$
#503
b10000111000110101111000011100001 x$
#505
b10000101000111101111000011100001 x$
#506
b10000101010111101111000011100001 x$
#507
b10000101010101101111010011100011 x$
#508
b10000001010101101111010011100011 x$
#511
b10010001010101001111010011111011 x$
#512
b10001010101001111010010111011 x$
#514
b10001010101001111010110111011 x$
#520
b10001110101001111010110111011 x$
#521
b10011110101001101010110111011 x$
#522
b10011100101001101010110111001 x$
#523
b10111100111001101000110111001 x$
#524
b110111100111001001001110111001 x$
#526
b110111100111001001001110101001 x$
#527
b100111100111101001001110101001 x$
#528
b10100111100111101001001111100001 x$
#531
b10100111100111101001001001100001 x$
#534
b10100111110111100001001001100001 x$
#538
b10100111111111100001001001100001 x$
#547
b10100111110111100001001001100001 x$
#552
b10100111100111100001001001100001 x$
#553
b10100111100111101001001001100001 x$
#555
b10100111100111101001001111100001 x$
#556
b10100111100111101001001001100001 x$
#557
b10100111100111101001001111100001 x$
#559
b100111100111101001001110100001 x$
#560
b10100111100111101001001111100001 x$
#562
b10100111100111101001001001100001 x$
#564
b10100111110111100001001001100001 x$
#565
b10100111011111110001001001100001 x$
#566
b10100111001011110001001001000001 x$
#567
b110001001110101010011000101 x$
#568
b1010110001001010100110110100101 x$
#569
b1010110010000011000110110110100 x$
#570
b1010110111100010000110100100100 x$
#571
b1010111011010110101100110100101 x$
#572
b1110010000011111001101011101101 x$
#573
b1010010000110101010100011101101 x$
#574
b1010001001100010001110011101001 x$
#575
b1010110001001010001010110101111 x$
#576
b1010110001000010100110110100101 x$
#577
b1010010000010011100100110101101 x$
#578
b11010110100110101100100011100101 x$
#579
b11010111100110101101100011100001 x$
#580
b10000101010111101111000011100001 x$
#581
b10000001010101101111010011100011 x$
#582
b10001010101001111010011111011 x$
#583
b10001010101001111010110111011 x$
#599
b10001110101001111010110111011 x$
#600
b10011100101001101010110111011 x$
#601
b10011100111001101010110111001 x$
#602
b110111100111001001001110111001 x$
#603
b100111100111101001001110101001 x$
#604
b10100111100111101001001111100001 x$
#605
b10100111100111101001001001100001 x$
#606
b10100111110111100001001001100001 x$
#607
b10100111111111100001001001100001 x$
#608
b10100111011111110001001001100001 x$
#610
b10100111011111110001001001000001 x$
#614
b10100111001011110001001001000001 x$
#615
b100111001011110001001011000001 x$
#616
b100111001001110001001011000001 x$
#617
b100111001001110001011011000001 x$
#618
b111001001110001010011000101 x$
#619
b110001001110101010011000101 x$
#620
b110001001010100010011100101 x$
#622
b1010110001001010100010010100101 x$
#624
b1010110001001010100110110100101 x$
#626
b1010110011000011100110110100100 x$
#627
b1010110011000011000110110100100 x$
#628
b1010110010000011000110110110100 x$
#629
b1010110010000001000110110110100 x$
#630
b1010110110000001000110110110100 x$
#631
b1010110110000001000110110100100 x$
#632
b1010110110100000000110110100100 x$
#634
b1010110011110010000100100100100 x$
