.Xil/Vivado-59989-luiscarlos-GL552VX/hw_ila_data_1/zip_work/waveform.vcd
$date
        2023-May-16 22:50:06
$end
$version
        Vivado v2021.2 (64-bit)
$end
$timescale
        1ps
$end
$scope module dut $end
$var reg 1 " design_1_i/system_ila_0/inst/probe0_1 $end
$var reg 1 # design_1_i/system_ila_0/inst/probe1_1 $end
$var reg 1 $ design_1_i/system_ila_0/inst/probe2_1 $end
$var reg 1 % design_1_i/system_ila_0/inst/probe3_1 $end
$var reg 1 & design_1_i/system_ila_0/inst/probe4_1 $end
$var reg 1 ' design_1_i/system_ila_0/inst/probe5_1 $end
$var reg 1 ( design_1_i/system_ila_0/inst/SLOT_0_ICAP_csib_1 $end
$var reg 32 ) design_1_i/system_ila_0/inst/SLOT_0_ICAP_i_1 [31:0] $end
$var reg 32 I design_1_i/system_ila_0/inst/SLOT_0_ICAP_o_1 [31:0] $end
$var reg 1 i design_1_i/system_ila_0/inst/SLOT_0_ICAP_rdwrb_1 $end
$var reg 1 j design_1_i/system_ila_0/inst/SLOT_0_ICAP_avail_1 $end
$var reg 1 k design_1_i/system_ila_0/inst/SLOT_0_ICAP_prdone_1 $end
$var reg 1 l design_1_i/system_ila_0/inst/SLOT_0_ICAP_prerror_1 $end
$var reg 2 m design_1_i/system_ila_0/inst/net_slot_1_axi_ar_cnt [1:0] $end
$var reg 32 o design_1_i/system_ila_0/inst/net_slot_1_axi_araddr [31:0] $end
$var reg 2 1" design_1_i/system_ila_0/inst/net_slot_1_axi_arburst [1:0] $end
$var reg 4 3" design_1_i/system_ila_0/inst/net_slot_1_axi_arcache [3:0] $end
$var reg 8 7" design_1_i/system_ila_0/inst/net_slot_1_axi_arlen [7:0] $end
$var reg 3 ?" design_1_i/system_ila_0/inst/net_slot_1_axi_arprot [2:0] $end
$var reg 3 B" design_1_i/system_ila_0/inst/net_slot_1_axi_arsize [2:0] $end
$var reg 4 E" design_1_i/system_ila_0/inst/net_slot_1_axi_aruser [3:0] $end
$var reg 2 I" design_1_i/system_ila_0/inst/net_slot_1_axi_aw_cnt [1:0] $end
$var reg 32 K" design_1_i/system_ila_0/inst/net_slot_1_axi_awaddr [31:0] $end
$var reg 2 k" design_1_i/system_ila_0/inst/net_slot_1_axi_awburst [1:0] $end
$var reg 4 m" design_1_i/system_ila_0/inst/net_slot_1_axi_awcache [3:0] $end
$var reg 8 q" design_1_i/system_ila_0/inst/net_slot_1_axi_awlen [7:0] $end
$var reg 3 y" design_1_i/system_ila_0/inst/net_slot_1_axi_awprot [2:0] $end
$var reg 3 |" design_1_i/system_ila_0/inst/net_slot_1_axi_awsize [2:0] $end
$var reg 2 !# design_1_i/system_ila_0/inst/net_slot_1_axi_b_cnt [1:0] $end
$var reg 2 ## design_1_i/system_ila_0/inst/net_slot_1_axi_r_cnt [1:0] $end
$var reg 32 %# design_1_i/system_ila_0/inst/net_slot_1_axi_rdata [31:0] $end
$var reg 2 E# design_1_i/system_ila_0/inst/net_slot_1_axi_rresp [1:0] $end
$var reg 32 G# design_1_i/system_ila_0/inst/net_slot_1_axi_wdata [31:0] $end
$var reg 1 g# design_1_i/system_ila_0/inst/net_slot_1_axi_awvalid $end
$var reg 2 h# design_1_i/system_ila_0/inst/net_slot_1_axi_aw_ctrl [1:0] $end
$var reg 1 j# design_1_i/system_ila_0/inst/net_slot_1_axi_awready $end
$var reg 3 k# design_1_i/system_ila_0/inst/net_slot_1_axi_w_ctrl [2:0] $end
$var reg 1 n# design_1_i/system_ila_0/inst/net_slot_1_axi_wvalid $end
$var reg 1 o# design_1_i/system_ila_0/inst/net_slot_1_axi_wready $end
$var reg 1 p# design_1_i/system_ila_0/inst/net_slot_1_axi_wlast $end
$var reg 1 q# design_1_i/system_ila_0/inst/net_slot_1_axi_bvalid $end
$var reg 2 r# design_1_i/system_ila_0/inst/net_slot_1_axi_b_ctrl [1:0] $end
$var reg 1 t# design_1_i/system_ila_0/inst/net_slot_1_axi_bready $end
$var reg 2 u# design_1_i/system_ila_0/inst/net_slot_1_axi_ar_ctrl [1:0] $end
$var reg 1 w# design_1_i/system_ila_0/inst/net_slot_1_axi_arvalid $end
$var reg 1 x# design_1_i/system_ila_0/inst/net_slot_1_axi_arready $end
$var reg 1 y# design_1_i/system_ila_0/inst/net_slot_1_axi_rvalid $end
$var reg 3 z# design_1_i/system_ila_0/inst/net_slot_1_axi_r_ctrl [2:0] $end
$var reg 1 }# design_1_i/system_ila_0/inst/net_slot_1_axi_rready $end
$var reg 1 ~# design_1_i/system_ila_0/inst/net_slot_1_axi_rlast $end
$var reg 2 !$ design_1_i/system_ila_0/inst/net_slot_2_axi_ar_cnt [1:0] $end
$var reg 32 #$ design_1_i/system_ila_0/inst/net_slot_2_axi_araddr [31:0] $end
$var reg 2 C$ design_1_i/system_ila_0/inst/net_slot_2_axi_arburst [1:0] $end
$var reg 4 E$ design_1_i/system_ila_0/inst/net_slot_2_axi_arcache [3:0] $end
$var reg 8 I$ design_1_i/system_ila_0/inst/net_slot_2_axi_arlen [7:0] $end
$var reg 1 Q$ design_1_i/system_ila_0/inst/net_slot_2_axi_arlock $end
$var reg 3 R$ design_1_i/system_ila_0/inst/net_slot_2_axi_arprot [2:0] $end
$var reg 4 U$ design_1_i/system_ila_0/inst/net_slot_2_axi_arqos [3:0] $end
$var reg 3 Y$ design_1_i/system_ila_0/inst/net_slot_2_axi_arsize [2:0] $end
$var reg 2 \$ design_1_i/system_ila_0/inst/net_slot_2_axi_aw_cnt [1:0] $end
$var reg 32 ^$ design_1_i/system_ila_0/inst/net_slot_2_axi_awaddr [31:0] $end
$var reg 2 ~$ design_1_i/system_ila_0/inst/net_slot_2_axi_awburst [1:0] $end
$var reg 4 "% design_1_i/system_ila_0/inst/net_slot_2_axi_awcache [3:0] $end
$var reg 8 &% design_1_i/system_ila_0/inst/net_slot_2_axi_awlen [7:0] $end
$var reg 1 .% design_1_i/system_ila_0/inst/net_slot_2_axi_awlock $end
$var reg 3 /% design_1_i/system_ila_0/inst/net_slot_2_axi_awprot [2:0] $end
$var reg 4 2% design_1_i/system_ila_0/inst/net_slot_2_axi_awqos [3:0] $end
$var reg 3 6% design_1_i/system_ila_0/inst/net_slot_2_axi_awsize [2:0] $end
$var reg 2 9% design_1_i/system_ila_0/inst/net_slot_2_axi_b_cnt [1:0] $end
$var reg 2 ;% design_1_i/system_ila_0/inst/net_slot_2_axi_bresp [1:0] $end
$var reg 2 =% design_1_i/system_ila_0/inst/net_slot_2_axi_r_cnt [1:0] $end
$var reg 32 ?% design_1_i/system_ila_0/inst/net_slot_2_axi_rdata [31:0] $end
$var reg 2 _% design_1_i/system_ila_0/inst/net_slot_2_axi_rresp [1:0] $end
$var reg 32 a% design_1_i/system_ila_0/inst/net_slot_2_axi_wdata [31:0] $end
$var reg 4 #& design_1_i/system_ila_0/inst/net_slot_2_axi_wstrb [3:0] $end
$var reg 2 '& design_1_i/system_ila_0/inst/net_slot_2_axi_aw_ctrl [1:0] $end
$var reg 1 )& design_1_i/system_ila_0/inst/net_slot_2_axi_awvalid $end
$var reg 1 *& design_1_i/system_ila_0/inst/net_slot_2_axi_awready $end
$var reg 1 +& design_1_i/system_ila_0/inst/net_slot_2_axi_wvalid $end
$var reg 3 ,& design_1_i/system_ila_0/inst/net_slot_2_axi_w_ctrl [2:0] $end
$var reg 1 /& design_1_i/system_ila_0/inst/net_slot_2_axi_wready $end
$var reg 1 0& design_1_i/system_ila_0/inst/net_slot_2_axi_wlast $end
$var reg 2 1& design_1_i/system_ila_0/inst/net_slot_2_axi_b_ctrl [1:0] $end
$var reg 1 3& design_1_i/system_ila_0/inst/net_slot_2_axi_bvalid $end
$var reg 1 4& design_1_i/system_ila_0/inst/net_slot_2_axi_bready $end
$var reg 1 5& design_1_i/system_ila_0/inst/net_slot_2_axi_arvalid $end
$var reg 2 6& design_1_i/system_ila_0/inst/net_slot_2_axi_ar_ctrl [1:0] $end
$var reg 1 8& design_1_i/system_ila_0/inst/net_slot_2_axi_arready $end
$var reg 1 9& design_1_i/system_ila_0/inst/net_slot_2_axi_rvalid $end
$var reg 3 :& design_1_i/system_ila_0/inst/net_slot_2_axi_r_ctrl [2:0] $end
$var reg 1 =& design_1_i/system_ila_0/inst/net_slot_2_axi_rready $end
$var reg 1 >& design_1_i/system_ila_0/inst/net_slot_2_axi_rlast $end
$var reg 32 ?& design_1_i/system_ila_0/inst/net_slot_3_axis_tdata [31:0] $end
$var reg 3 _& design_1_i/system_ila_0/inst/net_slot_3_axis_tid [2:0] $end
$var reg 4 b& design_1_i/system_ila_0/inst/net_slot_3_axis_tkeep [3:0] $end
$var reg 1 f& design_1_i/system_ila_0/inst/net_slot_3_axis_tvalid $end
$var reg 1 g& design_1_i/system_ila_0/inst/net_slot_3_axis_tready $end
$var reg 1 h& design_1_i/system_ila_0/inst/net_slot_3_axis_tlast $end
$var reg 3 i& AR_Channel__i1_s1___dfx_controller_0_M_AXI_MEM_ [2:0] $end
$var reg 3 l& AR_Channel__i1_s2___axi_mm2s_mapper_0_M_AXI_ [2:0] $end
$var reg 3 o& AW_Channel__i1_s1___dfx_controller_0_M_AXI_MEM_ [2:0] $end
$var reg 3 r& AW_Channel__i1_s2___axi_mm2s_mapper_0_M_AXI_ [2:0] $end
$var reg 3 u& B_Channel__i1_s1___dfx_controller_0_M_AXI_MEM_ [2:0] $end
$var reg 3 x& B_Channel__i1_s2___axi_mm2s_mapper_0_M_AXI_ [2:0] $end
$var reg 3 {& Interface__i1_s1___dfx_controller_0_M_AXI_MEM_ [2:0] $end
$var reg 3 ~& Interface__i1_s2___axi_mm2s_mapper_0_M_AXI_ [2:0] $end
$var reg 3 #' Interface__i1_s3___axi_mm2s_mapper_0_M_AXIS_ [2:0] $end
$var reg 3 &' R_Channel__i1_s1___dfx_controller_0_M_AXI_MEM_ [2:0] $end
$var reg 3 )' R_Channel__i1_s2___axi_mm2s_mapper_0_M_AXI_ [2:0] $end
$var reg 3 ,' T_Channel__i1_s3___axi_mm2s_mapper_0_M_AXIS_ [2:0] $end
$var reg 3 /' W_Channel__i1_s1___dfx_controller_0_M_AXI_MEM_ [2:0] $end
$var reg 3 2' W_Channel__i1_s2___axi_mm2s_mapper_0_M_AXI_ [2:0] $end
$var reg 16 5' ila_1___slot_1___dfx_controller_0_M_AXI_MEM___Read_Transactions_0 [15:0] $end
$var reg 16 E' ila_1___slot_2___axi_mm2s_mapper_0_M_AXI___Read_Transactions_0 [15:0] $end
$var reg 1 U' _TRIGGER $end
$var reg 1 V' _WINDOW $end
$var reg 1 W' _GAP $end
$upscope $end
$enddefinitions $end
#0
$dumpvars
0"
0#
1$
0%
0&
0'
1(
b0 )
b11111111111111111111111110011011 I
0i
1j
1k
0l
b0 m
b0 o
b0 1"
b11 3"
b0 7"
b0 ?"
b0 B"
b0 E"
b0 I"
b0 K"
b1 k"
b11 m"
b0 q"
b0 y"
b10 |"
b0 !#
b0 ##
b0 %#
b0 E#
b0 G#
0g#
b10 h#
1j#
b0 k#
0n#
0o#
0p#
0q#
b0 r#
0t#
b10 u#
0w#
1x#
0y#
b0 z#
0}#
0~#
b0 !$
b0 #$
b0 C$
b0 E$
b0 I$
0Q$
b0 R$
b0 U$
b0 Y$
b0 \$
b0 ^$
b0 ~$
b0 "%
b0 &%
0.%
b0 /%
b0 2%
b0 6%
b0 9%
b0 ;%
b0 =%
b0 ?%
b0 _%
b0 a%
b0 #&
b10 '&
0)&
1*&
0+&
b0 ,&
0/&
00&
b10 1&
03&
14&
05&
b10 6&
18&
09&
b10 :&
1=&
0>&
b0 ?&
b0 _&
b1 b&
0f&
0g&
1h&
b0 i&
b0 l&
b11 o&
b11 r&
b11 u&
b11 x&
b0 {&
b0 ~&
b0 #'
b0 &'
b0 )'
b0 ,'
b100 /'
b100 2'
b0 5'
b0 E'
0U'
1V'
0W'
$end
#2048
1#
1U'
#2069
b1011100110011000100000 o
b1 1"
b1110111 7"
b10 B"
b11 u#
1w#
b10 i&
b1 {&
#2070
b1 m
b0 o
b0 1"
b0 7"
b0 B"
b1 ##
b0 u#
0w#
0x#
b10 z#
1}#
b0 i&
b0 {&
#2071
b1011100110011000100000 ?&
b10 _&
b1111 b&
1f&
1g&
0h&
b1 #'
b1 ,'
#2072
b10 u#
1x#
b1110111001101010000 ?&
1h&
b10 ,'
#2073
b100 ,&
10&
b0 ?&
0f&
0g&
0h&
b0 #'
b0 ,'
#2074
b1011100110100000000000 o
b1 1"
b11111111 7"
b10 B"
b11 u#
1w#
b1011100110011000100000 #$
b1 C$
b11 E$
b1110111 I$
b10 Y$
b0 ,&
00&
15&
b11 6&
b10 i&
b10 l&
b1 {&
b1 ~&
#2075
b10 m
b0 o
b0 1"
b0 7"
b0 B"
b10 ##
b0 u#
0w#
0x#
b1 !$
b0 #$
b0 C$
b0 E$
b0 I$
b0 Y$
b1 =%
05&
b10 6&
b1011100110100000000000 ?&
b0 i&
b0 l&
b0 {&
b0 ~&
#2076
1f&
1g&
b1 #'
b1 ,'
#2077
b10 u#
1x#
b11111111001101010000 ?&
1h&
b10 ,'
#2078
b100 ,&
10&
b0 ?&
0f&
0g&
0h&
b0 #'
b0 ,'
#2079
b1011100110110000000000 o
b1 1"
b11111111 7"
b10 B"
b11 u#
1w#
b1011100110100000000000 #$
b1 C$
b11 E$
b11111111 I$
b10 Y$
b0 ,&
00&
15&
b11 6&
b10 i&
b10 l&
b1 {&
b1 ~&
b1 5'
#2080
b11 m
b0 o
b0 1"
b0 7"
b0 B"
b11 ##
b0 u#
0w#
0x#
b10 !$
b0 #$
b0 C$
b0 E$
b0 I$
b0 Y$
b10 =%
05&
b10 6&
b1011100110110000000000 ?&
b0 i&
b0 l&
b0 {&
b0 ~&
#2081
1f&
1g&
b1 #'
b1 ,'
#2082
b10 u#
1x#
b11111111001101010000 ?&
1h&
b10 ,'
#2083
b100 ,&
10&
b0 ?&
0f&
0g&
0h&
b0 #'
b0 ,'
#2084
b1011100111000000000000 o
b1 1"
b11111111 7"
b10 B"
b11 u#
1w#
b1011100110110000000000 #$
b1 C$
b11 E$
b11111111 I$
b10 Y$
b0 ,&
00&
15&
b11 6&
b10 i&
b10 l&
b1 {&
b1 ~&
b1 E'
#2085
b0 m
b0 o
b0 1"
b0 7"
b0 B"
b0 ##
b0 u#
0w#
0x#
b11 !$
b0 #$
b0 C$
b0 E$
b0 I$
b0 Y$
b11 =%
05&
b10 6&
b1011100111000000000000 ?&
b0 i&
b0 l&
b0 {&
b0 ~&
#2086
1f&
1g&
b1 #'
b1 ,'
#2087
b10 u#
1x#
b11111111001101010000 ?&
1h&
b10 ,'
#2088
b100 ,&
10&
b0 ?&
0f&
0g&
0h&
b0 #'
b0 ,'
#2089
b1011100111010000000000 o
b1 1"
b11111111 7"
b10 B"
b11 u#
1w#
b1011100111000000000000 #$
b1 C$
b11 E$
b11111111 I$
b10 Y$
b0 ,&
00&
15&
b11 6&
b10 i&
b10 l&
b1 {&
b1 ~&
#2090
b1 m
b0 o
b0 1"
b0 7"
b0 B"
b1 ##
b0 u#
0w#
0x#
b0 !$
b0 #$
b0 C$
b0 E$
b0 I$
b0 Y$
b0 =%
05&
b10 6&
b1011100111010000000000 ?&
b0 i&
b0 l&
b0 {&
b0 ~&
#2091
1f&
1g&
b1 #'
b1 ,'
#2092
b10 u#
1x#
b11111111001101010000 ?&
1h&
b10 ,'
#2093
b100 ,&
10&
b0 ?&
0f&
0g&
0h&
b0 #'
b0 ,'
#2094
b1011100111010000000000 #$
b1 C$
b11 E$
b11111111 I$
b10 Y$
b0 ,&
00&
15&
b11 6&
b10 l&
b1 ~&
#2095
b1 !$
b0 #$
b0 C$
b0 E$
b0 I$
b0 Y$
b1 =%
05&
b10 6&
b0 l&
b0 ~&
#2120
b11111111111111111111111111111111 ?%
19&
b11 :&
b1 ~&
b1 )'
#2121
b1 :&
0=&
b0 ~&
b0 )'
#2122
b11111111111111111111111111111111 ?&
b11 _&
1f&
1g&
b1 #'
b1 ,'
#2123
b11 E#
b110 z#
1~#
b1111 #&
b100 ,&
10&
b11 :&
1=&
b0 ?&
b1 b&
1h&
b1 ~&
b1 )'
b10 ,'
#2124
b11111111111111111111111111111111 %#
b0 E#
1y#
b11 z#
0~#
b0 #&
b0 ,&
00&
b1 :&
0=&
b11111111111111111111111111111111 ?&
b1111 b&
0f&
0g&
0h&
b1 {&
b0 ~&
b0 #'
b1 &'
b0 )'
b0 ,'
#2125
0y#
b10 z#
b1111 #&
b100 ,&
10&
1f&
1g&
b0 {&
b1 #'
b0 &'
b1 ,'
#2126
b11 E#
b110 z#
1~#
b11 :&
1=&
b0 ?&
b1 b&
1h&
b1 ~&
b1 )'
b10 ,'
#2127
b0 E#
1y#
b11 z#
0~#
b0 #&
b0 ,&
00&
b1 :&
0=&
b11111111111111111111111111111111 ?&
b1111 b&
0f&
0g&
0h&
b1 {&
b0 ~&
b0 #'
b1 &'
b0 )'
b0 ,'
#2128
0y#
b10 z#
b1111 #&
b100 ,&
10&
1f&
1g&
b0 {&
b1 #'
b0 &'
b1 ,'
#2129
b11 E#
b110 z#
1~#
b11 :&
1=&
b0 ?&
b1 b&
1h&
b1 ~&
b1 )'
b10 ,'
#2130
b0 E#
1y#
b11 z#
0~#
b0 #&
b0 ,&
00&
b1 :&
0=&
b11111111111111111111111111111111 ?&
b1111 b&
0f&
0g&
0h&
b1 {&
b0 ~&
b0 #'
b1 &'
b0 )'
b0 ,'
#2131
0y#
b10 z#
b1111 #&
b100 ,&
10&
1f&
1g&
b0 {&
b1 #'
b0 &'
b1 ,'
#2132
b11 E#
b110 z#
1~#
b11 :&
1=&
b0 ?&
b1 b&
1h&
b1 ~&
b1 )'
b10 ,'
#2133
b0 E#
1y#
b11 z#
0~#
b0 #&
b0 ,&
00&
b1 :&
0=&
b11111111111111111111111111111111 ?&
b1111 b&
0f&
0g&
0h&
b1 {&
b0 ~&
b0 #'
b1 &'
b0 )'
b0 ,'
#2134
0y#
b10 z#
b1111 #&
b100 ,&
10&
1f&
1g&
b0 {&
b1 #'
b0 &'
b1 ,'
#2135
b11 E#
b110 z#
1~#
b11 :&
1=&
b0 ?&
b1 b&
1h&
b1 ~&
b1 )'
b10 ,'
#2136
b0 E#
1y#
b11 z#
0~#
b0 #&
b0 ,&
00&
b1 :&
0=&
b11111111111111111111111111111111 ?&
b1111 b&
0f&
0g&
0h&
b1 {&
b0 ~&
b0 #'
b1 &'
b0 )'
b0 ,'
#2137
0(
b11111111111111111111111111111111 )
0y#
b10 z#
b1111 #&
b100 ,&
10&
1f&
1g&
b0 {&
b1 #'
b0 &'
b1 ,'
#2138
1(
b11 E#
b110 z#
1~#
b11 :&
1=&
b0 ?&
b1 b&
1h&
b1 ~&
b1 )'
b10 ,'
#2139
0(
b0 E#
1y#
b11 z#
0~#
b0 #&
b0 ,&
00&
b1 :&
0=&
b11111111111111111111111111111111 ?&
b1111 b&
0f&
0g&
0h&
b1 {&
b0 ~&
b0 #'
b1 &'
b0 )'
b0 ,'
#2140
1(
0y#
b10 z#
b1111 #&
b100 ,&
10&
1f&
1g&
b0 {&
b1 #'
b0 &'
b1 ,'
#2141
b11 E#
b110 z#
1~#
b11 :&
1=&
b0 ?&
b1 b&
1h&
b1 ~&
b1 )'
b10 ,'
#2142
0(
b0 E#
1y#
b11 z#
0~#
b0 #&
b0 ,&
00&
b1 :&
0=&
b11111111111111111111111111111111 ?&
b1111 b&
0f&
0g&
0h&
b1 {&
b0 ~&
b0 #'
b1 &'
b0 )'
b0 ,'
#2143
1(
0y#
b10 z#
b1111 #&
b100 ,&
10&
1f&
1g&
b0 {&
b1 #'
b0 &'
b1 ,'
#2144
b11 E#
b110 z#
1~#
b11 :&
1=&
b0 ?&
b1 b&
1h&
b1 ~&
b1 )'
b10 ,'
#2145
0(
b0 E#
1y#
b11 z#
0~#
b0 #&
b0 ,&
00&
b1 :&
0=&
b11111111111111111111111111111111 ?&
b1111 b&
0f&
0g&
0h&
b1 {&
b0 ~&
b0 #'
b1 &'
b0 )'
b0 ,'
#2146
1(
0y#
b10 z#
b1111 #&
b100 ,&
10&
1f&
1g&
b0 {&
b1 #'
b0 &'
b1 ,'
#2147
b11 E#
b110 z#
1~#
b11 :&
1=&
b0 ?&
b1 b&
1h&
b1 ~&
b1 )'
b10 ,'
#2148
0(
b0 E#
1y#
b11 z#
0~#
b0 #&
b0 ,&
00&
b1 :&
0=&
b11111111111111111111111111111111 ?&
b1111 b&
0f&
0g&
0h&
b1 {&
b0 ~&
b0 #'
b1 &'
b0 )'
b0 ,'
#2149
1(
0y#
b10 z#
b1111 #&
b100 ,&
10&
1f&
1g&
b0 {&
b1 #'
b0 &'
b1 ,'
#2150
b11 E#
b110 z#
1~#
b11 :&
1=&
b0 ?&
b1 b&
1h&
b1 ~&
b1 )'
b10 ,'
#2151
0(
b0 E#
1y#
b11 z#
0~#
b0 #&
b0 ,&
00&
b1 :&
0=&
b11111111111111111111111111111111 ?&
b1111 b&
0f&
0g&
0h&
b1 {&
b0 ~&
b0 #'
b1 &'
b0 )'
b0 ,'
#2152
1(
0y#
b10 z#
b1111 #&
b100 ,&
10&
1f&
1g&
b0 {&
b1 #'
b0 &'
b1 ,'
#2153
b11 E#
b110 z#
1~#
b11 :&
1=&
b0 ?&
b1 b&
1h&
b1 ~&
b1 )'
b10 ,'
#2154
0(
b0 E#
1y#
b11 z#
0~#
b0 #&
b0 ,&
00&
b1 :&
0=&
b11111111111111111111111111111111 ?&
b1111 b&
0f&
0g&
0h&
b1 {&
b0 ~&
b0 #'
b1 &'
b0 )'
b0 ,'
#2155
1(
0y#
b10 z#
b1111 #&
b100 ,&
10&
1f&
1g&
b0 {&
b1 #'
b0 &'
b1 ,'
#2156
b11 E#
b110 z#
1~#
b11 :&
1=&
b0 ?&
b1 b&
1h&
b1 ~&
b1 )'
b10 ,'
#2157
0(
b0 E#
1y#
b11 z#
0~#
b0 #&
b0 ,&
00&
b1 :&
0=&
b11111111111111111111111111111111 ?&
b1111 b&
0f&
0g&
0h&
b1 {&
b0 ~&
b0 #'
b1 &'
b0 )'
b0 ,'
#2158
1(
0y#
b10 z#
b1111 #&
b100 ,&
10&
1f&
1g&
b0 {&
b1 #'
b0 &'
b1 ,'
#2159
b11 E#
b110 z#
1~#
b11 :&
1=&
b0 ?&
b1 b&
1h&
b1 ~&
b1 )'
b10 ,'
#2160
0(
b0 E#
1y#
b11 z#
0~#
b0 #&
b0 ,&
00&
b1 :&
0=&
b11111111111111111111111111111111 ?&
b1111 b&
0f&
0g&
0h&
b1 {&
b0 ~&
b0 #'
b1 &'
b0 )'
b0 ,'
#2161
1(
0y#
b10 z#
b1111 #&
b100 ,&
10&
1f&
1g&
b0 {&
b1 #'
b0 &'
b1 ,'
#2162
b11 E#
b110 z#
1~#
b11 :&
1=&
b0 ?&
b1 b&
1h&
b1 ~&
b1 )'
b10 ,'
#2163
0(
b0 E#
1y#
b11 z#
0~#
b0 #&
b0 ,&
00&
b1 :&
0=&
b11111111111111111111111111111111 ?&
b1111 b&
0f&
0g&
0h&
b1 {&
b0 ~&
b0 #'
b1 &'
b0 )'
b0 ,'
#2164
1(
0y#
b10 z#
b1111 #&
b100 ,&
10&
1f&
1g&
b0 {&
b1 #'
b0 &'
b1 ,'
#2165
b11 E#
b110 z#
1~#
b11 :&
1=&
b0 ?&
b1 b&
1h&
b1 ~&
b1 )'
b10 ,'
#2166
0(
b0 E#
1y#
b11 z#
0~#
b10111011 ?%
b0 #&
b0 ,&
00&
b1 :&
0=&
b11111111111111111111111111111111 ?&
b1111 b&
0f&
0g&
0h&
b1 {&
b0 ~&
b0 #'
b1 &'
b0 )'
b0 ,'
#2167
1(
0y#
b10 z#
b1111 #&
b100 ,&
10&
1f&
1g&
b0 {&
b1 #'
b0 &'
b1 ,'
#2168
b11 E#
b110 z#
1~#
b11 :&
1=&
b0 ?&
b1 b&
1h&
b1 ~&
b1 )'
b10 ,'
#2169
0(
b0 E#
1y#
b11 z#
0~#
b10001001000100000000001000100 ?%
b0 #&
b0 ,&
00&
b1 :&
0=&
b10111011 ?&
b1111 b&
0f&
0g&
0h&
b1 {&
b0 ~&
b0 #'
b1 &'
b0 )'
b0 ,'
#2170
1(
0y#
b10 z#
b1011 #&
b100 ,&
10&
1f&
1g&
b0 {&
b1 #'
b0 &'
b1 ,'
#2171
b11 E#
b11 :&
1=&
b0 ?&
b1 b&
1h&
b1 ~&
b1 )'
b10 ,'
#2172
0(
b10111011 %#
b0 E#
1y#
b11 z#
b11111111111111111111111111111111 ?%
b0 #&
b0 ,&
00&
b1 :&
0=&
b10001001000100000000001000100 ?&
b1111 b&
0f&
0g&
0h&
b1 {&
b0 ~&
b0 #'
b1 &'
b0 )'
b0 ,'
#2173
1(
0y#
b10 z#
b100 #&
1f&
1g&
b0 {&
b1 #'
b0 &'
b1 ,'
#2174
b110 z#
1~#
b11 :&
1=&
b0 ?&
b1 b&
1h&
b1 ~&
b1 )'
b10 ,'
#2175
0(
b10001001000100000000001000100 %#
1y#
b11 z#
0~#
b0 #&
b1 :&
0=&
b11111111111111111111111111111111 ?&
b1111 b&
0f&
0g&
0h&
b1 {&
b0 ~&
b0 #'
b1 &'
b0 )'
b0 ,'
#2176
1(
0y#
b10 z#
b1111 #&
b100 ,&
10&
1f&
1g&
b0 {&
b1 #'
b0 &'
b1 ,'
#2177
b11 E#
b110 z#
1~#
b11 :&
1=&
b0 ?&
b1 b&
1h&
b1 ~&
b1 )'
b10 ,'
#2178
0(
b11111111111111111111111111111111 %#
b0 E#
1y#
b11 z#
0~#
b10101010100110010101010101100110 ?%
b0 #&
b0 ,&
00&
b1 :&
0=&
b11111111111111111111111111111111 ?&
b1111 b&
0f&
0g&
0h&
b1 {&
b0 ~&
b0 #'
b1 &'
b0 )'
b0 ,'
#2179
1(
0y#
b10 z#
b1111 #&
b100 ,&
10&
1f&
1g&
b0 {&
b1 #'
b0 &'
b1 ,'
#2180
b11 E#
b110 z#
1~#
b11 :&
1=&
b0 ?&
b1 b&
1h&
b1 ~&
b1 )'
b10 ,'
#2181
0(
b0 E#
1y#
b11 z#
0~#
b100000000000000000000000000000 ?%
b0 #&
b0 ,&
00&
b1 :&
0=&
b10101010100110010101010101100110 ?&
b1111 b&
0f&
0g&
0h&
b1 {&
b0 ~&
b0 #'
b1 &'
b0 )'
b0 ,'
#2182
1(
b11011101 )
0y#
b10 z#
b110 #&
1f&
1g&
b0 {&
b1 #'
b0 &'
b1 ,'
#2183
b10 E#
b110 z#
1~#
b11 :&
1=&
b0 ?&
b1 b&
1h&
b1 ~&
b1 )'
b10 ,'
#2184
0(
b10101010100110010101010101100110 %#
b0 E#
1y#
b11 z#
0~#
b0 #&
b1 :&
0=&
b100000000000000000000000000000 ?&
b1111 b&
0f&
0g&
0h&
b1 {&
b0 ~&
b0 #'
b1 &'
b0 )'
b0 ,'
#2185
1(
b10001000010001000000000000100010 )
0y#
b10 z#
1f&
1g&
b0 {&
b1 #'
b0 &'
b1 ,'
#2186
b11 :&
1=&
b0 ?&
b1 b&
1h&
b1 ~&
b1 )'
b10 ,'
#2187
0(
b100000000000000000000000000000 %#
1y#
b11 z#
b1 :&
0=&
b100000000000000000000000000000 ?&
b1111 b&
0f&
0g&
0h&
b1 {&
b0 ~&
b0 #'
b1 &'
b0 )'
b0 ,'
#2188
1(
b11111111111111111111111111111111 )
0y#
b10 z#
1f&
1g&
b0 {&
b1 #'
b0 &'
b1 ,'
#2189
b11 :&
1=&
b0 ?&
b1 b&
1h&
b1 ~&
b1 )'
b10 ,'
#2190
0(
1y#
b11 z#
b1 :&
0=&
b100000000000000000000000000000 ?&
b1111 b&
0f&
0g&
0h&
b1 {&
b0 ~&
b0 #'
b1 &'
b0 )'
b0 ,'
#2191
1(
0y#
b10 z#
1f&
1g&
b0 {&
b1 #'
b0 &'
b1 ,'
#2192
b11 :&
1=&
b0 ?&
b1 b&
1h&
b1 ~&
b1 )'
b10 ,'
#2193
0(
1y#
b11 z#
b1 :&
0=&
b100000000000000000000000000000 ?&
b1111 b&
0f&
0g&
0h&
b1 {&
b0 ~&
b0 #'
b1 &'
b0 )'
b0 ,'
#2194
1(
b1010101100110011010101001100110 )
0y#
b10 z#
1f&
1g&
b0 {&
b1 #'
b0 &'
b1 ,'
#2195
b11 :&
1=&
b0 ?&
b1 b&
1h&
b1 ~&
b1 )'
b10 ,'
#2196
0(
1y#
b11 z#
b1 :&
0=&
b100000000000000000000000000000 ?&
b1111 b&
0f&
0g&
0h&
b1 {&
b0 ~&
b0 #'
b1 &'
b0 )'
b0 ,'
#2197
1(
b100000000000000000000000000 )
0y#
b10 z#
1f&
1g&
b0 {&
b1 #'
b0 &'
b1 ,'
#2198
b11111111111111111111111111011011 I
b11 :&
1=&
b0 ?&
b1 b&
1h&
b1 ~&
b1 )'
b10 ,'
#2199
0(
1y#
b11 z#
b1 :&
0=&
b100000000000000000000000000000 ?&
b1111 b&
0f&
0g&
0h&
b1 {&
b0 ~&
b0 #'
b1 &'
b0 )'
b0 ,'
#2200
1(
0y#
b10 z#
1f&
1g&
b0 {&
b1 #'
b0 &'
b1 ,'
#2201
b11 :&
1=&
b0 ?&
b1 b&
1h&
b1 ~&
b1 )'
b10 ,'
#2202
0(
1y#
b11 z#
b1 :&
0=&
b100000000000000000000000000000 ?&
b1111 b&
0f&
0g&
0h&
b1 {&
b0 ~&
b0 #'
b1 &'
b0 )'
b0 ,'
#2203
1(
0y#
b10 z#
1f&
1g&
b0 {&
b1 #'
b0 &'
b1 ,'
#2204
b11 :&
1=&
b0 ?&
b1 b&
1h&
b1 ~&
b1 )'
b10 ,'
